<svg xmlns="http://www.w3.org/2000/svg" xmlns:xlink="http://www.w3.org/1999/xlink" preserveAspectRatio="none" viewBox="0 0 571 586">
  <defs>
    <style>
      .cls-1 {
        fill: none;
      }

      .cls-2 {
        isolation: isolate;
      }

      .cls-3 {
        clip-path: url(#clip-path);
      }

      .cls-4 {
        clip-path: url(#clip-path-2);
      }

      .cls-5 {
        fill: url(#linear-gradient);
      }

      .cls-6 {
        mix-blend-mode: color-burn;
      }

      .cls-7 {
        fill: url(#linear-gradient-2);
      }

      .cls-8 {
        fill: url(#linear-gradient-3);
      }

      .cls-9 {
        fill: url(#linear-gradient-4);
      }

      .cls-10 {
        fill: url(#linear-gradient-5);
      }

      .cls-11 {
        fill: url(#linear-gradient-6);
      }

      .cls-12 {
        fill: url(#linear-gradient-7);
      }

      .cls-13 {
        fill: url(#linear-gradient-8);
      }

      .cls-14 {
        fill: url(#linear-gradient-9);
      }

      .cls-15 {
        fill: url(#linear-gradient-10);
      }

      .cls-16 {
        fill: url(#linear-gradient-11);
      }

      .cls-17 {
        fill: url(#linear-gradient-12);
      }

      .cls-18 {
        fill: url(#linear-gradient-13);
      }

      .cls-19 {
        fill: url(#linear-gradient-14);
      }

      .cls-20 {
        fill: url(#linear-gradient-15);
      }

      .cls-21 {
        fill: url(#linear-gradient-16);
      }

      .cls-22 {
        fill: url(#linear-gradient-17);
      }

      .cls-23 {
        fill: url(#linear-gradient-18);
      }

      .cls-24 {
        fill: url(#linear-gradient-19);
      }

      .cls-25 {
        fill: url(#linear-gradient-20);
      }

      .cls-26 {
        fill: url(#linear-gradient-21);
      }

      .cls-27 {
        fill: url(#linear-gradient-22);
      }

      .cls-28 {
        fill: url(#linear-gradient-23);
      }

      .cls-29 {
        fill: url(#linear-gradient-24);
      }

      .cls-30 {
        fill: url(#linear-gradient-25);
      }

      .cls-31 {
        fill: url(#linear-gradient-26);
      }

      .cls-32 {
        fill: url(#linear-gradient-27);
      }

      .cls-33 {
        fill: url(#linear-gradient-28);
      }

      .cls-34 {
        fill: url(#linear-gradient-29);
      }

      .cls-35 {
        fill: url(#linear-gradient-30);
      }

      .cls-36 {
        fill: url(#linear-gradient-31);
      }

      .cls-37 {
        fill: url(#linear-gradient-32);
      }

      .cls-38 {
        fill: url(#linear-gradient-33);
      }

      .cls-39 {
        fill: url(#linear-gradient-34);
      }

      .cls-40 {
        fill: url(#linear-gradient-35);
      }

      .cls-41 {
        fill: url(#linear-gradient-36);
      }

      .cls-42 {
        fill: url(#linear-gradient-37);
      }

      .cls-43 {
        fill: url(#linear-gradient-38);
      }

      .cls-44 {
        fill: url(#linear-gradient-39);
      }

      .cls-45 {
        fill: #c1c1c1;
        opacity: 0.8;
        mix-blend-mode: overlay;
      }

      .cls-46 {
        fill: #d34f32;
        opacity: 0.7;
      }
    </style>
    <clipPath id="clip-path">
      <rect class="cls-1" x="13.78" y="6.95" width="543.74" height="572.04" rx="33.66"/>
    </clipPath>
    <clipPath id="clip-path-2">
      <rect class="cls-1" x="13.41" y="-78.85" width="550.6" height="725.69" rx="33.66"/>
    </clipPath>
    <linearGradient id="linear-gradient" x1="790.57" y1="-2053.97" x2="790.57" y2="-1517.33" gradientTransform="matrix(1, 0, 0, -1, -502.12, -1494.78)" gradientUnits="userSpaceOnUse">
      <stop offset="0" stop-color="#ed2c24" stop-opacity="0.75"/>
      <stop offset="0.12" stop-color="#ec3129" stop-opacity="0.76"/>
      <stop offset="0.27" stop-color="#eb3e37" stop-opacity="0.78"/>
      <stop offset="0.43" stop-color="#e8544e" stop-opacity="0.81"/>
      <stop offset="0.6" stop-color="#e4746f" stop-opacity="0.85"/>
      <stop offset="0.78" stop-color="#df9c99" stop-opacity="0.91"/>
      <stop offset="0.96" stop-color="#d8cccb" stop-opacity="0.98"/>
      <stop offset="1" stop-color="#d7d7d7"/>
    </linearGradient>
    <linearGradient id="linear-gradient-2" x1="-1260.36" y1="1185.13" x2="-1259.62" y2="1184.39" gradientTransform="matrix(0, 316, -188, 0, 222966.39, 398858.58)" gradientUnits="userSpaceOnUse">
      <stop offset="0" stop-color="#cbcbca"/>
      <stop offset="1" stop-color="#cdcccc"/>
    </linearGradient>
    <linearGradient id="linear-gradient-3" x1="-1262.46" y1="1202.99" x2="-1261.71" y2="1202.24" gradientTransform="matrix(0, 193, -81, 0, 97776.39, 243755.58)" gradientUnits="userSpaceOnUse">
      <stop offset="0" stop-color="#dad9d8"/>
      <stop offset="1" stop-color="#e0e1e0"/>
    </linearGradient>
    <linearGradient id="linear-gradient-4" x1="-1259.87" y1="1179.27" x2="-1259.12" y2="1178.52" gradientTransform="matrix(0, 322, -348, 0, 410612.39, 405972.58)" gradientUnits="userSpaceOnUse">
      <stop offset="0" stop-color="#dcdcdc"/>
      <stop offset="1" stop-color="#949494"/>
    </linearGradient>
    <linearGradient id="linear-gradient-5" x1="-1264.19" y1="1177.86" x2="-1263.46" y2="1177.13" gradientTransform="matrix(0, 160, -428, 0, 504372.39, 202662.58)" gradientUnits="userSpaceOnUse">
      <stop offset="0" stop-color="#676767"/>
      <stop offset="1" stop-color="#969696"/>
    </linearGradient>
    <linearGradient id="linear-gradient-6" x1="-1268.31" y1="1177.68" x2="-1267.56" y2="1176.93" gradientTransform="matrix(0, 111, -430, 0, 506716.39, 141251.58)" gradientUnits="userSpaceOnUse">
      <stop offset="0" stop-color="#888"/>
      <stop offset="1" stop-color="#969595"/>
    </linearGradient>
    <linearGradient id="linear-gradient-7" x1="-1259.35" y1="1187.1" x2="-1258.53" y2="1186.29" gradientTransform="matrix(0, 416, -163, 0, 193691.39, 524358.58)" gradientUnits="userSpaceOnUse">
      <stop offset="0" stop-color="#c2c2c2"/>
      <stop offset="1" stop-color="#c6c5c4"/>
    </linearGradient>
    <linearGradient id="linear-gradient-8" x1="-1259.8" y1="1179.81" x2="-1259.05" y2="1179.06" gradientTransform="matrix(0, 308, -300, 0, 353738.39, 387972.58)" gradientUnits="userSpaceOnUse">
      <stop offset="0" stop-color="#e2e2e2"/>
      <stop offset="1" stop-color="#f0efef"/>
    </linearGradient>
    <linearGradient id="linear-gradient-9" x1="-1260.49" y1="1179.44" x2="-1259.84" y2="1178.78" gradientTransform="matrix(0, 282, -300, 0, 353738.39, 355545.58)" gradientUnits="userSpaceOnUse">
      <stop offset="0" stop-color="#f5f5f5"/>
      <stop offset="1" stop-color="#f2f2f2"/>
    </linearGradient>
    <linearGradient id="linear-gradient-10" x1="-1264.76" y1="1200.33" x2="-1264.01" y2="1199.59" gradientTransform="matrix(0, 141, -88, 0, 105892.39, 178451.58)" gradientUnits="userSpaceOnUse">
      <stop offset="0" stop-color="#dcdcdc"/>
      <stop offset="1" stop-color="#e8e7e7"/>
    </linearGradient>
    <linearGradient id="linear-gradient-11" x1="-1262.58" y1="1188.96" x2="-1261.84" y2="1188.22" gradientTransform="matrix(0, 185, -148, 0, 176233.39, 233715.58)" gradientUnits="userSpaceOnUse">
      <stop offset="0" stop-color="#dfdfde"/>
      <stop offset="1" stop-color="#ebebeb"/>
    </linearGradient>
    <linearGradient id="linear-gradient-12" x1="-1275.64" y1="1178.99" x2="-1274.89" y2="1178.25" gradientTransform="matrix(0, 64, -339, 0, 399746.39, 81816.58)" gradientUnits="userSpaceOnUse">
      <stop offset="0" stop-color="#ececec"/>
      <stop offset="1" stop-color="#e9e9e9"/>
    </linearGradient>
    <linearGradient id="linear-gradient-13" x1="-1259.44" y1="1186.8" x2="-1258.68" y2="1186.04" gradientTransform="matrix(0, 366, -169, 0, 200824.39, 461192.58)" gradientUnits="userSpaceOnUse">
      <stop offset="0" stop-color="#e9e9e9"/>
      <stop offset="1" stop-color="#d6d6d6"/>
    </linearGradient>
    <linearGradient id="linear-gradient-14" x1="-1262.3" y1="1178.59" x2="-1261.56" y2="1177.85" gradientTransform="matrix(0, 201, -385, 0, 454145.39, 253957.58)" gradientUnits="userSpaceOnUse">
      <stop offset="0" stop-color="#bfbebe"/>
      <stop offset="1" stop-color="#4f4f4f"/>
    </linearGradient>
    <linearGradient id="linear-gradient-15" x1="-1262.04" y1="1180.63" x2="-1261.37" y2="1179.95" gradientTransform="matrix(0, 201, -311, 0, 367596.39, 253957.58)" gradientUnits="userSpaceOnUse">
      <stop offset="0" stop-color="#1b1c1c"/>
      <stop offset="1" stop-color="#737374"/>
    </linearGradient>
    <linearGradient id="linear-gradient-16" x1="-1264.1" y1="1180.4" x2="-1263.35" y2="1179.66" gradientTransform="matrix(0, 160, -311, 0, 367596.39, 202635.58)" gradientUnits="userSpaceOnUse">
      <stop offset="0" stop-color="#595a5a"/>
      <stop offset="1" stop-color="#a6a6a6"/>
    </linearGradient>
    <linearGradient id="linear-gradient-17" x1="-1259.67" y1="1179.12" x2="-1258.92" y2="1178.37" gradientTransform="matrix(0, 342, -339, 0, 399746.39, 430984.58)" gradientUnits="userSpaceOnUse">
      <stop offset="0" stop-color="#f1f1f1"/>
      <stop offset="1" stop-color="#e0e1e0"/>
    </linearGradient>
    <linearGradient id="linear-gradient-18" x1="-1259.71" y1="1182.98" x2="-1258.97" y2="1182.24" gradientTransform="matrix(0, 342, -216, 0, 255461.39, 430984.58)" gradientUnits="userSpaceOnUse">
      <stop offset="0" stop-color="#f0efef"/>
      <stop offset="1" stop-color="#e0e1e0"/>
    </linearGradient>
    <linearGradient id="linear-gradient-19" x1="-1259.51" y1="1181.64" x2="-1258.76" y2="1180.89" gradientTransform="matrix(0, 366, -252, 0, 297869.39, 461192.58)" gradientUnits="userSpaceOnUse">
      <stop offset="0" stop-color="#dfdfde"/>
      <stop offset="1" stop-color="#c1c1c1"/>
    </linearGradient>
    <linearGradient id="linear-gradient-20" x1="-1265.33" y1="1181.17" x2="-1264.58" y2="1180.42" gradientTransform="matrix(0, 139, -260, 0, 306985.39, 176219.58)" gradientUnits="userSpaceOnUse">
      <stop offset="0" stop-color="#e1e1e1"/>
      <stop offset="1" stop-color="#cdcdcd"/>
    </linearGradient>
    <linearGradient id="linear-gradient-21" x1="-1261.96" y1="1180.91" x2="-1261.22" y2="1180.17" gradientTransform="matrix(0, 227, -260, 0, 306985.39, 286842.58)" gradientUnits="userSpaceOnUse">
      <stop offset="0" stop-color="#c6c5c4"/>
      <stop offset="1" stop-color="#c1c1c1"/>
    </linearGradient>
    <linearGradient id="linear-gradient-22" x1="-1263.13" y1="1182.54" x2="-1262.38" y2="1181.8" gradientTransform="matrix(0, 188, -231, 0, 273257.39, 237902.58)" gradientUnits="userSpaceOnUse">
      <stop offset="0" stop-color="#b4b4b5"/>
      <stop offset="1" stop-color="#bfbebe"/>
    </linearGradient>
    <linearGradient id="linear-gradient-23" x1="-1261.19" y1="1179.01" x2="-1260.45" y2="1178.27" gradientTransform="matrix(0, 260, -337, 0, 397257.39, 328334.58)" gradientUnits="userSpaceOnUse">
      <stop offset="0" stop-color="#c1c1c1"/>
      <stop offset="1" stop-color="#c3c3c3"/>
    </linearGradient>
    <linearGradient id="linear-gradient-24" x1="-1261.16" y1="1190.75" x2="-1260.41" y2="1190" gradientTransform="translate(154885.39 328334.58) rotate(90) scale(260 130)" gradientUnits="userSpaceOnUse">
      <stop offset="0" stop-color="#bebdbd"/>
      <stop offset="1" stop-color="#c2c2c2"/>
    </linearGradient>
    <linearGradient id="linear-gradient-25" x1="-1257.66" y1="1187.52" x2="-1256.91" y2="1186.78" gradientTransform="matrix(0, 571, -169, 0, 201194.39, 717889.58)" gradientUnits="userSpaceOnUse">
      <stop offset="0" stop-color="#575757"/>
      <stop offset="1" stop-color="#8c8c8c"/>
    </linearGradient>
    <linearGradient id="linear-gradient-26" x1="-1257.91" y1="1183.79" x2="-1257.17" y2="1183.04" gradientTransform="matrix(0, 571, -215, 0, 254930.39, 717889.58)" xlink:href="#linear-gradient-25"/>
    <linearGradient id="linear-gradient-27" x1="-1257.78" y1="1181.57" x2="-1256.96" y2="1180.75" gradientTransform="matrix(0, 576, -271, 0, 320506.39, 724227.58)" gradientUnits="userSpaceOnUse">
      <stop offset="0" stop-color="#929292"/>
      <stop offset="1" stop-color="#a4a3a3"/>
    </linearGradient>
    <linearGradient id="linear-gradient-28" x1="-1260.75" y1="1181.32" x2="-1260" y2="1180.58" gradientTransform="matrix(0, 256, -271, 0, 320506.39, 322820.58)" gradientUnits="userSpaceOnUse">
      <stop offset="0" stop-color="#c3c3c3"/>
      <stop offset="1" stop-color="#b9b9ba"/>
    </linearGradient>
    <linearGradient id="linear-gradient-29" x1="-1260.63" y1="1178.65" x2="-1259.96" y2="1177.97" gradientTransform="matrix(0, 256, -385, 0, 454145.39, 322820.58)" gradientUnits="userSpaceOnUse">
      <stop offset="0" stop-color="#545554"/>
      <stop offset="1" stop-color="#acacac"/>
    </linearGradient>
    <linearGradient id="linear-gradient-30" x1="-1258.27" y1="1179.06" x2="-1257.53" y2="1178.31" gradientTransform="matrix(0, 444, -356, 0, 419826.39, 558435.58)" gradientUnits="userSpaceOnUse">
      <stop offset="0" stop-color="#a4a3a3"/>
      <stop offset="1" stop-color="#c1c1c1"/>
    </linearGradient>
    <linearGradient id="linear-gradient-31" x1="-1257.85" y1="1182.18" x2="-1257.04" y2="1181.38" gradientTransform="matrix(0, 576, -247, 0, 292187.39, 724227.58)" gradientUnits="userSpaceOnUse">
      <stop offset="0" stop-color="#a8a7a7"/>
      <stop offset="1" stop-color="#c7c7c7"/>
    </linearGradient>
    <linearGradient id="linear-gradient-32" x1="-1264.48" y1="1185.04" x2="-1263.73" y2="1184.29" gradientTransform="matrix(0, 140, -191, 0, 226555.39, 177055.58)" gradientUnits="userSpaceOnUse">
      <stop offset="0" stop-color="#d1d1d1"/>
      <stop offset="1" stop-color="#cecece"/>
    </linearGradient>
    <linearGradient id="linear-gradient-33" x1="-1261.17" y1="1189.66" x2="-1260.42" y2="1188.91" gradientTransform="matrix(0, 229, -141, 0, 167955.39, 288839.58)" gradientUnits="userSpaceOnUse">
      <stop offset="0" stop-color="#d5d4d4"/>
      <stop offset="1" stop-color="#d5d5d5"/>
    </linearGradient>
    <linearGradient id="linear-gradient-34" x1="-1261.18" y1="1179.62" x2="-1260.44" y2="1178.88" gradientTransform="matrix(0, 229, -318, 0, 375134.39, 288839.58)" gradientUnits="userSpaceOnUse">
      <stop offset="0" stop-color="#e8e7e7"/>
      <stop offset="1" stop-color="#dad9d8"/>
    </linearGradient>
    <linearGradient id="linear-gradient-35" x1="-1260.09" y1="1177.71" x2="-1259.28" y2="1176.9" gradientTransform="matrix(0, 341, -430, 0, 506716.39, 430158.58)" gradientUnits="userSpaceOnUse">
      <stop offset="0" stop-color="#a8a7a7"/>
      <stop offset="1" stop-color="#9e9e9e"/>
    </linearGradient>
    <linearGradient id="linear-gradient-36" x1="-1259.22" y1="1180.72" x2="-1258.47" y2="1179.97" gradientTransform="matrix(0, 416, -288, 0, 340292.39, 524358.58)" gradientUnits="userSpaceOnUse">
      <stop offset="0" stop-color="#c7c6c5"/>
      <stop offset="1" stop-color="#cdcdcd"/>
    </linearGradient>
    <linearGradient id="linear-gradient-37" x1="-1261.12" y1="1194.72" x2="-1260.34" y2="1193.94" gradientTransform="matrix(0, 217, -109, 0, 130342.39, 273550.58)" gradientUnits="userSpaceOnUse">
      <stop offset="0" stop-color="#c8c8c8"/>
      <stop offset="1" stop-color="#cacac9"/>
    </linearGradient>
    <linearGradient id="linear-gradient-38" x1="-1259.81" y1="1178.23" x2="-1259.15" y2="1177.57" gradientTransform="matrix(0, 308, -371, 0, 437037.39, 387972.58)" gradientUnits="userSpaceOnUse">
      <stop offset="0" stop-color="#dcdcdc"/>
      <stop offset="1" stop-color="#dfdfde"/>
    </linearGradient>
    <linearGradient id="linear-gradient-39" x1="-1260.53" y1="1181.15" x2="-1259.78" y2="1180.4" gradientTransform="matrix(0, 259, -265, 0, 313018.39, 326477.58)" gradientUnits="userSpaceOnUse">
      <stop offset="0" stop-color="#cfcfcf"/>
      <stop offset="1" stop-color="#dcdcdc"/>
    </linearGradient>
  </defs>
  <g class="cls-2">
    <g id="Layer_1" data-name="Layer 1">
      <g class="cls-3">
        <g class="cls-4">
          <g>
            <rect class="cls-5" x="-76" y="7.41" width="728.9" height="549.48" transform="translate(570.6 -6.31) rotate(90)"/>
            <g class="cls-6">
              <polygon class="cls-7" points="176.34 646.6 164.21 631.09 183.03 577.68 219.11 646.6 176.34 646.6"/>
              <polygon id="triangle36" class="cls-8" points="362.97 121.52 325.32 127.46 386.31 264.68 362.97 121.52"/>
              <polygon id="triangle36-2" data-name="triangle36" class="cls-9" points="386.31 264.68 521.07 384.84 259.07 503.51 386.31 264.68"/>
              <polygon class="cls-10" points="563.2 484.61 259.07 503.51 521.07 384.84 563.2 453.83 563.2 484.61"/>
              <polygon class="cls-11" points="563.2 562.04 259.07 503.51 563.2 484.61 563.2 562.04"/>
              <polygon class="cls-12" points="219.11 646.6 183.03 577.68 259.07 503.51 280.71 646.6 219.11 646.6"/>
              <polygon class="cls-13" points="13.71 176.11 19.66 184.57 13.71 183.03 13.71 176.11"/>
              <polygon class="cls-14" points="13.71 183.03 19.66 184.57 13.71 193.78 13.71 183.03"/>
              <polygon id="triangle36-3" data-name="triangle36" class="cls-15" points="325.32 127.46 259.07 193.47 274.88 232.04 325.32 127.46"/>
              <polygon id="triangle36-4" data-name="triangle36" class="cls-16" points="325.32 127.46 386.31 264.68 274.88 232.04 325.32 127.46"/>
              <polygon id="triangle36-5" data-name="triangle36" class="cls-17" points="19.66 184.57 259.07 193.47 274.88 232.04 19.66 184.57"/>
              <polygon id="triangle36-6" data-name="triangle36" class="cls-18" points="386.31 264.68 259.07 503.51 274.88 232.04 386.31 264.68"/>
              <polygon class="cls-19" points="563.2 344.34 521.07 384.84 386.31 264.68 563.2 247.02 563.2 344.34"/>
              <polygon class="cls-20" points="563.2 381.23 521.07 384.84 563.2 344.34 563.2 381.23"/>
              <polygon class="cls-21" points="563.2 453.83 521.07 384.84 563.2 381.23 563.2 453.83"/>
              <polygon id="triangle36-7" data-name="triangle36" class="cls-22" points="19.66 184.57 274.88 232.04 85.16 438.24 19.66 184.57"/>
              <polygon class="cls-23" points="13.71 193.78 19.66 184.57 85.16 438.24 13.71 392.95 13.71 193.78"/>
              <polygon id="triangle36-8" data-name="triangle36" class="cls-24" points="274.88 232.04 259.07 503.51 85.16 438.24 274.88 232.04"/>
              <polygon class="cls-25" points="13.71 392.95 85.16 438.24 13.71 426.33 13.71 392.95"/>
              <polygon class="cls-26" points="13.71 426.33 85.16 438.24 13.71 493.76 13.71 426.33"/>
              <polygon id="triangle36-9" data-name="triangle36" class="cls-27" points="259.07 503.51 183.03 577.68 85.16 438.24 259.07 503.51"/>
              <polygon class="cls-28" points="13.71 493.76 85.16 438.24 164.21 631.09 13.71 597.21 13.71 493.76"/>
              <polygon id="triangle36-10" data-name="triangle36" class="cls-29" points="183.03 577.68 164.21 631.09 85.16 438.24 183.03 577.68"/>
              <polygon class="cls-30" points="556.1 -82.3 563.2 -82.3 563.2 19.98 556.1 -82.3"/>
              <polygon class="cls-31" points="500.17 -82.3 556.1 -82.3 563.2 19.98 563.2 65.86 500.17 -82.3"/>
              <polygon class="cls-32" points="383.08 -82.3 500.17 -82.3 563.2 65.86 563.2 75.66 362.97 121.52 383.08 -82.3"/>
              <polygon class="cls-33" points="563.2 78.79 386.31 264.68 362.97 121.52 563.2 75.66 563.2 78.79"/>
              <polygon class="cls-34" points="563.2 247.02 386.31 264.68 563.2 78.79 563.2 247.02"/>
              <polygon class="cls-35" points="165.16 -82.3 278.98 -82.3 219.17 23.61 165.16 -82.3"/>
              <polygon class="cls-36" points="383.08 -82.3 362.97 121.52 219.17 23.61 278.98 -82.3 383.08 -82.3"/>
              <polygon id="triangle36-11" data-name="triangle36" class="cls-37" points="362.97 121.52 325.32 127.46 219.17 23.61 362.97 121.52"/>
              <polygon id="triangle36-12" data-name="triangle36" class="cls-38" points="325.32 127.46 259.07 193.47 219.17 23.61 325.32 127.46"/>
              <polygon id="triangle36-13" data-name="triangle36" class="cls-39" points="19.66 184.57 259.07 193.47 219.17 23.61 19.66 184.57"/>
              <polygon class="cls-40" points="381.73 646.6 259.07 503.51 563.2 562.04 563.2 600.78 537.5 646.6 381.73 646.6"/>
              <polygon class="cls-41" points="280.71 646.6 259.07 503.51 381.73 646.6 280.71 646.6"/>
              <polygon class="cls-42" points="165.16 -82.3 219.17 23.61 138.61 -7.54 137.74 -82.3 165.16 -82.3"/>
              <polygon class="cls-43" points="13.71 -23.79 138.61 -7.54 19.66 184.57 13.71 176.11 13.71 -23.79"/>
              <polygon id="triangle36-14" data-name="triangle36" class="cls-44" points="219.17 23.61 19.66 184.57 138.61 -7.54 219.17 23.61"/>
            </g>
            <path class="cls-45" d="M533.78-61.39,563.2-38v-.49L508.14-82.3h-.62ZM563.2,631l-25.63,15.6h.71l24.92-15.17ZM150.78,646.6l18.08-7.31-6.26,7.31h.54l5.87-6.84-2,6.84h.49l2.1-7.05,2.75,7.05h.49l-2.91-7.48,24.32,7.48h1.14l-25.18-7.74L268,616.77l-.2.2.74-.3,46,29.93h.68l-46.19-30,175.36-19.2-9,49.22h.48l9-48.93.42.46-.15-.43,27.38,18.19,18.34,12.18L476.55,646.6h.54l14.21-18.43,71.9-17.34v-.33l-72,17.36-30.47-20.24-15.46-10.27H563.2V597H445.1L563.2,462.75v-.63L444.78,596.77,403,477.89l.17,0-.16-.19L563.2,431v-.35L523,442.35l-119.72,35,.71-.73-1.13.73v-.14l0,0L348.64,157.54,510.57,326.26l52.63,54.83v-.59L348.82,157.13l24.75,4.26L563.2,194v-.33L349.71,157,563.2,145.11v-.32L349.28,156.67l89.14-36.07L563.2,70.12v-.37L437.47,120.61,348.78,156.5,491.2-82.3h-.51L477.13-59.56,348.59,156,364.13-82.3h-.48L354.63,56l-6.54,100.41-.15-.15.07.39-51.31-17.2L146.26,89l.07,0h-.07L217.77,19.5,322.64-82.3h-.58L192.72,43.25,146,88.62,96.59-82.3H96.1L117.76-7.39l27.75,96-19.24-10.9L13.71,14v.42L127.58,78.87,145,88.73,13.71,69.18v.32L145.4,89.11,13.71,180.53V181l132-91.63,0,.07,0,0,91.73,199.9-90.58-18.22L13.71,244.28v.33l63,12.65,160.71,32.32-68.73,35.8L85.46,368.71l-55-53.41L13.71,299v.56L85,368.79l-71.25.84V370l70.43-.84L13.71,388.32v.34l71-19.36-71,64.77v.54l27.07-24.69L85.41,369.2l73.26,62.93-53.3,22.37L13.71,493v.38L102,456.27l56.77-23.82,10.49,206.12L13.71,584.51v.36L168.93,638.8h0l.13,0-19.16,7.75Zm8.55-213L212.71,573.9,221,595.6l-.12.08h0L170,638.23l.1-.32-.31.36Zm78-143.66-47.1,85.2-31.21,56.46-.36-.94.05,1L85.79,369l.88-.24h-.56l88.06-45.87Zm1-.93-.1.05L258.06,239l1.77-4.49,76.39,130.32,65.07,111L255.66,309.51l-17.47-20,.2-.1-.2,0ZM146.85,90.61,227.4,193.12,259.53,234l-1.65,4.18-20,50.74-40.61-88.49Zm113,143.06-.11-.19,0,.08L146.42,89.38l201,67.39-.55,0,.81.14-.38.15.47,0ZM402.18,476.48,331.7,356.24,260.06,234l88-76.64,0,.43.17-.28,20.27,119.7Zm-.06.93L159.33,432.07l74.58-134.92,4-7.14,0,.08.06-.16,95.69,109.28Zm-73.74,48.33-107,69.61-62-163,242.81,45.35Zm115.73,70.51-34.24-37.66L406.53,520,403,479.49ZM402.56,479.68l6.83,78.87L269.32,616l133.11-137.8ZM269.7,616.19l139.85-57.33L444.26,597h-.15l.08.05-78.37,8.57Zm-1.22.06-46.87-20.62,90.55-58.9,89.12-58Zm-98.26,22.26,31.19-26,19.87-16.6L268,616.43Z"/>
          </g>
        </g>
      </g>
      <rect class="cls-46" x="13.78" y="6.95" width="543.74" height="572.04" rx="33.66"/>
    </g>
  </g>
</svg>
