<?xml version="1.0" encoding="utf-8"?>
<!-- Generator: Adobe Illustrator 25.2.0, SVG Export Plug-In . SVG Version: 6.00 Build 0)  -->
<svg version="1.1" id="Layer_1" xmlns="http://www.w3.org/2000/svg" xmlns:xlink="http://www.w3.org/1999/xlink" x="0px" y="0px"
	 viewBox="0 0 132 101" enable-background="new 0 0 132 101" xml:space="preserve">
<g>
	<g>
		<g>
			<path fill="#FFFFFF" d="M10.2,60.6c0.5,0,0.9-0.4,0.9-0.9V13.9h4.7c0.5,0,0.9-0.4,0.9-0.9s-0.4-0.9-0.9-0.9h-5.6
				c-0.5,0-0.9,0.4-0.9,0.9v46.8C9.3,60.2,9.7,60.6,10.2,60.6z"/>
			<path fill="#FFFFFF" d="M10.2,61c-0.7,0-1.3-0.6-1.3-1.3V13c0-0.7,0.6-1.3,1.3-1.3h5.6c0.7,0,1.3,0.6,1.3,1.3
				c0,0.7-0.6,1.3-1.3,1.3h-4.3v45.5C11.5,60.5,10.9,61,10.2,61z M10.2,12.5c-0.3,0-0.5,0.2-0.5,0.5v46.8c0,0.3,0.2,0.5,0.5,0.5
				c0.3,0,0.5-0.2,0.5-0.5V13.5h5.1c0.3,0,0.5-0.2,0.5-0.5c0-0.3-0.2-0.5-0.5-0.5H10.2z"/>
		</g>
	</g>
	<g>
		<g>
			<path fill="#FFFFFF" d="M84.6,58c0.5,0,0.9-0.4,0.9-0.9V43.4h4.7c0.5,0,0.9-0.4,0.9-0.9s-0.4-0.9-0.9-0.9h-5.6
				c-0.5,0-0.9,0.4-0.9,0.9v14.5C83.7,57.6,84.1,58,84.6,58z"/>
		</g>
	</g>
	<g>
		<g>
			<path fill="#FFFFFF" d="M108,48.5c0.5,0,0.9-0.4,0.9-0.9v-5.4h4.6c0.5,0,0.9-0.4,0.9-0.9c0-0.5-0.4-0.9-0.9-0.9H108
				c-0.5,0-0.9,0.4-0.9,0.9v6.3C107.1,48.1,107.5,48.5,108,48.5z"/>
		</g>
	</g>
	<g>
		<path fill="#FFFFFF" d="M129.5,72c-0.8,2.4-2.5,3.3-5,3.2c-2.3-0.1-4.6,0-7,0c0,0.5,0,1,0,1.4c0,4,0,8.1,0,12.1
			c0,2.9-1.6,4.5-4.5,4.5c-10.9,0-21.8,0-32.7,0c-3.1,0-4.7-1.6-4.7-4.7c0-1.1,0-2.1,0-3.3h-4.3c0,2.1,0,4,0,6c0,2,0,4,0,6.2h8.2
			v3.7h-40v-3.7h7.8V85.2c-0.5,0-1,0-1.5,0c-13.1,0-26.2,0-39.3,0c-2.5,0-4.3-0.9-5.2-3.2V3.9c1.1-2.1,2.8-2.8,5.1-2.8
			c35.4,0,70.8,0,106.3,0c3.5,0,4.8,1.3,4.8,4.8c0,5.2,0,10.4,0,15.7c0,0.7-0.5,1.2-1.2,1.2h-1.3c-0.7,0-1.2-0.5-1.2-1.2V5H5.2v64.4
			h65.1c0.7,0,1.2,0.6,1.2,1.2v1.2c0,0.7-0.6,1.2-1.2,1.2H5.2v8.2h70.4c0-0.6,0-1.1,0-1.6c0-13.2,0-26.5,0-39.7
			c0-3.4,1.4-4.8,4.8-4.8c6.6,0,13.2,0,19.8,0c0.5,0,0.9,0,1.5,0c0-1.3,0-2.6,0-3.8c0-2.4,1.5-4.1,3.9-4.2c6.8-0.1,13.5,0,20.3,0
			c1.8,0,2.9,1.2,3.7,2.7V72z M101.7,39.1c-7.6,0-14.9,0-22.3,0c0,14.1,0,28.2,0,42.2c11.4,0,22.8,0,34.2,0c0-2.1,0-4.1,0-6.2
			c-2.5,0-4.8,0-7.2,0c-3.2,0-4.7-1.6-4.7-4.8c0-9.9,0-19.8,0-29.8C101.7,40.2,101.7,39.7,101.7,39.1z M105.5,39.1
			c0,8.1,0,16.1,0,24.2c6.8,0,13.4,0,20.1,0c0-8.1,0-16.1,0-24.2C118.9,39.1,112.3,39.1,105.5,39.1z M51.3,97.5c5.5,0,10.8,0,16.2,0
			c0-4.1,0-8.1,0-12.1c-5.4,0-10.8,0-16.2,0C51.3,89.4,51.3,93.4,51.3,97.5z M79.4,89.4c11.5,0,22.9,0,34.2,0c0-1.4,0-2.7,0-4.1
			c-11.5,0-22.8,0-34.2,0C79.4,86.8,79.4,88,79.4,89.4z M105.5,35.2c6.8,0,13.5,0,20.2,0c0-1.4,0-2.7,0-4.1c-6.8,0-13.4,0-20.2,0
			C105.5,32.5,105.5,33.8,105.5,35.2z M105.5,71.3c6.8,0,13.5,0,20.2,0c0-1.4,0-2.7,0-4.1c-6.8,0-13.4,0-20.2,0
			C105.5,68.6,105.5,69.9,105.5,71.3z"/>
	</g>
</g>
</svg>
