<svg xmlns="http://www.w3.org/2000/svg" xmlns:xlink="http://www.w3.org/1999/xlink" preserveAspectRatio="none" viewBox="0 0 560 459">
  <defs>
    <style>
      .cls-1 {
        fill: none;
      }

      .cls-2 {
        isolation: isolate;
      }

      .cls-3 {
        clip-path: url(#clip-path);
      }

      .cls-4 {
        fill: url(#linear-gradient);
      }

      .cls-5 {
        mix-blend-mode: color-burn;
      }

      .cls-6 {
        fill: url(#linear-gradient-2);
      }

      .cls-7 {
        fill: url(#linear-gradient-3);
      }

      .cls-8 {
        fill: url(#linear-gradient-4);
      }

      .cls-9 {
        fill: url(#linear-gradient-5);
      }

      .cls-10 {
        fill: url(#linear-gradient-6);
      }

      .cls-11 {
        fill: url(#linear-gradient-7);
      }

      .cls-12 {
        fill: url(#linear-gradient-8);
      }

      .cls-13 {
        fill: url(#linear-gradient-9);
      }

      .cls-14 {
        fill: url(#linear-gradient-10);
      }

      .cls-15 {
        fill: url(#linear-gradient-11);
      }

      .cls-16 {
        fill: url(#linear-gradient-12);
      }

      .cls-17 {
        fill: url(#linear-gradient-13);
      }

      .cls-18 {
        fill: url(#linear-gradient-14);
      }

      .cls-19 {
        fill: url(#linear-gradient-15);
      }

      .cls-20 {
        fill: url(#linear-gradient-16);
      }

      .cls-21 {
        fill: url(#linear-gradient-17);
      }

      .cls-22 {
        fill: url(#linear-gradient-18);
      }

      .cls-23 {
        fill: url(#linear-gradient-19);
      }

      .cls-24 {
        fill: url(#linear-gradient-20);
      }

      .cls-25 {
        fill: url(#linear-gradient-21);
      }

      .cls-26 {
        fill: url(#linear-gradient-22);
      }

      .cls-27 {
        fill: url(#linear-gradient-23);
      }

      .cls-28 {
        fill: url(#linear-gradient-24);
      }

      .cls-29 {
        fill: url(#linear-gradient-25);
      }

      .cls-30 {
        fill: url(#linear-gradient-26);
      }

      .cls-31 {
        fill: url(#linear-gradient-27);
      }

      .cls-32 {
        fill: url(#linear-gradient-28);
      }

      .cls-33 {
        fill: url(#linear-gradient-29);
      }

      .cls-34 {
        fill: url(#linear-gradient-30);
      }

      .cls-35 {
        fill: url(#linear-gradient-31);
      }

      .cls-36 {
        fill: url(#linear-gradient-32);
      }

      .cls-37 {
        fill: #c1c1c1;
        opacity: 0.8;
        mix-blend-mode: overlay;
      }

      .cls-38 {
        fill: #672828;
        opacity: 0.7;
      }
    </style>
    <clipPath id="clip-path">
      <rect class="cls-1" x="7.96" y="7.43" width="543.74" height="440.03" rx="33.66"/>
    </clipPath>
    <linearGradient id="linear-gradient" x1="-331.55" y1="-3592.53" x2="-331.55" y2="-3037.45" gradientTransform="translate(623.14 3579)" gradientUnits="userSpaceOnUse">
      <stop offset="0" stop-color="#ed2c24" stop-opacity="0.75"/>
      <stop offset="0.12" stop-color="#ec3129" stop-opacity="0.76"/>
      <stop offset="0.27" stop-color="#eb3e37" stop-opacity="0.78"/>
      <stop offset="0.43" stop-color="#e8544e" stop-opacity="0.81"/>
      <stop offset="0.6" stop-color="#e4746f" stop-opacity="0.85"/>
      <stop offset="0.78" stop-color="#df9c99" stop-opacity="0.91"/>
      <stop offset="0.96" stop-color="#d8cccb" stop-opacity="0.98"/>
      <stop offset="1" stop-color="#d7d7d7"/>
    </linearGradient>
    <linearGradient id="linear-gradient-2" x1="-2196.47" y1="1404.07" x2="-2195.7" y2="1403.3" gradientTransform="matrix(0, 193, 81, 0, -113485.38, 424004.58)" gradientUnits="userSpaceOnUse">
      <stop offset="0" stop-color="#dad9d8"/>
      <stop offset="1" stop-color="#e0e1e0"/>
    </linearGradient>
    <linearGradient id="linear-gradient-3" x1="-2193.46" y1="1364.18" x2="-2192.68" y2="1363.41" gradientTransform="matrix(0, 322, 348, 0, -474381.38, 706578.58)" gradientUnits="userSpaceOnUse">
      <stop offset="0" stop-color="#dcdcdc"/>
      <stop offset="1" stop-color="#949494"/>
    </linearGradient>
    <linearGradient id="linear-gradient-4" x1="-2198.35" y1="1361.85" x2="-2197.6" y2="1361.1" gradientTransform="matrix(0, 160, 428, 0, -582541.38, 352122.58)" gradientUnits="userSpaceOnUse">
      <stop offset="0" stop-color="#676767"/>
      <stop offset="1" stop-color="#969696"/>
    </linearGradient>
    <linearGradient id="linear-gradient-5" x1="-2199.14" y1="1399.76" x2="-2198.37" y2="1398.99" gradientTransform="matrix(0, 141, 88, 0, -122861.38, 310184.58)" gradientUnits="userSpaceOnUse">
      <stop offset="0" stop-color="#dcdcdc"/>
      <stop offset="1" stop-color="#e8e7e7"/>
    </linearGradient>
    <linearGradient id="linear-gradient-6" x1="-2196.63" y1="1380.52" x2="-2195.86" y2="1379.74" gradientTransform="matrix(0, 185, 148, 0, -204002.38, 406500.58)" gradientUnits="userSpaceOnUse">
      <stop offset="0" stop-color="#dfdfde"/>
      <stop offset="1" stop-color="#ebebeb"/>
    </linearGradient>
    <linearGradient id="linear-gradient-7" x1="-2211.65" y1="1364.06" x2="-2210.88" y2="1363.28" gradientTransform="matrix(0, 64, 339, 0, -461895.38, 141708.58)" gradientUnits="userSpaceOnUse">
      <stop offset="0" stop-color="#ececec"/>
      <stop offset="1" stop-color="#e9e9e9"/>
    </linearGradient>
    <linearGradient id="linear-gradient-8" x1="-2192.96" y1="1376.92" x2="-2192.18" y2="1376.14" gradientTransform="matrix(0, 366, 169, 0, -232373.38, 802850.58)" gradientUnits="userSpaceOnUse">
      <stop offset="0" stop-color="#e9e9e9"/>
      <stop offset="1" stop-color="#d6d6d6"/>
    </linearGradient>
    <linearGradient id="linear-gradient-9" x1="-2196.25" y1="1363.02" x2="-2195.48" y2="1362.25" gradientTransform="matrix(0, 201, 385, 0, -524574.38, 441670.58)" gradientUnits="userSpaceOnUse">
      <stop offset="0" stop-color="#bfbebe"/>
      <stop offset="1" stop-color="#4f4f4f"/>
    </linearGradient>
    <linearGradient id="linear-gradient-10" x1="-2195.98" y1="1366.11" x2="-2195.28" y2="1365.41" gradientTransform="matrix(0, 201, 311, 0, -424705.38, 441670.58)" gradientUnits="userSpaceOnUse">
      <stop offset="0" stop-color="#1b1c1c"/>
      <stop offset="1" stop-color="#737374"/>
    </linearGradient>
    <linearGradient id="linear-gradient-11" x1="-2198.26" y1="1365.88" x2="-2197.49" y2="1365.11" gradientTransform="matrix(0, 160, 311, 0, -424705.38, 352095.58)" gradientUnits="userSpaceOnUse">
      <stop offset="0" stop-color="#595a5a"/>
      <stop offset="1" stop-color="#a6a6a6"/>
    </linearGradient>
    <linearGradient id="linear-gradient-12" x1="-2193.23" y1="1364.19" x2="-2192.46" y2="1363.42" gradientTransform="matrix(0, 342, 339, 0, -461895.38, 750250.58)" gradientUnits="userSpaceOnUse">
      <stop offset="0" stop-color="#f1f1f1"/>
      <stop offset="1" stop-color="#e0e1e0"/>
    </linearGradient>
    <linearGradient id="linear-gradient-13" x1="-2193.28" y1="1370.95" x2="-2192.51" y2="1370.18" gradientTransform="matrix(0, 342, 216, 0, -295470.38, 750250.58)" gradientUnits="userSpaceOnUse">
      <stop offset="0" stop-color="#f0efef"/>
      <stop offset="1" stop-color="#e0e1e0"/>
    </linearGradient>
    <linearGradient id="linear-gradient-14" x1="-2193.03" y1="1368.45" x2="-2192.25" y2="1367.67" gradientTransform="matrix(0, 366, 252, 0, -344358.38, 802850.58)" gradientUnits="userSpaceOnUse">
      <stop offset="0" stop-color="#dfdfde"/>
      <stop offset="1" stop-color="#c1c1c1"/>
    </linearGradient>
    <linearGradient id="linear-gradient-15" x1="-2199.67" y1="1367.79" x2="-2198.9" y2="1367.02" gradientTransform="matrix(0, 139, 260, 0, -354914.38, 306086.58)" gradientUnits="userSpaceOnUse">
      <stop offset="0" stop-color="#e1e1e1"/>
      <stop offset="1" stop-color="#cdcdcd"/>
    </linearGradient>
    <linearGradient id="linear-gradient-16" x1="-2195.77" y1="1367.53" x2="-2195.01" y2="1366.77" gradientTransform="matrix(0, 227, 260, 0, -354914.38, 498813.58)" gradientUnits="userSpaceOnUse">
      <stop offset="0" stop-color="#c6c5c4"/>
      <stop offset="1" stop-color="#c1c1c1"/>
    </linearGradient>
    <linearGradient id="linear-gradient-17" x1="-2197.11" y1="1369.97" x2="-2196.34" y2="1369.2" gradientTransform="matrix(0, 188, 231, 0, -315966.38, 413486.58)" gradientUnits="userSpaceOnUse">
      <stop offset="0" stop-color="#b4b4b5"/>
      <stop offset="1" stop-color="#bfbebe"/>
    </linearGradient>
    <linearGradient id="linear-gradient-18" x1="-2194.9" y1="1364.12" x2="-2194.13" y2="1363.35" gradientTransform="matrix(0, 260, 337, 0, -459046.38, 571094.58)" gradientUnits="userSpaceOnUse">
      <stop offset="0" stop-color="#c1c1c1"/>
      <stop offset="1" stop-color="#c3c3c3"/>
    </linearGradient>
    <linearGradient id="linear-gradient-19" x1="-2194.87" y1="1383.95" x2="-2194.1" y2="1383.18" gradientTransform="matrix(0, 260, 130, 0, -179414.38, 571094.58)" gradientUnits="userSpaceOnUse">
      <stop offset="0" stop-color="#bebdbd"/>
      <stop offset="1" stop-color="#c2c2c2"/>
    </linearGradient>
    <linearGradient id="linear-gradient-20" x1="-2191.02" y1="1377.59" x2="-2190.25" y2="1376.82" gradientTransform="matrix(0, 571, 169, 0, -232743.38, 1250812.58)" gradientUnits="userSpaceOnUse">
      <stop offset="0" stop-color="#575757"/>
      <stop offset="1" stop-color="#8c8c8c"/>
    </linearGradient>
    <linearGradient id="linear-gradient-21" x1="-2191.28" y1="1371.71" x2="-2190.51" y2="1370.94" gradientTransform="matrix(0, 571, 215, 0, -294759.38, 1250812.58)" xlink:href="#linear-gradient-20"/>
    <linearGradient id="linear-gradient-22" x1="-2191.14" y1="1367.87" x2="-2190.3" y2="1367.02" gradientTransform="matrix(0, 576, 271, 0, -370415.38, 1261815.58)" gradientUnits="userSpaceOnUse">
      <stop offset="0" stop-color="#929292"/>
      <stop offset="1" stop-color="#a4a3a3"/>
    </linearGradient>
    <linearGradient id="linear-gradient-23" x1="-2194.51" y1="1367.62" x2="-2193.74" y2="1366.85" gradientTransform="matrix(0, 256, 271, 0, -370415.38, 561848.58)" gradientUnits="userSpaceOnUse">
      <stop offset="0" stop-color="#c3c3c3"/>
      <stop offset="1" stop-color="#b9b9ba"/>
    </linearGradient>
    <linearGradient id="linear-gradient-24" x1="-2194.39" y1="1363.08" x2="-2193.7" y2="1362.38" gradientTransform="matrix(0, 256, 385, 0, -524574.38, 561848.58)" gradientUnits="userSpaceOnUse">
      <stop offset="0" stop-color="#545554"/>
      <stop offset="1" stop-color="#acacac"/>
    </linearGradient>
    <linearGradient id="linear-gradient-25" x1="-2191.74" y1="1363.88" x2="-2190.97" y2="1363.11" gradientTransform="matrix(0, 444, 356, 0, -485035.38, 972867.58)" gradientUnits="userSpaceOnUse">
      <stop offset="0" stop-color="#a4a3a3"/>
      <stop offset="1" stop-color="#c1c1c1"/>
    </linearGradient>
    <linearGradient id="linear-gradient-26" x1="-2191.21" y1="1369.12" x2="-2190.38" y2="1368.28" gradientTransform="matrix(0, 576, 247, 0, -337776.38, 1261815.58)" gradientUnits="userSpaceOnUse">
      <stop offset="0" stop-color="#a8a7a7"/>
      <stop offset="1" stop-color="#c7c7c7"/>
    </linearGradient>
    <linearGradient id="linear-gradient-27" x1="-2198.89" y1="1374" x2="-2198.12" y2="1373.23" gradientTransform="matrix(0, 140, 191, 0, -262064.38, 307855.58)" gradientUnits="userSpaceOnUse">
      <stop offset="0" stop-color="#d1d1d1"/>
      <stop offset="1" stop-color="#cecece"/>
    </linearGradient>
    <linearGradient id="linear-gradient-28" x1="-2195.03" y1="1381.8" x2="-2194.25" y2="1381.02" gradientTransform="matrix(0, 229, 141, 0, -194464.38, 502676.58)" gradientUnits="userSpaceOnUse">
      <stop offset="0" stop-color="#d5d4d4"/>
      <stop offset="1" stop-color="#d5d5d5"/>
    </linearGradient>
    <linearGradient id="linear-gradient-29" x1="-2195.05" y1="1365.02" x2="-2194.28" y2="1364.26" gradientTransform="matrix(0, 229, 318, 0, -433503.38, 502676.58)" gradientUnits="userSpaceOnUse">
      <stop offset="0" stop-color="#e8e7e7"/>
      <stop offset="1" stop-color="#dad9d8"/>
    </linearGradient>
    <linearGradient id="linear-gradient-30" x1="-2195.06" y1="1390.45" x2="-2194.25" y2="1389.65" gradientTransform="matrix(0, 217, 109, 0, -151091.38, 476191.58)" gradientUnits="userSpaceOnUse">
      <stop offset="0" stop-color="#c8c8c8"/>
      <stop offset="1" stop-color="#cacac9"/>
    </linearGradient>
    <linearGradient id="linear-gradient-31" x1="-2193.46" y1="1362.87" x2="-2192.78" y2="1362.19" gradientTransform="matrix(0, 308, 371, 0, -504946.38, 675516.58)" gradientUnits="userSpaceOnUse">
      <stop offset="0" stop-color="#dcdcdc"/>
      <stop offset="1" stop-color="#dfdfde"/>
    </linearGradient>
    <linearGradient id="linear-gradient-32" x1="-2194.3" y1="1367.64" x2="-2193.52" y2="1366.86" gradientTransform="matrix(0, 259, 265, 0, -361847.38, 568304.58)" gradientUnits="userSpaceOnUse">
      <stop offset="0" stop-color="#cfcfcf"/>
      <stop offset="1" stop-color="#dcdcdc"/>
    </linearGradient>
  </defs>
  <g class="cls-2">
    <g id="Layer_1" data-name="Layer 1">
      <g class="cls-3">
        <g>
          <rect class="cls-4" x="-85.39" y="-11.16" width="753.95" height="568.36" transform="translate(564.61 -18.56) rotate(90)"/>
          <g class="cls-5">
            <polygon id="triangle36" class="cls-6" points="214.52 106.88 253.45 113.02 190.38 254.95 214.52 106.88"/>
            <polygon id="triangle36-2" data-name="triangle36" class="cls-7" points="190.38 254.95 50.98 379.24 321.98 502 190.38 254.95"/>
            <polygon class="cls-8" points="7.41 482.44 321.98 502 50.98 379.24 7.41 450.61 7.41 482.44"/>
            <polygon id="triangle36-3" data-name="triangle36" class="cls-9" points="253.45 113.02 321.98 181.3 305.63 221.19 253.45 113.02"/>
            <polygon id="triangle36-4" data-name="triangle36" class="cls-10" points="253.45 113.02 190.38 254.95 305.63 221.19 253.45 113.02"/>
            <polygon id="triangle36-5" data-name="triangle36" class="cls-11" points="569.63 172.09 321.98 181.3 305.63 221.19 569.63 172.09"/>
            <polygon id="triangle36-6" data-name="triangle36" class="cls-12" points="190.38 254.95 321.98 502 305.63 221.19 190.38 254.95"/>
            <polygon class="cls-13" points="7.41 337.35 50.98 379.24 190.38 254.95 7.41 236.69 7.41 337.35"/>
            <polygon class="cls-14" points="7.41 375.51 50.98 379.24 7.41 337.35 7.41 375.51"/>
            <polygon class="cls-15" points="7.41 450.61 50.98 379.24 7.41 375.51 7.41 450.61"/>
            <polygon id="triangle36-7" data-name="triangle36" class="cls-16" points="569.63 172.09 305.63 221.19 501.87 434.48 569.63 172.09"/>
            <polygon class="cls-17" points="575.77 181.62 569.63 172.09 501.87 434.48 575.77 387.63 575.77 181.62"/>
            <polygon id="triangle36-8" data-name="triangle36" class="cls-18" points="305.63 221.19 321.98 502 501.87 434.48 305.63 221.19"/>
            <polygon class="cls-19" points="575.77 387.63 501.87 434.48 575.77 422.16 575.77 387.63"/>
            <polygon class="cls-20" points="575.77 422.16 501.87 434.48 575.77 491.9 575.77 422.16"/>
            <polygon id="triangle36-9" data-name="triangle36" class="cls-21" points="321.98 502 400.64 578.72 501.87 434.48 321.98 502"/>
            <polygon class="cls-22" points="575.77 491.9 501.87 434.48 420.11 633.96 575.77 598.92 575.77 491.9"/>
            <polygon id="triangle36-10" data-name="triangle36" class="cls-23" points="400.64 578.72 420.11 633.96 501.87 434.48 400.64 578.72"/>
            <polygon class="cls-24" points="14.74 -103.95 7.41 -103.95 7.41 1.85 14.74 -103.95"/>
            <polygon class="cls-25" points="72.6 -103.95 14.74 -103.95 7.41 1.85 7.41 49.3 72.6 -103.95"/>
            <polygon class="cls-26" points="193.71 -103.95 72.6 -103.95 7.41 49.3 7.41 59.44 214.52 106.88 193.71 -103.95"/>
            <polygon class="cls-27" points="7.41 62.67 190.38 254.95 214.52 106.88 7.41 59.44 7.41 62.67"/>
            <polygon class="cls-28" points="7.41 236.69 190.38 254.95 7.41 62.67 7.41 236.69"/>
            <polygon class="cls-29" points="419.12 -103.95 301.39 -103.95 363.26 5.61 419.12 -103.95"/>
            <polygon class="cls-30" points="193.71 -103.95 214.52 106.88 363.26 5.61 301.39 -103.95 193.71 -103.95"/>
            <polygon id="triangle36-11" data-name="triangle36" class="cls-31" points="214.52 106.88 253.45 113.02 363.26 5.61 214.52 106.88"/>
            <polygon id="triangle36-12" data-name="triangle36" class="cls-32" points="253.45 113.02 321.98 181.3 363.26 5.61 253.45 113.02"/>
            <polygon id="triangle36-13" data-name="triangle36" class="cls-33" points="569.63 172.09 321.98 181.3 363.26 5.61 569.63 172.09"/>
            <polygon class="cls-34" points="419.12 -103.95 363.26 5.61 446.58 -26.62 447.48 -103.95 419.12 -103.95"/>
            <polygon class="cls-35" points="575.77 -43.43 446.58 -26.62 569.63 172.09 575.77 163.34 575.77 -43.43"/>
            <polygon id="triangle36-14" data-name="triangle36" class="cls-36" points="363.26 5.61 569.63 172.09 446.58 -26.62 363.26 5.61"/>
          </g>
          <path class="cls-37" d="M65-103.95h-.64L7.41-58.6v.51L37.83-82.32ZM7.41,634.31,33.18,650h.73L7.41,633.86ZM434.94,650l-19.82-8,.14,0h0l160.55-55.8v-.37L414.86,641.69l10.85-213.2,58.72,24.64,91.34,38.33v-.39L481,451.29l-55.13-23.13,75.77-65.09,46.16,42.12,28,25.54v-.56l-73.44-67,73.44,20v-.36L502.92,363l72.85.86v-.32l-73.69-.88L575.77,291v-.58l-17.35,16.86-56.86,55.25-86-44.82-71.09-37,166.23-33.43,65.11-13.09v-.34L438,261.56,344.27,280.4,439.16,73.63l0,.05,0-.08,136.54,94.78v-.47L439.55,73.36,575.77,53.07v-.33L440,73l18-10.2L575.77-3.93v-.44L459.35,61.56l-19.9,11.27,28.7-99.29,22.4-77.49h-.5L438.94,72.84,390.61,25.92,256.83-103.95h-.6L364.71,1.35l74,71.8h-.07l.07,0-155.6,52.17L230,143.17l.07-.4-.15.15L223.14,39.06l-9.33-143h-.49l16.06,246.44L96.43-80.43l-14-23.52h-.53l147.32,247-91.74-37.12L7.41,53.32v.39l129.06,52.21,92.2,37.31L7.41,131v.33l220.82,12.25-220.82,38v.34l196.13-33.71,25.61-4.41L7.41,374.76v.61l54.43-56.72L229.33,144.13l-56,330.66,0,0,0,.14-1.17-.76.74.77L49,438.73,7.41,426.58v.36l165.74,48.4-.17.19.18,0-43.27,123L7.41,459.18v.65l122.15,138.9H7.41v.33h122l-16,10.62L81.89,630.61l-74.48-18V613l74.37,17.93L96.47,650H97L82.25,630.83l19-12.6,28.32-18.81-.15.45.43-.48L139.11,650h.5l-9.33-50.91L311.66,619l-47.78,31h.71l47.62-31,.76.31-.2-.21L413.94,642l-26,8h1.17l25.16-7.74-3,7.74h.51l2.84-7.3,2.17,7.3h.51l-2.11-7.08L421.2,650h.57l-6.48-7.56L434,650Zm-20.56-8.62-.32-.37.1.33-52.68-44h0l-.11-.08,8.54-22.45,55.21-145.07Zm-4.58-326.2,91.08,47.45h-.57l.91.25L425.75,427.7l.05-1-.37,1-32.28-58.4-48.72-88.12Zm-66.22-34.64-.2,0,.2.1-18.07,20.65-150.63,172,67.3-114.81,79-134.81,1.83,4.65,20.45,51.82-.11,0Zm42.35-92-42,91.53-20.71-52.48-1.71-4.33,33.24-42.29,83.32-106Zm-155.7-44.87.48,0-.39-.16.84-.14-.57,0L438.5,73.64,321.32,222.76l0-.08-.12.2ZM208.86,267.93l21-123.81.18.3,0-.45,91,79.27-74.1,126.42L174,474Zm36,126.17,99-113,.07.17,0-.08,4.08,7.38,77.15,139.55L174,475ZM174,475.34l251.15-46.9L361,597l-110.7-72Zm-.89,1.81-3.63,41.92L166,559l-35.41,39Zm.61-1.37L311.38,618.32,166.5,558.93l7.06-81.58Zm37.86,131.88-81.06-8.87.09-.06h-.16l35.9-39.49L311,618.54ZM174.88,476.39l92.18,60,93.67,60.93-48.48,21.33Zm137.85,142.4,48.34-21.27,20.55,17.17,32.27,26.94Z"/>
        </g>
      </g>
      <rect class="cls-38" x="8.96" y="7.43" width="543.74" height="440.03" rx="33.66"/>
    </g>
  </g>
</svg>
