<svg id="Layer_1" data-name="Layer 1" xmlns="http://www.w3.org/2000/svg" viewBox="0 0 776 781">
  <defs>
    <style>
      .cls-1 {
        opacity: 0.28;
      }

      .cls-2 {
        fill: #e88524;
      }
    </style>
  </defs>
  <g class="cls-1">
    <path class="cls-2" d="M391,745h0a1.49,1.49,0,0,1-1.49-1.49,1.53,1.53,0,0,1,1.9-1.43,1.55,1.55,0,0,1,1.93,1.43,1.49,1.49,0,0,1-1.48,1.49h0a1.27,1.27,0,0,1-.39-.06A1.4,1.4,0,0,1,391,745Zm-23.71-.78a1.74,1.74,0,0,1-.39,0,1.5,1.5,0,1,1,.39,0Zm48.23,0a1.49,1.49,0,0,1-.36-2.93,1.53,1.53,0,0,1,1.87,1.44,1.49,1.49,0,0,1-1.34,1.48Zm-71.84-2.29a1.74,1.74,0,0,1-.39-.05,1.5,1.5,0,1,1,.39.05Zm95.44-.11a1.49,1.49,0,0,1-.36-2.94,1.56,1.56,0,0,1,1.88,1.45,1.49,1.49,0,0,1-1.35,1.48Zm-118.84-3.81-.29,0a1.48,1.48,0,0,1-1.22-1.46,1.54,1.54,0,0,1,2-1.41,1.49,1.49,0,0,1-.47,2.9Zm142.23-.16a1.5,1.5,0,1,1,.5-.08A1.69,1.69,0,0,1,462.47,737.76Zm-165.7-5.37a1.49,1.49,0,0,1,.72-2.89Zm188.77-.16a1.49,1.49,0,1,1,1.44-1.91,1.46,1.46,0,0,1-.94,1.82l-.14.05A2.2,2.2,0,0,1,485.54,732.23Zm-211.43-6.86a1.49,1.49,0,1,1,.72-2.89Zm234.07-.22a1.49,1.49,0,1,1,.5-.08l-.14,0A1.42,1.42,0,0,1,508.18,725.15Zm-255.85-8.27a1.26,1.26,0,0,1-.47-.08,1.66,1.66,0,0,1-.38-.18,1.49,1.49,0,1,1,.85.26Zm277.94-.29a1.46,1.46,0,0,1-1.23-.66,1.48,1.48,0,0,1,.41-2.06,1.35,1.35,0,0,1,.38-.19,1.49,1.49,0,0,1,1.07,2.77A1.38,1.38,0,0,1,530.27,716.59Zm-299.49-9.72a1.46,1.46,0,0,1-.72-.19,1.49,1.49,0,0,1,1.17-2.72,1.35,1.35,0,0,1,.38.19,1.48,1.48,0,0,1,.41,2.06A1.46,1.46,0,0,1,230.78,706.87Zm321-.31a1.5,1.5,0,1,1,.86-.26,2.69,2.69,0,0,1-.38.19A1.59,1.59,0,0,1,551.74,706.56ZM210,695.44a1.41,1.41,0,0,1-.72-.19,1.49,1.49,0,0,1,1.16-2.73,2.25,2.25,0,0,1,.38.19,1.49,1.49,0,0,1-.82,2.73Zm362.53-.33a1.5,1.5,0,1,1,.85-.26,2.25,2.25,0,0,1-.38.19A1.53,1.53,0,0,1,572.5,695.11ZM190.08,682.68a1.75,1.75,0,0,1-.94-.28,2.52,2.52,0,0,1-.25-.21,1.49,1.49,0,0,1,2.11-2.1,1.37,1.37,0,0,1,.31,2A1.46,1.46,0,0,1,190.08,682.68Zm402.38-.38a1.53,1.53,0,0,1-1.06-.44,1.48,1.48,0,0,1,0-2.1,1.57,1.57,0,0,1,.25-.2,1.49,1.49,0,0,1,1.72,2.43A1.47,1.47,0,0,1,592.46,682.3ZM171,668.58a1.67,1.67,0,0,1-.94-.28,2.43,2.43,0,0,1-.25-.2A1.49,1.49,0,0,1,171.9,666a1.38,1.38,0,0,1,.31,2A1.45,1.45,0,0,1,171,668.58Zm440.54-.4a1.49,1.49,0,0,1-1.06-2.54,1.57,1.57,0,0,1,.25-.2,1.49,1.49,0,0,1,1.72,2.43A1.47,1.47,0,0,1,611.52,668.18Zm-458.77-15a1.46,1.46,0,0,1-.82-.25,1.8,1.8,0,0,1-.44-.43,1.5,1.5,0,1,1,1.26.68Zm476.85-.39a1.49,1.49,0,0,1-1.24-2.32,1.64,1.64,0,0,1,.44-.43,1.49,1.49,0,1,1,.8,2.75ZM135.68,636.71a1.47,1.47,0,0,1-1-.43l0,0a1.49,1.49,0,0,1,2.11-2.1,1.49,1.49,0,0,1-1,2.55Zm511-.41a1.49,1.49,0,1,1,1.07-.45l0,0A1.48,1.48,0,0,1,646.63,636.3ZM119.78,619.13a1.52,1.52,0,0,1-1.26-2.34,1.48,1.48,0,0,1,2.06-.41,1.6,1.6,0,0,1,.43.43,1.49,1.49,0,0,1-.41,2.07A1.46,1.46,0,0,1,119.78,619.13Zm542.74-.45a1.51,1.51,0,1,1,1.26-.68,1.76,1.76,0,0,1-.43.43A1.49,1.49,0,0,1,662.52,618.68ZM105.06,600.52a1.5,1.5,0,1,1,1-2.56,1.57,1.57,0,0,1,.2.25,1.48,1.48,0,0,1-1.24,2.31ZM677.22,600a1.49,1.49,0,0,1-1.05-.44,1.47,1.47,0,0,1,0-2.1,1.36,1.36,0,0,1,2-.32,1.59,1.59,0,0,1,.33,2.17,1.57,1.57,0,0,1-.2.25A1.49,1.49,0,0,1,677.22,600ZM91.62,581a1.49,1.49,0,0,1-1.24-.66,2.25,2.25,0,0,1-.19-.38,1.49,1.49,0,0,1,1-1.88,1.47,1.47,0,0,1,1.78.71,1.48,1.48,0,0,1-1.3,2.21Zm599-.52a1.5,1.5,0,0,1-1.42-2,2.25,2.25,0,0,1,.19-.38,1.49,1.49,0,1,1,1.23,2.34ZM79.51,560.6a1.48,1.48,0,0,1-1.23-.67,1.35,1.35,0,0,1-.19-.38,1.49,1.49,0,1,1,1.42,1.05ZM702.72,560a1.6,1.6,0,0,1-.47-.08,1.48,1.48,0,0,1-.94-1.88,1.69,1.69,0,0,1,.19-.38,1.49,1.49,0,1,1,1.22,2.34ZM68.8,539.45a1.49,1.49,0,0,1-1.36-.88A1.49,1.49,0,0,1,70,537.12a1.66,1.66,0,0,1,.18.38,1.47,1.47,0,0,1-1.41,2Zm644.62-.64a1.47,1.47,0,0,1-.83-.25,1.48,1.48,0,0,1-.52-1.87,1.49,1.49,0,1,1,2.58,1.46A1.46,1.46,0,0,1,713.42,538.81ZM59.54,517.65a1.51,1.51,0,0,1-.84-2.76,1.49,1.49,0,0,1,2.06.42,2.25,2.25,0,0,1,.19.38,1.48,1.48,0,0,1-.94,1.88A1.6,1.6,0,0,1,59.54,517.65Zm663.12-.72a1.43,1.43,0,0,1-.66-.16,1.48,1.48,0,0,1-.67-2,1.42,1.42,0,0,1,1.85-.86,1.57,1.57,0,0,1,.91,2l-.1.23A1.48,1.48,0,0,1,722.66,516.93ZM51.74,495.23a1.46,1.46,0,0,1-1.4-1,.37.37,0,0,1,0-.14,1.48,1.48,0,0,1,2.88-.72,1.5,1.5,0,0,1-1,1.81A1.52,1.52,0,0,1,51.74,495.23Zm678.67-.76a1.56,1.56,0,0,1-.36-.05,1.49,1.49,0,0,1-1.08-1.8l2.89.72A1.49,1.49,0,0,1,730.41,494.47Zm1.42-1.05h0ZM45.48,472.35a1.48,1.48,0,0,1-1.41-1,1.69,1.69,0,0,1-.08-.5,1.48,1.48,0,0,1,1.48-1.49,1.51,1.51,0,0,1,.48,2.93A1.58,1.58,0,0,1,45.48,472.35Zm691.15-.78a1.49,1.49,0,0,1-1.49-1.49,1.69,1.69,0,0,1,.08-.5,1.49,1.49,0,1,1,1.41,2ZM40.77,449.11a1.5,1.5,0,0,1-1.42-1,2.09,2.09,0,0,1-.08-.5,1.49,1.49,0,1,1,2,1.44A1.6,1.6,0,0,1,40.77,449.11Zm700.52-.81a1.48,1.48,0,0,1-1.49-1.49,1.74,1.74,0,0,1,.08-.5,1.49,1.49,0,1,1,1.41,2ZM37.62,425.59a1.5,1.5,0,1,1,1.44-1.88,1.74,1.74,0,0,1,0,.39A1.48,1.48,0,0,1,37.62,425.59Zm706.76-.81a1.47,1.47,0,0,1-.36,0,1.5,1.5,0,0,1,.36-3h0a1.49,1.49,0,0,1,1.49,1.49,1.74,1.74,0,0,1,0,.39A1.48,1.48,0,0,1,744.38,424.78ZM36,401.91a1.48,1.48,0,0,1-1.48-1.48v0A1.49,1.49,0,1,1,36,401.91Zm709.86-.8a1.5,1.5,0,0,1,0-3,1.47,1.47,0,0,1,1.49,1.47v0A1.49,1.49,0,0,1,745.9,401.11ZM36,378.18a1.48,1.48,0,0,1-1.49-1.48v0A1.49,1.49,0,1,1,36,378.18Zm709.83-.8a1.5,1.5,0,0,1,0-3,1.48,1.48,0,0,1,1.49,1.47v0A1.49,1.49,0,0,1,745.86,377.38ZM37.58,354.52h0A1.49,1.49,0,0,1,36.09,353a1.74,1.74,0,0,1,0-.39,1.49,1.49,0,1,1,1.44,1.88Zm706.68-.81a1.47,1.47,0,0,1-1.44-1.13,1.67,1.67,0,0,1-.05-.39,1.49,1.49,0,0,1,3-.14,1.51,1.51,0,0,1-1.12,1.62A2.2,2.2,0,0,1,744.26,353.71ZM40.69,331a1.33,1.33,0,0,1-.47-.08,1.5,1.5,0,1,1,2-1.44,1.69,1.69,0,0,1-.08.5A1.5,1.5,0,0,1,40.69,331Zm700.4-.8a1.5,1.5,0,1,1,1.41-2,1.69,1.69,0,0,1,.08.5A1.49,1.49,0,0,1,741.09,330.2ZM45.38,307.75a1.6,1.6,0,0,1-.47-.08,1.5,1.5,0,1,1,2-1.44,1.69,1.69,0,0,1-.08.5A1.5,1.5,0,0,1,45.38,307.75Zm691-.79a1.5,1.5,0,1,1,1.41-2,1.69,1.69,0,0,1,.08.5A1.49,1.49,0,0,1,736.35,307Zm-6.29-22.88a1.48,1.48,0,0,1-1.44-1.13,1.5,1.5,0,0,1,1-1.8,1.47,1.47,0,0,1,1.83.94l0,.14a1.5,1.5,0,0,1-1.09,1.81A1.47,1.47,0,0,1,730.06,284.08Zm-677-.38L50.18,283a1.49,1.49,0,1,1,2.89.72Zm6.34-21.21a1.88,1.88,0,0,1-.52-.08,1.57,1.57,0,0,1-.91-2,1.55,1.55,0,0,1,2.09-.89,1.5,1.5,0,0,1,.67,2A1.37,1.37,0,0,1,59.41,262.49Zm662.84-.81a1.51,1.51,0,0,1-1.34-.82,1.6,1.6,0,0,1,.9-2,1.39,1.39,0,0,1,1.81.75,1.5,1.5,0,0,1-.71,1.91A1.55,1.55,0,0,1,722.25,261.68ZM68.67,240.53a1.5,1.5,0,0,1-1.41-2,1.66,1.66,0,0,1,.18-.38,1.49,1.49,0,1,1,1.23,2.34ZM713,239.88a1.46,1.46,0,0,1-1.23-.66,1.5,1.5,0,0,1-.19-.38,1.49,1.49,0,1,1,2.25.79A1.47,1.47,0,0,1,713,239.88ZM79.38,219.33a1.46,1.46,0,0,1-.82-.25,1.5,1.5,0,1,1,2.25-.79,1.93,1.93,0,0,1-.19.38A1.49,1.49,0,0,1,79.38,219.33Zm622.84-.58a1.5,1.5,0,0,1-.84-2.75,1.47,1.47,0,0,1,2.06.41,1.5,1.5,0,0,1,.19.38,1.48,1.48,0,0,1-.94,1.88A1.29,1.29,0,0,1,702.22,218.75ZM91.49,198.91a1.58,1.58,0,0,1-.83-.25,1.5,1.5,0,0,1-.47-2A1.47,1.47,0,0,1,92,196a1.49,1.49,0,0,1,.94,1.88,2.25,2.25,0,0,1-.19.38A1.5,1.5,0,0,1,91.49,198.91Zm598.6-.53a1.5,1.5,0,1,1,1.22-2.34,1.35,1.35,0,0,1,.19.38,1.48,1.48,0,0,1-.94,1.88A1.55,1.55,0,0,1,690.09,198.38ZM104.92,179.47A1.52,1.52,0,0,1,103.7,177a1.57,1.57,0,0,1,.2-.25,1.49,1.49,0,1,1,2.11,2.11A1.29,1.29,0,0,1,104.92,179.47Zm571.71-.62a1.44,1.44,0,0,1-1-.44,1.64,1.64,0,0,1-.21-.24,1.49,1.49,0,0,1,2.43-1.72,1.47,1.47,0,0,1-.12,2A1.44,1.44,0,0,1,676.63,178.85Zm-557-18.14a1.47,1.47,0,0,1-.83-.25,1.49,1.49,0,0,1-.41-2.07,1.6,1.6,0,0,1,.43-.43,1.49,1.49,0,0,1,1.93,2.24A1.51,1.51,0,0,1,119.65,160.71Zm542.25-.45a1.47,1.47,0,0,1-.83-.25,1.6,1.6,0,0,1-.43-.43,1.49,1.49,0,0,1,.41-2.07,1.51,1.51,0,0,1,2.09,2.09A1.49,1.49,0,0,1,661.9,160.26ZM135.57,143.09a1.49,1.49,0,0,1-1.06-2.53l0,0a1.49,1.49,0,0,1,2.1,2.11A1.51,1.51,0,0,1,135.57,143.09Zm510.38-.4a1.49,1.49,0,1,1,1-2.56l0,0a1.49,1.49,0,0,1-1.06,2.54ZM152.61,126.6a1.5,1.5,0,0,1-1.24-.67,1.5,1.5,0,1,1,2.5,0,1.67,1.67,0,0,1-.44.44A1.46,1.46,0,0,1,152.61,126.6Zm476.27-.39a1.51,1.51,0,0,1-1-.39,1.49,1.49,0,0,1,1.8-2.36,1.64,1.64,0,0,1,.44.43,1.49,1.49,0,0,1-1.24,2.32ZM170.71,111.26a1.51,1.51,0,1,1,1.07-.45,1.57,1.57,0,0,1-.25.2A1.46,1.46,0,0,1,170.71,111.26Zm440-.36a1.49,1.49,0,0,1-1-.44,1.37,1.37,0,0,1-.32-2,1.59,1.59,0,0,1,2.17-.33,2.52,2.52,0,0,1,.25.21,1.49,1.49,0,0,1-1,2.54Zm-421-13.73a1.47,1.47,0,0,1-1.24-.67,1.5,1.5,0,1,1,2.31.21,2.52,2.52,0,0,1-.25.21A1.54,1.54,0,0,1,189.79,97.17Zm401.84-.35a1.48,1.48,0,0,1-1-.43,1.37,1.37,0,0,1-.31-2,1.58,1.58,0,0,1,2.16-.33,1.22,1.22,0,0,1,.25.2,1.5,1.5,0,0,1,0,2.11A1.48,1.48,0,0,1,591.63,96.82ZM209.75,84.38a1.49,1.49,0,0,1-.83-2.73,2.69,2.69,0,0,1,.38-.19,1.5,1.5,0,0,1,1.89,1,1.49,1.49,0,0,1-.72,1.78A1.41,1.41,0,0,1,209.75,84.38Zm361.87-.33a1.53,1.53,0,0,1-.47-.07,2.25,2.25,0,0,1-.38-.19,1.49,1.49,0,0,1-.41-2.07,1.5,1.5,0,1,1,1.26,2.33ZM230.52,73A1.49,1.49,0,1,1,232,71a1.51,1.51,0,0,1-.72,1.79A1.54,1.54,0,0,1,230.52,73Zm320.27-.31a1.53,1.53,0,0,1-.47-.07,2.69,2.69,0,0,1-.38-.19,1.49,1.49,0,0,1-.41-2.07,1.5,1.5,0,1,1,1.26,2.33ZM252,62.94a1.51,1.51,0,1,1,.85-.26,2.25,2.25,0,0,1-.38.19A1.49,1.49,0,0,1,252,62.94Zm277.24-.28a1.6,1.6,0,0,1-.63-.14,1.49,1.49,0,0,1,1.07-2.78,2.81,2.81,0,0,1,.39.19,1.49,1.49,0,0,1-.83,2.73ZM274.12,54.4a1.51,1.51,0,0,1-1.44-1.07,1.49,1.49,0,0,1,.95-1.83l.14,0a1.49,1.49,0,0,1,.72,2.89A1.64,1.64,0,0,1,274.12,54.4Zm232.94-.26a1.49,1.49,0,0,1-.36,0l.72-2.89A1.49,1.49,0,0,1,508.5,53,1.47,1.47,0,0,1,507.06,54.14ZM296.78,47.35a1.5,1.5,0,0,1-1.44-1.07,1.47,1.47,0,0,1,.94-1.82l.14,0a1.49,1.49,0,1,1,.72,2.89A1.47,1.47,0,0,1,296.78,47.35Zm187.61-.21a1.47,1.47,0,0,1-.36,0l.72-2.89a1.49,1.49,0,0,1-.36,2.93ZM319.83,41.85a1.49,1.49,0,0,1-.47-2.9,1.55,1.55,0,0,1,2,1.41,1.48,1.48,0,0,1-1.22,1.46A1,1,0,0,1,319.83,41.85Zm141.47-.16a1.69,1.69,0,0,1-.5-.08,1.51,1.51,0,1,1,.5.08ZM343.22,37.91a1.51,1.51,0,1,1,.39,0A1.6,1.6,0,0,1,343.22,37.91Zm94.67-.11h-.17a1.49,1.49,0,0,1-1.34-1.48,1.54,1.54,0,0,1,1.87-1.44,1.49,1.49,0,0,1-.36,2.93Zm-71.06-2.27a1.48,1.48,0,0,1-1.49-1.48,1.5,1.5,0,1,1,1.88,1.44A1.72,1.72,0,0,1,366.83,35.53Zm47.45-.05h-.17A1.49,1.49,0,0,1,412.77,34a1.54,1.54,0,0,1,1.87-1.44,1.49,1.49,0,0,1-.36,2.93Zm-23.71-.75a1.5,1.5,0,0,1-1.5-1.49,1.48,1.48,0,0,1,1.47-1.49h0a1.49,1.49,0,1,1,0,3Z"/>
    <path class="cls-2" d="M389.09,716.48a1.86,1.86,0,0,1,1.87-1.85h0a1.85,1.85,0,0,1,.39,0h0a1.58,1.58,0,0,1,.39,0h0a1.83,1.83,0,0,1,1.87,1.85h0a1.9,1.9,0,0,1-1.87,1.87h0a1.76,1.76,0,0,1-.39-.06h0a1.76,1.76,0,0,1-.39.06h0A1.86,1.86,0,0,1,389.09,716.48Zm-21.94,1h0a1.86,1.86,0,0,1-1.72-2h0a1.85,1.85,0,0,1,2-1.7h0a1.83,1.83,0,0,1,1.73,2h0a1.89,1.89,0,0,1-1.88,1.76h0S367.21,717.49,367.15,717.49Zm46.4-1.76a1.85,1.85,0,0,1,1.73-2h0a1.85,1.85,0,0,1,2,1.7h0a1.84,1.84,0,0,1-1.72,2h0a.18.18,0,0,1-.12,0h0A1.89,1.89,0,0,1,413.55,715.73ZM343.49,715a1.85,1.85,0,0,1-1.58-2.11h0a1.84,1.84,0,0,1,2.09-1.58h0a1.85,1.85,0,0,1,1.57,2.11h0a1.82,1.82,0,0,1-1.81,1.58h-.27Zm93.64-1.7a1.85,1.85,0,0,1,1.54-2.11h0a1.85,1.85,0,0,1,2.11,1.58h0a1.84,1.84,0,0,1-1.54,2.11H439A1.82,1.82,0,0,1,437.13,713.26ZM320,710.7a1.85,1.85,0,0,1-1.43-2.2h0a1.89,1.89,0,0,1,2.23-1.43h0a1.85,1.85,0,0,1,1.43,2.2h0a1.89,1.89,0,0,1-1.82,1.46h0A1.93,1.93,0,0,1,320,710.7Zm140.39-1.58a1.89,1.89,0,0,1,1.43-2.23h0a1.87,1.87,0,0,1,2.2,1.43h0a1.85,1.85,0,0,1-1.4,2.21h0a3,3,0,0,1-.42.05h0A1.86,1.86,0,0,1,460.43,709.12ZM297,704.78v0h0a1.84,1.84,0,0,1-1.25-2.29h0a1.86,1.86,0,0,1,2.32-1.25h0a1.85,1.85,0,0,1,1.25,2.29h0a1.88,1.88,0,0,1-1.78,1.34h0A3.31,3.31,0,0,1,297,704.78Zm186.41-1.49a1.86,1.86,0,0,1,1.25-2.32h0a1.87,1.87,0,0,1,2.32,1.25h0a1.87,1.87,0,0,1-1.25,2.32h0a1.66,1.66,0,0,1-.54.06h0A1.86,1.86,0,0,1,483.38,703.29Zm-209-6.13h0a1.85,1.85,0,0,1-1.07-2.38h0a1.86,1.86,0,0,1,2.41-1.1h0a1.87,1.87,0,0,1,1.07,2.41h0a1.83,1.83,0,0,1-1.73,1.19h0A1.84,1.84,0,0,1,274.38,697.16Zm231.47-1.34a1.86,1.86,0,0,1,1.1-2.41h0a1.87,1.87,0,0,1,2.41,1.07h0a1.86,1.86,0,0,1-1.07,2.41h0a1.71,1.71,0,0,1-.66.12h0A1.87,1.87,0,0,1,505.85,695.82Zm-253.44-7.89h0a1.87,1.87,0,0,1-.92-2.47h0a1.87,1.87,0,0,1,2.47-.89h0a1.84,1.84,0,0,1,.92,2.47h0a1.88,1.88,0,0,1-1.69,1.07h0A1.75,1.75,0,0,1,252.41,687.93Zm275.31-1.21a1.85,1.85,0,0,1,.9-2.48h0a1.88,1.88,0,0,1,2.47.93h0a1.84,1.84,0,0,1-.9,2.44h0a1.9,1.9,0,0,1-.8.18h0A1.82,1.82,0,0,1,527.72,686.72Zm-296.56-9.59h0a1.85,1.85,0,0,1-.72-2.53h0a1.86,1.86,0,0,1,2.53-.71h0a1.87,1.87,0,0,1,.74,2.52h0a1.91,1.91,0,0,1-1.63,1h0A1.92,1.92,0,0,1,231.16,677.13Zm317.7-1a1.88,1.88,0,0,1,.71-2.56h0a1.87,1.87,0,0,1,2.53.74h0a1.85,1.85,0,0,1-.72,2.53h0a2,2,0,0,1-.92.24h0A1.83,1.83,0,0,1,548.86,676.09ZM210.75,664.84a1.9,1.9,0,0,1-.57-2.59h0a1.87,1.87,0,0,1,2.59-.54h0a1.85,1.85,0,0,1,.54,2.56h0a1.84,1.84,0,0,1-1.55.87h0A2,2,0,0,1,210.75,664.84Zm358.4-.92a1.87,1.87,0,0,1,.54-2.56h0a1.87,1.87,0,0,1,2.59.53h0a1.84,1.84,0,0,1-.54,2.56h0a1.85,1.85,0,0,1-1,.3h0A1.84,1.84,0,0,1,569.15,663.92ZM191.28,651.09a1.86,1.86,0,0,1-.35-2.62h0a1.84,1.84,0,0,1,2.58-.36v0a1.81,1.81,0,0,1,.36,2.59h0a1.86,1.86,0,0,1-1.49.74h0A1.77,1.77,0,0,1,191.28,651.09Zm397.28-.75a1.85,1.85,0,0,1,.36-2.62h0a1.84,1.84,0,0,1,2.59.36h0a1.89,1.89,0,0,1-.33,2.62h0a2.08,2.08,0,0,1-1.13.39h0A1.87,1.87,0,0,1,588.56,650.34ZM172.83,636a1.84,1.84,0,0,1-.15-2.62h0a1.84,1.84,0,0,1,2.62-.15h0a1.88,1.88,0,0,1,.18,2.62h0a1.92,1.92,0,0,1-1.4.62h0A1.79,1.79,0,0,1,172.83,636Zm434.09-.57a1.85,1.85,0,0,1,.18-2.62h0a1.85,1.85,0,0,1,2.62.15h0a1.88,1.88,0,0,1-.15,2.62h0a1.82,1.82,0,0,1-1.25.48h0A1.91,1.91,0,0,1,606.92,635.4ZM155.54,619.6h0a1.88,1.88,0,0,1,0-2.65h0a1.87,1.87,0,0,1,2.63,0h0a1.91,1.91,0,0,1,0,2.65h0a1.94,1.94,0,0,1-1.31.53h0A2,2,0,0,1,155.54,619.6Zm468.64-.45a1.87,1.87,0,0,1,0-2.62h0a1.87,1.87,0,0,1,2.64,0h0a1.83,1.83,0,0,1,0,2.62h0a1.73,1.73,0,0,1-1.3.57h0A1.86,1.86,0,0,1,624.18,619.15Zm2.62,0h0l0,0h0ZM139.47,602h0a1.87,1.87,0,0,1,.2-2.62h0a1.86,1.86,0,0,1,2.62.21h0a1.84,1.84,0,0,1-.21,2.62h0a1.76,1.76,0,0,1-1.19.44h0A1.84,1.84,0,0,1,139.47,602Zm500.76-.27a1.87,1.87,0,0,1-.21-2.62h0a1.83,1.83,0,0,1,2.62-.21h0a1.86,1.86,0,0,1,.24,2.62h0a1.9,1.9,0,0,1-1.4.66h0A1.84,1.84,0,0,1,640.23,601.74ZM124.7,583.32a1.88,1.88,0,0,1,.39-2.59h0a1.89,1.89,0,0,1,2.62.41v0a1.9,1.9,0,0,1-.42,2.62h0a1.86,1.86,0,0,1-1.1.36h0A1.84,1.84,0,0,1,124.7,583.32ZM655,583.2a1.87,1.87,0,0,1-.42-2.59h0a1.86,1.86,0,0,1,2.59-.42h0a1.89,1.89,0,0,1,.42,2.62h0v0h0a1.83,1.83,0,0,1-1.52.78h0A1.77,1.77,0,0,1,655,583.2ZM111.31,563.64h0a1.91,1.91,0,0,1,.59-2.59h0a1.88,1.88,0,0,1,2.56.6h0a1.83,1.83,0,0,1-.56,2.56h0a1.83,1.83,0,0,1-1,.3h0A1.82,1.82,0,0,1,111.31,563.64Zm557.07,0a1.83,1.83,0,0,1-.56-2.56h0a1.86,1.86,0,0,1,2.56-.59h0a1.83,1.83,0,0,1,.56,2.56h0a1.92,1.92,0,0,1-1.6.89h0A1.81,1.81,0,0,1,668.38,563.64Zm-569-20.59a1.85,1.85,0,0,1,.75-2.53h0a1.86,1.86,0,0,1,2.53.77h0a1.84,1.84,0,0,1-.78,2.5h0a1.74,1.74,0,0,1-.86.24h0A1.83,1.83,0,0,1,99.4,543.05Zm581,.15a1.88,1.88,0,0,1-.77-2.53h0a1.83,1.83,0,0,1,2.49-.78h0a1.84,1.84,0,0,1,.78,2.5h0a1.83,1.83,0,0,1-1.64,1h0A2.14,2.14,0,0,1,680.35,543.2ZM89,521.62a1.84,1.84,0,0,1,1-2.44h0a1.84,1.84,0,0,1,2.44,1h0a1.85,1.85,0,0,1-.95,2.44h0a1.63,1.63,0,0,1-.75.18h0A1.83,1.83,0,0,1,89,521.62Zm601.78.26a1.86,1.86,0,0,1-1-2.43h0a1.87,1.87,0,0,1,2.47-1h0a1.86,1.86,0,0,1,1,2.44h0a1.83,1.83,0,0,1-1.73,1.11h0A1.71,1.71,0,0,1,690.77,521.88ZM80.15,499.53a1.88,1.88,0,0,1,1.13-2.38h0a1.84,1.84,0,0,1,2.38,1.13h0a1.86,1.86,0,0,1-1.13,2.38h0a1.74,1.74,0,0,1-.63.09h0A1.9,1.9,0,0,1,80.15,499.53Zm619.49.36a1.9,1.9,0,0,1-1.14-2.38h0a1.91,1.91,0,0,1,2.39-1.13h0a1.86,1.86,0,0,1,1.13,2.38h0a1.87,1.87,0,0,1-1.76,1.25h0A1.49,1.49,0,0,1,699.64,499.89ZM73,476.82a1.85,1.85,0,0,1,1.28-2.29h0a1.85,1.85,0,0,1,2.29,1.31h0a1.88,1.88,0,0,1-1.27,2.3h0c-.18,0-.36.05-.51.05h0A1.82,1.82,0,0,1,73,476.82Zm633.93.51a1.83,1.83,0,0,1-1.31-2.26h0a1.85,1.85,0,0,1,2.29-1.31h0a1.85,1.85,0,0,1,1.28,2.29h0a1.88,1.88,0,0,1-1.79,1.37h0A1.31,1.31,0,0,1,706.9,477.33ZM67.44,453.67a1.85,1.85,0,0,1,1.46-2.2h0a1.84,1.84,0,0,1,2.17,1.45h0a1.83,1.83,0,0,1-1.46,2.18h0a1.51,1.51,0,0,1-.36.06h0A1.88,1.88,0,0,1,67.44,453.67Zm645,.66a1.88,1.88,0,0,1-1.46-2.21v0a1.88,1.88,0,0,1,2.18-1.49h0a1.88,1.88,0,0,1,1.46,2.21h0a1.85,1.85,0,0,1-1.82,1.48h0A2.17,2.17,0,0,1,712.46,454.33ZM63.6,430.16a1.83,1.83,0,0,1,1.61-2.09h0a1.89,1.89,0,0,1,2.08,1.61h0a1.87,1.87,0,0,1-1.61,2.08h-.24A1.85,1.85,0,0,1,63.6,430.16Zm652.76.8a1.87,1.87,0,0,1-1.64-2.08h0a1.89,1.89,0,0,1,2.09-1.61h0a1.84,1.84,0,0,1,1.61,2.08h0a1.87,1.87,0,0,1-1.85,1.64h0ZM61.46,406.43h0a1.84,1.84,0,0,1,1.75-2h0a1.89,1.89,0,0,1,2,1.76h0a1.89,1.89,0,0,1-1.76,2h-.09A1.87,1.87,0,0,1,61.46,406.43Zm657.1,1a1.87,1.87,0,0,1-1.78-2h0a1.88,1.88,0,0,1,2-1.75h0a1.86,1.86,0,0,1,1.76,2h0a1.86,1.86,0,0,1-1.85,1.76h-.09ZM62.85,384.5A1.88,1.88,0,0,1,61,382.59h0a1.86,1.86,0,0,1,1.9-1.81h0a1.86,1.86,0,0,1,1.82,1.9h0a1.83,1.83,0,0,1-1.88,1.82Zm654.32-2.62h0A1.85,1.85,0,0,1,719,380h0a1.86,1.86,0,0,1,1.91,1.81h0a1.88,1.88,0,0,1-1.82,1.91H719A1.86,1.86,0,0,1,717.17,381.88ZM64,360.84a1.87,1.87,0,0,1-1.7-2h0a1.84,1.84,0,0,1,2-1.66h0a1.87,1.87,0,0,1,1.7,2v0a1.88,1.88,0,0,1-1.88,1.7H64Zm651.89-2.47a1.87,1.87,0,0,1,1.7-2h0a1.85,1.85,0,0,1,2,1.66h0a1.83,1.83,0,0,1-1.69,2h0c-.06,0-.09,0-.15,0h0A1.91,1.91,0,0,1,715.85,358.37ZM66.75,337.32a1.84,1.84,0,0,1-1.52-2.14h0a1.81,1.81,0,0,1,2.12-1.51h0a1.83,1.83,0,0,1,1.55,2.11v0a1.85,1.85,0,0,1-1.82,1.54h0A1.23,1.23,0,0,1,66.75,337.32ZM712.88,335a1.9,1.9,0,0,1,1.55-2.14h0a1.85,1.85,0,0,1,2.14,1.55h0a1.85,1.85,0,0,1-1.55,2.11h0a1,1,0,0,1-.3,0h0A1.87,1.87,0,0,1,712.88,335ZM71.25,314.08a1.87,1.87,0,0,1-1.37-2.23h0a1.86,1.86,0,0,1,2.23-1.4h0a1.86,1.86,0,0,1,1.4,2.23h0a1.88,1.88,0,0,1-1.82,1.43h0A2.22,2.22,0,0,1,71.25,314.08Zm637-2.17h0a1.86,1.86,0,0,1,1.4-2.24h0a1.88,1.88,0,0,1,2.23,1.37h0a1.86,1.86,0,0,1-1.37,2.24h0a1.17,1.17,0,0,1-.45.06h0A1.81,1.81,0,0,1,708.24,311.91ZM77.44,291.22a1.88,1.88,0,0,1-1.22-2.35h0a1.89,1.89,0,0,1,2.35-1.22h0A1.9,1.9,0,0,1,79.79,290h0A1.91,1.91,0,0,1,78,291.28h0A3.2,3.2,0,0,1,77.44,291.22Zm624.46-2h0a1.84,1.84,0,0,1,1.22-2.32h0a1.82,1.82,0,0,1,2.32,1.19h0a1.88,1.88,0,0,1-1.19,2.35h0a2,2,0,0,1-.57.09h0A1.85,1.85,0,0,1,701.9,289.23ZM85.27,268.81a1.87,1.87,0,0,1-1-2.41h0a1.88,1.88,0,0,1,2.45-1h0a1.85,1.85,0,0,1,1,2.41h0A1.84,1.84,0,0,1,86,269h0A2,2,0,0,1,85.27,268.81ZM694,267.06a1.85,1.85,0,0,1,1-2.42h0a1.89,1.89,0,0,1,2.44,1h0a1.89,1.89,0,0,1-1,2.42h0a2,2,0,0,1-.68.15h0A1.83,1.83,0,0,1,694,267.06Zm-599.25-20a1.84,1.84,0,0,1-.86-2.47h0a1.87,1.87,0,0,1,2.5-.86h0a1.85,1.85,0,0,1,.86,2.47h0a1.84,1.84,0,0,1-1.67,1.07h0A1.65,1.65,0,0,1,94.7,247.05Zm589.7-1.48h0a1.87,1.87,0,0,1,.86-2.5h0a1.89,1.89,0,0,1,2.5.86h0a1.89,1.89,0,0,1-.86,2.5h0a2,2,0,0,1-.81.18h0A1.87,1.87,0,0,1,684.4,245.57Zm-578.69-19.5a1.86,1.86,0,0,1-.68-2.56h0a1.84,1.84,0,0,1,2.53-.65h0a1.84,1.84,0,0,1,.68,2.53h0a1.88,1.88,0,0,1-1.6.92h0A2,2,0,0,1,105.71,226.07Zm567.61-1.28a1.86,1.86,0,0,1,.69-2.53h0a1.82,1.82,0,0,1,2.53.66h0a1.85,1.85,0,0,1-.66,2.56h0a2.22,2.22,0,0,1-1,.23h0A1.88,1.88,0,0,1,673.32,224.79ZM118.18,205.92a1.87,1.87,0,0,1-.5-2.59h0a1.86,1.86,0,0,1,2.59-.5h0a1.85,1.85,0,0,1,.47,2.58h0a1.78,1.78,0,0,1-1.52.81h0A1.85,1.85,0,0,1,118.18,205.92Zm542.61-1h0a1.87,1.87,0,0,1,.48-2.59h0a1.85,1.85,0,0,1,2.59.48h0a1.88,1.88,0,0,1-.48,2.59h0a1.77,1.77,0,0,1-1.07.32h0A1.94,1.94,0,0,1,660.79,204.88ZM132.05,186.72a1.88,1.88,0,0,1-.3-2.61h0a1.89,1.89,0,0,1,2.63-.33h0a1.85,1.85,0,0,1,.29,2.62h0a1.83,1.83,0,0,1-1.46.71h0A2,2,0,0,1,132.05,186.72Zm514.79-.83a1.82,1.82,0,0,1,.29-2.59h0a1.83,1.83,0,0,1,2.62.3h0a1.87,1.87,0,0,1-.3,2.62h0a1.85,1.85,0,0,1-1.16.39h0A1.81,1.81,0,0,1,646.84,185.89ZM147.29,168.57a1.88,1.88,0,0,1-.12-2.62h0a1.86,1.86,0,0,1,2.65-.12h0a1.86,1.86,0,0,1,.12,2.62h0a1.85,1.85,0,0,1-1.37.59h0A1.83,1.83,0,0,1,147.29,168.57Zm484.28-.6h0a1.84,1.84,0,0,1,.08-2.62h0a1.9,1.9,0,0,1,2.66.12h0a1.85,1.85,0,0,1-.12,2.62h0a1.84,1.84,0,0,1-1.25.48h0A1.74,1.74,0,0,1,631.57,168Zm-467.76-16.4a1.87,1.87,0,0,1,.06-2.64h0a1.84,1.84,0,0,1,2.62,0h0a1.89,1.89,0,0,1-.06,2.65h0a1.92,1.92,0,0,1-1.28.51h0A1.77,1.77,0,0,1,163.81,151.57ZM615,151.19a1.83,1.83,0,0,1-.06-2.62h0a1.86,1.86,0,0,1,2.62-.09h0a1.92,1.92,0,0,1,.09,2.65h0a1.87,1.87,0,0,1-1.37.56h0A1.8,1.8,0,0,1,615,151.19ZM181.46,135.8a1.85,1.85,0,0,1,.27-2.62h0a1.89,1.89,0,0,1,2.62.24h0a1.86,1.86,0,0,1-.27,2.62h0a1.87,1.87,0,0,1-1.19.41h0A1.79,1.79,0,0,1,181.46,135.8Zm415.88-.15v0a1.81,1.81,0,0,1-.27-2.59h0a1.86,1.86,0,0,1,2.62-.27h0a1.86,1.86,0,0,1,.27,2.62h0a1.84,1.84,0,0,1-1.46.69h0A2,2,0,0,1,597.34,135.65ZM200.21,121.3a1.86,1.86,0,0,1,.45-2.59h0v0h0a1.83,1.83,0,0,1,2.59.41h0a1.9,1.9,0,0,1-.45,2.62h0a2,2,0,0,1-1.07.33h0A1.83,1.83,0,0,1,200.21,121.3Zm378.35.09h0a1.85,1.85,0,0,1-.48-2.59h0a1.86,1.86,0,0,1,2.59-.44h0a1.86,1.86,0,0,1,.48,2.59h0a2,2,0,0,1-1.55.77h0A1.8,1.8,0,0,1,578.56,121.39ZM219.94,108.24a1.89,1.89,0,0,1,.63-2.56h0v0h0a1.84,1.84,0,0,1,2.56.63h0a1.8,1.8,0,0,1-.63,2.52h0a1.8,1.8,0,0,1-.95.27h0A1.84,1.84,0,0,1,219.94,108.24Zm338.89.3h0a1.88,1.88,0,0,1-.63-2.56h0a1.85,1.85,0,0,1,2.56-.63h0v0h0a1.89,1.89,0,0,1,.63,2.56h0a1.88,1.88,0,0,1-1.61.92h0A1.79,1.79,0,0,1,558.83,108.54ZM240.57,96.63a1.87,1.87,0,0,1,.83-2.5h0a1.84,1.84,0,0,1,2.5.81h0a1.87,1.87,0,0,1-.83,2.5h0a1.75,1.75,0,0,1-.83.2h0A1.83,1.83,0,0,1,240.57,96.63Zm297.63.48v0a1.87,1.87,0,0,1-.8-2.53h0a1.84,1.84,0,0,1,2.47-.81h0a1.89,1.89,0,0,1,.83,2.51h0a1.85,1.85,0,0,1-1.67,1h0A1.71,1.71,0,0,1,538.2,97.11ZM262,86.54a1.87,1.87,0,0,1,1-2.44h0a1.84,1.84,0,0,1,2.44,1h0a1.87,1.87,0,0,1-1,2.44h0a2.06,2.06,0,0,1-.72.15h0A1.89,1.89,0,0,1,262,86.54Zm254.83.68a1.84,1.84,0,0,1-1-2.4h0a1.88,1.88,0,0,1,2.44-1h0a1.88,1.88,0,0,1,1,2.45h0a1.88,1.88,0,0,1-1.73,1.13h0A1.56,1.56,0,0,1,516.8,87.22ZM284.05,78a1.85,1.85,0,0,1,1.16-2.35h0a1.85,1.85,0,0,1,2.36,1.16h0a1.85,1.85,0,0,1-1.17,2.35h0a1.83,1.83,0,0,1-.59.09h0A1.86,1.86,0,0,1,284.05,78Zm210.69.89h0a1.85,1.85,0,0,1-1.18-2.35h0a1.86,1.86,0,0,1,2.35-1.16h0a1.86,1.86,0,0,1,1.19,2.35h0A1.93,1.93,0,0,1,495.31,79h0A1.3,1.3,0,0,1,494.74,78.92Zm-188-7.79A1.86,1.86,0,0,1,308,68.86h0a1.85,1.85,0,0,1,2.26,1.34h0a1.84,1.84,0,0,1-1.3,2.26h0a1.4,1.4,0,0,1-.48.06h0A1.84,1.84,0,0,1,306.73,71.13Zm165.42,1.13A1.86,1.86,0,0,1,470.79,70h0a1.9,1.9,0,0,1,2.29-1.33h0a1.89,1.89,0,0,1,1.34,2.26h0a1.86,1.86,0,0,1-1.82,1.39h0A1.38,1.38,0,0,1,472.15,72.26ZM329.83,65.92a1.84,1.84,0,0,1,1.49-2.18h0a1.89,1.89,0,0,1,2.17,1.49h0A1.89,1.89,0,0,1,332,67.41h0a1.83,1.83,0,0,1-.33,0h0A1.82,1.82,0,0,1,329.83,65.92Zm119.29,1.33a1.84,1.84,0,0,1-1.49-2.14h0a1.88,1.88,0,0,1,2.17-1.52h0a1.86,1.86,0,0,1,1.49,2.18h0a1.85,1.85,0,0,1-1.81,1.52h0A1.11,1.11,0,0,1,449.12,67.25Zm-95.9-4.88a1.84,1.84,0,0,1,1.67-2h0A1.87,1.87,0,0,1,356.94,62h0A1.86,1.86,0,0,1,355.28,64h-.18A1.87,1.87,0,0,1,353.22,62.37Zm72.6,1.55h0a1.84,1.84,0,0,1-1.64-2.05h0a1.82,1.82,0,0,1,2-1.64h0a1.82,1.82,0,0,1,1.67,2h0A1.89,1.89,0,0,1,426,64h0C426,64,425.9,63.92,425.82,63.92Zm-49-3.39a1.81,1.81,0,0,1,1.78-1.93h0a1.9,1.9,0,0,1,1.94,1.78h0a1.91,1.91,0,0,1-1.82,1.94h-.06A1.86,1.86,0,0,1,376.86,60.53Zm25.47,1.75a1.86,1.86,0,0,1-1.81-1.93h0a1.9,1.9,0,0,1,1.93-1.79h0a1.86,1.86,0,0,1,1.79,1.94h0a1.87,1.87,0,0,1-1.85,1.78h-.06Z"/>
    <path class="cls-2" d="M391.32,691.69a2.17,2.17,0,0,1-.36,0h0a2.2,2.2,0,0,1-2.23-2.2h0a2.21,2.21,0,0,1,2.23-2.23h0a1.46,1.46,0,0,1,.36,0h0a1.52,1.52,0,0,1,.39-.06h0a2.25,2.25,0,0,1,2.23,2.23h0a2.23,2.23,0,0,1-2.23,2.23h0A2.75,2.75,0,0,1,391.32,691.69Zm-24.17-.9,0,0h0a2.21,2.21,0,0,1-2.05-2.41h0a2.23,2.23,0,0,1,2.38-2h0a2.25,2.25,0,0,1,2.05,2.41h0a2.23,2.23,0,0,1-2.2,2.05h0A.59.59,0,0,1,367.15,690.79Zm46-2.08a2.19,2.19,0,0,1,2-2.41h0a2.23,2.23,0,0,1,2.41,2.05h0a2.25,2.25,0,0,1-2.05,2.41h-.18A2.23,2.23,0,0,1,413.11,688.71Zm-69.59-.66h0a2.26,2.26,0,0,1-1.88-2.56h0a2.27,2.27,0,0,1,2.57-1.87h0a2.27,2.27,0,0,1,1.87,2.56h0a2.26,2.26,0,0,1-2.2,1.9h0Zm93.07-2a2.23,2.23,0,0,1,1.84-2.56v0a2.22,2.22,0,0,1,2.56,1.85h0a2.21,2.21,0,0,1-1.84,2.55h0c-.12,0-.24,0-.36,0h0A2.24,2.24,0,0,1,436.59,686.06Zm-116.43-2.65h0a2.25,2.25,0,0,1-1.67-2.68h0a2.26,2.26,0,0,1,2.71-1.64h0a2.2,2.2,0,0,1,1.63,2.68h0a2.21,2.21,0,0,1-2.17,1.7h0A1.49,1.49,0,0,1,320.16,683.41Zm139.64-1.82a2.2,2.2,0,0,1,1.64-2.67h0a2.25,2.25,0,0,1,2.71,1.63h0a2.23,2.23,0,0,1-1.67,2.68h0v0h0a2.54,2.54,0,0,1-.5.06h0A2.22,2.22,0,0,1,459.8,681.59ZM297.24,677a2.22,2.22,0,0,1-1.43-2.83h0a2.21,2.21,0,0,1,2.8-1.42h0a2.21,2.21,0,0,1,1.42,2.79h0a2.17,2.17,0,0,1-2.11,1.55h0A2.43,2.43,0,0,1,297.24,677Zm185.33-1.66a2.28,2.28,0,0,1,1.43-2.83h0a2.27,2.27,0,0,1,2.83,1.43h0a2.23,2.23,0,0,1-1.43,2.82h0a2,2,0,0,1-.68.12h0A2.26,2.26,0,0,1,482.57,675.32Zm-207.71-6.58h0a2.23,2.23,0,0,1-1.19-2.92h0a2.2,2.2,0,0,1,2.91-1.22h0a2.23,2.23,0,0,1,1.19,2.92h0a2.22,2.22,0,0,1-2,1.37h0A2.83,2.83,0,0,1,274.86,668.74Zm229.92-1.49a2.22,2.22,0,0,1,1.22-2.92h0a2.23,2.23,0,0,1,2.91,1.19h0a2.23,2.23,0,0,1-1.22,2.92h0a2,2,0,0,1-.83.18h0A2.23,2.23,0,0,1,504.78,667.25Zm-251.56-8.51h0a2.22,2.22,0,0,1-.95-3h0a2.21,2.21,0,0,1,3-1h0a2.24,2.24,0,0,1,1,3h0a2.2,2.2,0,0,1-2,1.23h0A2.17,2.17,0,0,1,253.22,658.74Zm273-1.28a2.26,2.26,0,0,1,1-3h0a2.23,2.23,0,0,1,3,1h0a2.26,2.26,0,0,1-1,3h0a2.51,2.51,0,0,1-1,.24h0A2.26,2.26,0,0,1,526.27,657.46ZM232.44,647.07h0a2.26,2.26,0,0,1-.74-3.07h0a2.28,2.28,0,0,1,3.09-.74h0a2.25,2.25,0,0,1,.72,3.1h0a2.22,2.22,0,0,1-1.9,1h0A2.1,2.1,0,0,1,232.44,647.07ZM547,646a2.24,2.24,0,0,1,.71-3.07h0a2.27,2.27,0,0,1,3.1.72h0a2.29,2.29,0,0,1-.74,3.09h0a2.37,2.37,0,0,1-1.16.33h0A2.26,2.26,0,0,1,547,646Zm-334.3-12.18a2.23,2.23,0,0,1-.5-3.12h0a2.24,2.24,0,0,1,3.12-.48h0a2.22,2.22,0,0,1,.51,3.1h0a2.22,2.22,0,0,1-1.82.92h0A2.07,2.07,0,0,1,212.65,633.82Zm354-.86a2.2,2.2,0,0,1,.51-3.09h0a2.16,2.16,0,0,1,3.09.47h0a2.21,2.21,0,0,1-.47,3.13h0a2.42,2.42,0,0,1-1.31.42h0A2.28,2.28,0,0,1,566.65,633Zm-372.72-13.9a2.25,2.25,0,0,1-.24-3.15h0a2.25,2.25,0,0,1,3.16-.24h0a2.24,2.24,0,0,1,.23,3.15h0a2.23,2.23,0,0,1-1.69.78h0A2.32,2.32,0,0,1,193.93,619.06Zm391.36-.62a2.25,2.25,0,0,1,.23-3.16h0a2.2,2.2,0,0,1,3.13.24h0a2.23,2.23,0,0,1-.24,3.13h0a2.12,2.12,0,0,1-1.46.56h0A2.27,2.27,0,0,1,585.29,618.44ZM176.46,602.9a2.25,2.25,0,0,1,0-3.15h0a2.17,2.17,0,0,1,3.15,0h0a2.23,2.23,0,0,1,0,3.15h0a2.31,2.31,0,0,1-1.57.66h0A2.28,2.28,0,0,1,176.46,602.9Zm426.27-.45a2.23,2.23,0,0,1,0-3.15h0a2.25,2.25,0,0,1,3.15,0h0a2.21,2.21,0,0,1,0,3.15h0a2.15,2.15,0,0,1-1.58.66h0A2.18,2.18,0,0,1,602.73,602.45ZM160.3,585.4h0a2.21,2.21,0,0,1,.27-3.13h0a2.23,2.23,0,0,1,3.15.24h0a2.23,2.23,0,0,1-.27,3.13h0a2,2,0,0,1-1.43.56h0A2.1,2.1,0,0,1,160.3,585.4Zm458.59-.21a2.23,2.23,0,0,1-.27-3.15h0a2.25,2.25,0,0,1,3.16-.24h0A2.22,2.22,0,0,1,622,585h0a2.24,2.24,0,0,1-1.69.78h0A2.18,2.18,0,0,1,618.89,585.19ZM145.54,566.71a2.23,2.23,0,0,1,.47-3.1h0a2.24,2.24,0,0,1,3.13.48h0a2.24,2.24,0,0,1-.48,3.13h0a2.25,2.25,0,0,1-1.31.41h0A2.12,2.12,0,0,1,145.54,566.71Zm488.11,0a2.24,2.24,0,0,1-.51-3.12h0a2.26,2.26,0,0,1,3.13-.51h0a2.23,2.23,0,0,1,.47,3.12h0a2.16,2.16,0,0,1-1.78.93h0A2.07,2.07,0,0,1,633.65,566.71ZM132.29,547a2.22,2.22,0,0,1,.71-3.07h0a2.2,2.2,0,0,1,3.07.72h0a2.22,2.22,0,0,1-.71,3.06h0a2.09,2.09,0,0,1-1.16.33h0A2.19,2.19,0,0,1,132.29,547Zm514.6.18a2.26,2.26,0,0,1-.74-3.07h0a2.26,2.26,0,0,1,3.1-.74h0a2.22,2.22,0,0,1,.71,3.06h0a2.22,2.22,0,0,1-1.9,1.07h0A2.48,2.48,0,0,1,646.89,547.13Zm-526.26-21a2.23,2.23,0,0,1,1-3h0a2.25,2.25,0,0,1,3,1h0a2.25,2.25,0,0,1-1,3h0a2.11,2.11,0,0,1-1,.24h0A2.21,2.21,0,0,1,120.63,526.17Zm538,.39a2.23,2.23,0,0,1-1-3h0a2.23,2.23,0,0,1,3-.95h0a2.2,2.2,0,0,1,1,3h0a2.29,2.29,0,0,1-2,1.22h0A2.11,2.11,0,0,1,658.59,526.56Zm-547.94-22a2.23,2.23,0,0,1,1.19-2.91h0a2.27,2.27,0,0,1,2.92,1.22h0a2.22,2.22,0,0,1-1.22,2.92h0a2.24,2.24,0,0,1-.83.17h0A2.24,2.24,0,0,1,110.65,504.56Zm558,.57a2.25,2.25,0,0,1-1.22-2.92v0a2.23,2.23,0,0,1,2.92-1.22h0a2.21,2.21,0,0,1,1.22,2.92h0a2.23,2.23,0,0,1-2.06,1.37h0A2.25,2.25,0,0,1,668.62,505.13ZM102.41,482.27h0a2.22,2.22,0,0,1,1.43-2.83h0a2.24,2.24,0,0,1,2.8,1.43h0a2.26,2.26,0,0,1-1.43,2.83h0a2.72,2.72,0,0,1-.69.09h0A2.21,2.21,0,0,1,102.41,482.27ZM677,483a2.21,2.21,0,0,1-1.46-2.8h0a2.24,2.24,0,0,1,2.8-1.46h0a2.24,2.24,0,0,1,1.45,2.83h0a2.23,2.23,0,0,1-2.14,1.55h0A1.82,1.82,0,0,1,677,483Zm-581-23.64a2.28,2.28,0,0,1,1.67-2.71h0a2.22,2.22,0,0,1,2.67,1.67h0A2.22,2.22,0,0,1,98.63,461h0a3.31,3.31,0,0,1-.54.06h0A2.25,2.25,0,0,1,95.92,459.35Zm587.55.93a2.27,2.27,0,0,1-1.66-2.71h0a2.23,2.23,0,0,1,2.71-1.64h0a2.21,2.21,0,0,1,1.63,2.68h0a2.26,2.26,0,0,1-2.17,1.73h0A3.34,3.34,0,0,1,683.47,460.28ZM91.31,436h0a2.21,2.21,0,0,1,1.84-2.56h0a2.24,2.24,0,0,1,2.56,1.85h0a2.25,2.25,0,0,1-1.87,2.56h0a1.23,1.23,0,0,1-.33,0h0A2.24,2.24,0,0,1,91.31,436Zm596.87,1.1a2.18,2.18,0,0,1-1.85-2.53h0a2.23,2.23,0,0,1,2.53-1.87h0a2.28,2.28,0,0,1,1.88,2.56h0a2.23,2.23,0,0,1-2.21,1.87h0A1.34,1.34,0,0,1,688.18,437.09ZM88.51,412.33a2.23,2.23,0,0,1,2-2.38h0A2.22,2.22,0,0,1,93,412h0a2.23,2.23,0,0,1-2,2.38h-.18A2.23,2.23,0,0,1,88.51,412.33Zm602.55,1.31a2.23,2.23,0,0,1-2-2.38h0a2.19,2.19,0,0,1,2.38-2.06h0a2.2,2.2,0,0,1,2.06,2.38h0a2.22,2.22,0,0,1-2.21,2.06h-.18ZM87.59,388.55h0a2.22,2.22,0,0,1,2.23-2.24h0a2.23,2.23,0,0,1,2.23,2.24h0a2.25,2.25,0,0,1-2.23,2.23h0A2.23,2.23,0,0,1,87.59,388.55Zm602.28-.75a2.23,2.23,0,0,1,2.24-2.23h0a2.23,2.23,0,0,1,2.23,2.23h0a2.25,2.25,0,0,1-2.23,2.24h0A2.26,2.26,0,0,1,689.87,387.8ZM90.53,367.15a2.24,2.24,0,0,1-2-2.41h0a2.24,2.24,0,0,1,2.41-2.06h0a2.25,2.25,0,0,1,2,2.41h0a2.24,2.24,0,0,1-2.23,2.06h-.18Zm598.39-2.8a2.23,2.23,0,0,1,2.05-2.41h0a2.23,2.23,0,0,1,2.39,2.05h0a2.22,2.22,0,0,1-2,2.41h-.18A2.23,2.23,0,0,1,688.92,364.35ZM93.09,343.64a2.19,2.19,0,0,1-1.84-2.53h0a2.23,2.23,0,0,1,2.53-1.88h0a2.26,2.26,0,0,1,1.87,2.56h0a2.23,2.23,0,0,1-2.2,1.87h0A2.17,2.17,0,0,1,93.09,343.64Zm593.06-2.59a2.22,2.22,0,0,1,1.85-2.56h0a2.26,2.26,0,0,1,2.56,1.87h0a2.23,2.23,0,0,1-1.85,2.56h-.35A2.23,2.23,0,0,1,686.15,341.05ZM97.5,320.42a2.25,2.25,0,0,1-1.67-2.68h0a2.25,2.25,0,0,1,2.71-1.66h0a2.21,2.21,0,0,1,1.64,2.67v0a2.23,2.23,0,0,1-2.18,1.7h0A1.55,1.55,0,0,1,97.5,320.42ZM681.57,318h0a2.22,2.22,0,0,1,1.64-2.68h0a2.19,2.19,0,0,1,2.67,1.64h0a2.29,2.29,0,0,1-1.66,2.71h0a5,5,0,0,1-.54.06h0A2.22,2.22,0,0,1,681.57,318ZM103.72,297.62a2.22,2.22,0,0,1-1.43-2.83h0a2.21,2.21,0,0,1,2.8-1.42h0a2.24,2.24,0,0,1,1.43,2.82h0a2.23,2.23,0,0,1-2.12,1.52h0A2.54,2.54,0,0,1,103.72,297.62Zm571.45-2.14h0a2.22,2.22,0,0,1,1.43-2.83h0a2.21,2.21,0,0,1,2.79,1.43h0a2.22,2.22,0,0,1-1.42,2.83h0a2.56,2.56,0,0,1-.69.12h0A2.2,2.2,0,0,1,675.17,295.48ZM111.73,275.36a2.25,2.25,0,0,1-1.23-2.92h0a2.22,2.22,0,0,1,2.92-1.22h0a2.25,2.25,0,0,1,1.22,2.92h0a2.22,2.22,0,0,1-2,1.37h0A2.05,2.05,0,0,1,111.73,275.36ZM667,273.48a2.22,2.22,0,0,1,1.18-2.91h0a2.22,2.22,0,0,1,2.92,1.22h0a2.22,2.22,0,0,1-1.19,2.91h0a2.21,2.21,0,0,1-.86.18h0A2.22,2.22,0,0,1,667,273.48Zm-545.56-19.7a2.25,2.25,0,0,1-1-3h0a2.26,2.26,0,0,1,3-1h0a2.22,2.22,0,0,1,1,3h0a2.23,2.23,0,0,1-2,1.19h0A2.06,2.06,0,0,1,121.46,253.78Zm535.67-1.55a2.22,2.22,0,0,1,1-3h0a2.21,2.21,0,0,1,3,1h0a2.23,2.23,0,0,1-1,3h0a2.13,2.13,0,0,1-1,.23h0A2.24,2.24,0,0,1,657.13,252.23ZM132.89,233.06a2.21,2.21,0,0,1-.75-3.06h0a2.26,2.26,0,0,1,3.07-.74h0a2.25,2.25,0,0,1,.74,3.06h0a2.22,2.22,0,0,1-1.9,1.07h0A2,2,0,0,1,132.89,233.06Zm512.75-1.27a2.23,2.23,0,0,1,.72-3.07h0a2.2,2.2,0,0,1,3.07.74h0a2.23,2.23,0,0,1-.72,3.07h0a2.35,2.35,0,0,1-1.16.33h0A2.22,2.22,0,0,1,645.64,231.79ZM145.89,213.3a2.17,2.17,0,0,1-.5-3.09h0v0h0a2.26,2.26,0,0,1,3.12-.48h0a2.27,2.27,0,0,1,.48,3.13h0a2.27,2.27,0,0,1-1.82.89h0A2.07,2.07,0,0,1,145.89,213.3Zm486.66-1h0a2.22,2.22,0,0,1,.51-3.12h0a2.25,2.25,0,0,1,3.12.47h0a2.2,2.2,0,0,1-.48,3.13h0a2.17,2.17,0,0,1-1.31.41h0A2.22,2.22,0,0,1,632.55,212.32ZM160.39,194.64a2.23,2.23,0,0,1-.27-3.15h0a2.26,2.26,0,0,1,3.16-.27h0a2.24,2.24,0,0,1,.23,3.15h0a2.18,2.18,0,0,1-1.69.81h0A2.18,2.18,0,0,1,160.39,194.64Zm457.6-.71h0a2.26,2.26,0,0,1,.24-3.16h0a2.26,2.26,0,0,1,3.16.24h0a2.24,2.24,0,0,1-.24,3.16h0a2.3,2.3,0,0,1-1.46.53h0A2.31,2.31,0,0,1,618,193.93ZM176.28,177.14a2.25,2.25,0,0,1,0-3.15h0a2.24,2.24,0,0,1,3.16,0h0a2.19,2.19,0,0,1,0,3.15h0a2.12,2.12,0,0,1-1.58.66h0A2.2,2.2,0,0,1,176.28,177.14ZM602,176.72a2.28,2.28,0,0,1,0-3.18h0a2.24,2.24,0,0,1,3.16,0h0a2.25,2.25,0,0,1,0,3.15h0a2.22,2.22,0,0,1-1.58.66h0A2.3,2.3,0,0,1,602,176.72ZM193.51,161a2.27,2.27,0,0,1,.24-3.16h0a2.26,2.26,0,0,1,3.16.24h0a2.26,2.26,0,0,1-.24,3.16h0a2.31,2.31,0,0,1-1.46.53h0A2.27,2.27,0,0,1,193.51,161Zm391.27-.15h0a2.26,2.26,0,0,1-.24-3.16h0a2.25,2.25,0,0,1,3.16-.23h0a2.18,2.18,0,0,1,.26,3.12h0a2.18,2.18,0,0,1-1.69.81h0A2.26,2.26,0,0,1,584.78,160.8ZM211.94,146.16a2.24,2.24,0,0,1,.5-3.13h0a2.26,2.26,0,0,1,3.13.51h0a2.2,2.2,0,0,1-.51,3.09h0a2.14,2.14,0,0,1-1.31.45h0A2.28,2.28,0,0,1,211.94,146.16Zm354.42.12a2.24,2.24,0,0,1-.51-3.13h0a2.22,2.22,0,0,1,3.12-.47h0v0h0a2.27,2.27,0,0,1,.51,3.13h0a2.19,2.19,0,0,1-1.82.92h0A2.1,2.1,0,0,1,566.36,146.28ZM231.49,132.85a2.25,2.25,0,0,1,.71-3.09h0a2.25,2.25,0,0,1,3.07.74h0a2.23,2.23,0,0,1-.71,3.07h0a2.09,2.09,0,0,1-1.16.33h0A2.18,2.18,0,0,1,231.49,132.85Zm315.34.39a2.21,2.21,0,0,1-.74-3.07h0a2.22,2.22,0,0,1,3.06-.74h0a2.25,2.25,0,0,1,.75,3.06h0a2.18,2.18,0,0,1-1.91,1.08h0A2,2,0,0,1,546.83,133.24ZM252,121.1a2.23,2.23,0,0,1,.95-3h0v0h0a2.22,2.22,0,0,1,3,.95h0a2.25,2.25,0,0,1-1,3h0a2.06,2.06,0,0,1-1,.24h0A2.2,2.2,0,0,1,252,121.1Zm274.32.68a2.22,2.22,0,0,1-1-3h0a2.2,2.2,0,0,1,3-1h0a2.23,2.23,0,0,1,1,3h0a2.25,2.25,0,0,1-2,1.22h0A2.53,2.53,0,0,1,526.32,121.78ZM273.34,111a2.25,2.25,0,0,1,1.22-2.92h0a2.22,2.22,0,0,1,2.91,1.19h0a2.23,2.23,0,0,1-1.18,2.92h0a2.35,2.35,0,0,1-.87.17h0A2.23,2.23,0,0,1,273.34,111ZM505,112h0a2.24,2.24,0,0,1-1.19-2.92h0a2.24,2.24,0,0,1,2.92-1.19h0v0h0a2.23,2.23,0,0,1,1.19,2.92h0a2.21,2.21,0,0,1-2,1.4h0A2.12,2.12,0,0,1,505,112Zm-209.56-9.29a2.21,2.21,0,0,1,1.43-2.82h0a2.22,2.22,0,0,1,2.8,1.43h0a2.22,2.22,0,0,1-1.43,2.82h0a2.78,2.78,0,0,1-.69.12h0A2.24,2.24,0,0,1,295.45,102.67ZM483,103.86a2.19,2.19,0,0,1-1.43-2.79h0a2.22,2.22,0,0,1,2.8-1.46h0a2.24,2.24,0,0,1,1.43,2.82h0a2.23,2.23,0,0,1-2.12,1.55h0A1.84,1.84,0,0,1,483,103.86ZM318.13,96.07a2.22,2.22,0,0,1,1.67-2.68h0v0h0A2.23,2.23,0,0,1,322.48,95h0a2.2,2.2,0,0,1-1.64,2.68h0a1.63,1.63,0,0,1-.53.06h0A2.25,2.25,0,0,1,318.13,96.07Zm142.24,1.48h0a2.27,2.27,0,0,1-1.67-2.7h0a2.26,2.26,0,0,1,2.68-1.67h0a2.23,2.23,0,0,1,1.67,2.71h0a2.25,2.25,0,0,1-2.18,1.72h0A3,3,0,0,1,460.37,97.55ZM341.29,91.27a2.22,2.22,0,0,1,1.84-2.56h0a2.26,2.26,0,0,1,2.56,1.88h0a2.18,2.18,0,0,1-1.84,2.53h0a1.46,1.46,0,0,1-.36,0h0A2.22,2.22,0,0,1,341.29,91.27Zm96,1.76a2.22,2.22,0,0,1-1.84-2.56h0A2.23,2.23,0,0,1,438,88.59h0a2.26,2.26,0,0,1,1.87,2.56h0a2.23,2.23,0,0,1-2.2,1.88h-.36Zm-72.59-4.7a2.22,2.22,0,0,1,2.06-2.41h0a2.23,2.23,0,0,1,2.38,2h0a2.22,2.22,0,0,1-2,2.41H367A2.23,2.23,0,0,1,364.74,88.33Zm49.29,2h0A2.23,2.23,0,0,1,412,87.94h0a2.24,2.24,0,0,1,2.41-2.08h0a2.28,2.28,0,0,1,2.06,2.41h0a2.23,2.23,0,0,1-2.23,2H414Zm-25.69-3.1A2.26,2.26,0,0,1,390.57,85h0a2.24,2.24,0,0,1,2.24,2.24h0a2.21,2.21,0,0,1-2.24,2.23h0A2.23,2.23,0,0,1,388.34,87.22Z"/>
    <path class="cls-2" d="M388.34,662.52A2.64,2.64,0,0,1,391,659.9v0h.3c.09,0,.21,0,.33,0h0a2.62,2.62,0,0,1,2.62,2.62h0a2.6,2.6,0,0,1-2.59,2.59H391A2.62,2.62,0,0,1,388.34,662.52Zm-21.16,1.6a2.62,2.62,0,0,1-2.38-2.82h0a2.64,2.64,0,0,1,2.83-2.39h0a2.59,2.59,0,0,1,2.35,2.83h0a2.59,2.59,0,0,1-2.59,2.38h-.21Zm45.39-2.44a2.61,2.61,0,0,1,2.35-2.82h0a2.63,2.63,0,0,1,2.83,2.38h0a2.61,2.61,0,0,1-2.35,2.82h-.24A2.59,2.59,0,0,1,412.57,661.68Zm-69-.59a2.63,2.63,0,0,1-2.14-3h0a2.6,2.6,0,0,1,3-2.14h0a2.63,2.63,0,0,1,2.15,3h0a2.64,2.64,0,0,1-2.59,2.17h0A2,2,0,0,1,343.58,661.09ZM436,658.86a2.66,2.66,0,0,1,2.12-3h0a2.63,2.63,0,0,1,3,2.11h0a2.65,2.65,0,0,1-2.11,3h0a2.75,2.75,0,0,1-.48,0h0A2.64,2.64,0,0,1,436,658.86ZM320.31,656a2.6,2.6,0,0,1-1.85-3.19h0a2.58,2.58,0,0,1,3.15-1.87h0a2.62,2.62,0,0,1,1.88,3.18h0a2.62,2.62,0,0,1-2.53,1.94h0A2.35,2.35,0,0,1,320.31,656Zm138.75-2a2.57,2.57,0,0,1,1.85-3.19h0a2.59,2.59,0,0,1,3.18,1.85h0a2.62,2.62,0,0,1-1.85,3.18h0a2.59,2.59,0,0,1-.68.09h0A2.58,2.58,0,0,1,459.06,654Zm-161.5-5.07v0h0a2.61,2.61,0,0,1-1.57-3.33h0a2.6,2.6,0,0,1,3.33-1.58h0a2.63,2.63,0,0,1,1.58,3.34h0a2.66,2.66,0,0,1-2.47,1.72h0A2.38,2.38,0,0,1,297.56,648.94Zm184.06-1.75a2.59,2.59,0,0,1,1.58-3.33h0a2.58,2.58,0,0,1,3.33,1.54h0a2.6,2.6,0,0,1-1.58,3.34h0a2.42,2.42,0,0,1-.86.14h0A2.64,2.64,0,0,1,481.62,647.19ZM275.51,640a2.59,2.59,0,0,1-1.28-3.45h0a2.61,2.61,0,0,1,3.45-1.28h0a2.61,2.61,0,0,1,1.28,3.46h0a2.6,2.6,0,0,1-2.38,1.51h0A2.2,2.2,0,0,1,275.51,640Zm228-1.51a2.6,2.6,0,0,1,1.25-3.46v0a2.65,2.65,0,0,1,3.48,1.27h0a2.61,2.61,0,0,1-1.28,3.46h0a2.46,2.46,0,0,1-1.1.24h0A2.53,2.53,0,0,1,503.53,638.44Zm-249.21-9.35a2.59,2.59,0,0,1-1-3.54h0a2.57,2.57,0,0,1,3.54-1h0a2.58,2.58,0,0,1,1,3.54h0a2.63,2.63,0,0,1-2.26,1.31h0A2.47,2.47,0,0,1,254.32,629.09Zm270.25-1.28a2.59,2.59,0,0,1,1-3.54h0a2.61,2.61,0,0,1,3.54,1h0a2.64,2.64,0,0,1-1,3.57h0a2.58,2.58,0,0,1-1.31.33h0A2.61,2.61,0,0,1,524.57,627.81ZM234.14,616.44h0a2.63,2.63,0,0,1-.69-3.63h0a2.61,2.61,0,0,1,3.64-.65h0a2.58,2.58,0,0,1,.68,3.6h0a2.63,2.63,0,0,1-2.17,1.13h0A2.61,2.61,0,0,1,234.14,616.44Zm310.49-1a2.62,2.62,0,0,1,.68-3.63h0a2.58,2.58,0,0,1,3.6.69h0a2.59,2.59,0,0,1-.65,3.63h0a2.71,2.71,0,0,1-1.49.44h0A2.59,2.59,0,0,1,544.63,615.43ZM215.12,602.1h0a2.62,2.62,0,0,1-.35-3.66h0a2.56,2.56,0,0,1,3.65-.36h0a2.55,2.55,0,0,1,.36,3.66h0a2.57,2.57,0,0,1-2,1h0A2.77,2.77,0,0,1,215.12,602.1Zm348.47-.72a2.59,2.59,0,0,1,.32-3.66h0a2.61,2.61,0,0,1,3.67.33h0a2.6,2.6,0,0,1-.33,3.66h0a2.52,2.52,0,0,1-1.67.63h0A2.55,2.55,0,0,1,563.59,601.38Zm-366.18-15.2a2.6,2.6,0,0,1-.06-3.67h0a2.6,2.6,0,0,1,3.69-.06h0a2.62,2.62,0,0,1,.06,3.7h0a2.59,2.59,0,0,1-1.87.77h0A2.57,2.57,0,0,1,197.41,586.18Zm383.83-.45a2.59,2.59,0,0,1,0-3.66h0a2.6,2.6,0,0,1,3.69,0h0a2.63,2.63,0,0,1,0,3.69h0a2.66,2.66,0,0,1-1.82.74h0A2.54,2.54,0,0,1,581.24,585.73ZM181.13,568.82h0a2.57,2.57,0,0,1,.27-3.66h0a2.57,2.57,0,0,1,3.66.27h0a2.57,2.57,0,0,1-.27,3.66h0a2.57,2.57,0,0,1-1.69.63h0A2.54,2.54,0,0,1,181.13,568.82Zm416.39-.15a2.64,2.64,0,0,1-.3-3.69h0a2.6,2.6,0,0,1,3.69-.26h0a2.62,2.62,0,0,1,.27,3.66h0a2.64,2.64,0,0,1-2,.92h0A2.52,2.52,0,0,1,597.52,568.67ZM166.37,550.13a2.61,2.61,0,0,1,.59-3.63h0a2.57,2.57,0,0,1,3.64.6h0a2.62,2.62,0,0,1-.6,3.63h0a2.53,2.53,0,0,1-1.52.47h0A2.56,2.56,0,0,1,166.37,550.13Zm445.88.12a2.62,2.62,0,0,1-.6-3.63h0a2.62,2.62,0,0,1,3.63-.6h0a2.61,2.61,0,0,1,.6,3.63h0a2.57,2.57,0,0,1-2.11,1.08h0A2.61,2.61,0,0,1,612.25,550.25Zm-459-20a2.61,2.61,0,0,1,.9-3.57h0a2.64,2.64,0,0,1,3.6.89h0a2.62,2.62,0,0,1-.92,3.57h0a2.4,2.4,0,0,1-1.31.39h0A2.71,2.71,0,0,1,153.27,530.25Zm472.11.39a2.63,2.63,0,0,1-.93-3.58h0a2.62,2.62,0,0,1,3.57-.89h0a2.6,2.6,0,0,1,.93,3.55h0a2.64,2.64,0,0,1-2.27,1.27h0A2.57,2.57,0,0,1,625.38,530.64ZM142,509.33h0a2.61,2.61,0,0,1,1.18-3.49h0a2.59,2.59,0,0,1,3.49,1.2h0a2.62,2.62,0,0,1-1.19,3.48h0a2.91,2.91,0,0,1-1.17.26h0A2.56,2.56,0,0,1,142,509.33Zm494.77.65a2.63,2.63,0,0,1-1.21-3.48h0a2.56,2.56,0,0,1,3.45-1.22h0a2.6,2.6,0,0,1,1.22,3.48h0a2.6,2.6,0,0,1-2.35,1.46h0A2.52,2.52,0,0,1,636.74,510Zm-504.27-22.5a2.59,2.59,0,0,1,1.52-3.36h0a2.61,2.61,0,0,1,3.36,1.51h0a2.65,2.65,0,0,1-1.52,3.37h0a3.22,3.22,0,0,1-.92.15h0A2.64,2.64,0,0,1,132.47,487.48Zm513.83.92a2.58,2.58,0,0,1-1.49-3.36h0a2.64,2.64,0,0,1,3.36-1.52h0a2.59,2.59,0,0,1,1.52,3.36h0a2.58,2.58,0,0,1-2.44,1.67h0A2.5,2.5,0,0,1,646.3,488.4ZM124.91,464.92h0a2.64,2.64,0,0,1,1.79-3.24h0a2.6,2.6,0,0,1,3.21,1.78h0a2.64,2.64,0,0,1-1.79,3.24h0a2.77,2.77,0,0,1-.74.09h0A2.61,2.61,0,0,1,124.91,464.92Zm529,1.16a2.63,2.63,0,0,1-1.79-3.22h0a2.57,2.57,0,0,1,3.22-1.78h0a2.55,2.55,0,0,1,1.78,3.21h0a2.6,2.6,0,0,1-2.5,1.88h0A2.88,2.88,0,0,1,654,466.08ZM119.34,441.76h0a2.64,2.64,0,0,1,2.06-3.06h0a2.63,2.63,0,0,1,3.06,2.05h0a2.62,2.62,0,0,1-2,3.07h0a3,3,0,0,1-.51.06h0A2.62,2.62,0,0,1,119.34,441.76Zm540.32,1.43a2.58,2.58,0,0,1-2.08-3h0a2.61,2.61,0,0,1,3.06-2.09h0a2.62,2.62,0,0,1,2.06,3.07h0a2.61,2.61,0,0,1-2.56,2.11h0A2.63,2.63,0,0,1,659.66,443.19Zm-543.89-25h0a2.57,2.57,0,0,1,2.29-2.86h0a2.59,2.59,0,0,1,2.86,2.3h0a2.56,2.56,0,0,1-2.29,2.88h-.3A2.61,2.61,0,0,1,115.77,418.22Zm547.55,1.7A2.65,2.65,0,0,1,661,417h0a2.59,2.59,0,0,1,2.89-2.29h0a2.57,2.57,0,0,1,2.32,2.86h0a2.56,2.56,0,0,1-2.56,2.32h-.3ZM114.25,394.47a2.6,2.6,0,0,1,2.56-2.65h0a2.57,2.57,0,0,1,2.65,2.53h0A2.62,2.62,0,0,1,116.9,397h0A2.62,2.62,0,0,1,114.25,394.47ZM665,396.37a2.61,2.61,0,0,1-2.56-2.64h0a2.62,2.62,0,0,1,2.65-2.56h0a2.62,2.62,0,0,1,2.56,2.68h0v0h0a2.6,2.6,0,0,1-2.59,2.55H665ZM117.17,373.43a2.58,2.58,0,0,1-2.41-2.77h0a2.57,2.57,0,0,1,2.74-2.41h0a2.59,2.59,0,0,1,2.44,2.74v0a2.58,2.58,0,0,1-2.59,2.41h-.18Zm544.76-3.07a2.62,2.62,0,0,1,2.44-2.77h0a2.63,2.63,0,0,1,2.76,2.45h0a2.64,2.64,0,0,1-2.44,2.76h-.18A2.61,2.61,0,0,1,661.93,370.36ZM119.46,350a2.63,2.63,0,0,1-2.2-3h0a2.64,2.64,0,0,1,3-2.21h0a2.64,2.64,0,0,1,2.17,3h0a2.6,2.6,0,0,1-2.59,2.23h0Zm539.93-2.82a2.65,2.65,0,0,1,2.21-3h0a2.6,2.6,0,0,1,2.95,2.2h0a2.58,2.58,0,0,1-2.18,2.95h0a1.71,1.71,0,0,1-.39,0h0A2.63,2.63,0,0,1,659.39,347.15ZM123.72,326.76a2.56,2.56,0,0,1-1.91-3.12h0a2.6,2.6,0,0,1,3.13-1.94h0a2.62,2.62,0,0,1,1.93,3.16h0a2.62,2.62,0,0,1-2.52,2h0A2.28,2.28,0,0,1,123.72,326.76Zm531.18-2.53a2.66,2.66,0,0,1,1.9-3.16h0A2.65,2.65,0,0,1,660,323h0a2.56,2.56,0,0,1-1.91,3.12h0a2.16,2.16,0,0,1-.62.09h0A2.63,2.63,0,0,1,654.9,324.23ZM130,304.05a2.6,2.6,0,0,1-1.64-3.3h0a2.6,2.6,0,0,1,3.28-1.67h0a2.63,2.63,0,0,1,1.66,3.3h0a2.64,2.64,0,0,1-2.5,1.79h0A3.78,3.78,0,0,1,130,304.05Zm518.41-2.26a2.64,2.64,0,0,1,1.67-3.31h0a2.61,2.61,0,0,1,3.27,1.64h0a2.59,2.59,0,0,1-1.63,3.31h0a2.6,2.6,0,0,1-.84.14h0A2.64,2.64,0,0,1,648.41,301.79Zm-510.2-19.88a2.64,2.64,0,0,1-1.37-3.43h0a2.62,2.62,0,0,1,3.46-1.34h0a2.61,2.61,0,0,1,1.34,3.43h0a2.6,2.6,0,0,1-2.38,1.55h0A2.7,2.7,0,0,1,138.21,281.91ZM640,280h0a2.58,2.58,0,0,1,1.34-3.42h0a2.6,2.6,0,0,1,3.42,1.34h0a2.6,2.6,0,0,1-1.34,3.42h0a2.59,2.59,0,0,1-1,.24h0A2.66,2.66,0,0,1,640,280ZM148.3,260.59a2.62,2.62,0,0,1-1-3.54h0a2.61,2.61,0,0,1,3.54-1h0a2.6,2.6,0,0,1,1,3.52h0a2.61,2.61,0,0,1-2.29,1.36h0A2.76,2.76,0,0,1,148.3,260.59ZM629.78,259a2.61,2.61,0,0,1,1.07-3.54h0a2.59,2.59,0,0,1,3.51,1h0a2.59,2.59,0,0,1-1,3.54h0a2.56,2.56,0,0,1-1.25.33h0A2.64,2.64,0,0,1,629.78,259ZM160.21,240.21a2.59,2.59,0,0,1-.74-3.6h0a2.6,2.6,0,0,1,3.6-.75h0a2.57,2.57,0,0,1,.74,3.6h0a2.6,2.6,0,0,1-2.17,1.2h0A2.57,2.57,0,0,1,160.21,240.21ZM617.79,239h0a2.56,2.56,0,0,1,.74-3.6h0a2.57,2.57,0,0,1,3.6.74h0a2.62,2.62,0,0,1-.74,3.6h0a2.55,2.55,0,0,1-1.43.42h0A2.63,2.63,0,0,1,617.79,239Zm-444-18a2.61,2.61,0,0,1-.42-3.66h0a2.57,2.57,0,0,1,3.63-.44h0a2.59,2.59,0,0,1,.45,3.65h0a2.56,2.56,0,0,1-2.05,1h0A2.67,2.67,0,0,1,173.81,221Zm430.28-.89h0a2.61,2.61,0,0,1,.42-3.66h0a2.6,2.6,0,0,1,3.66.45h0a2.56,2.56,0,0,1-.41,3.63h0a2.59,2.59,0,0,1-1.61.56h0A2.61,2.61,0,0,1,604.09,220.06ZM189,202.91a2.62,2.62,0,0,1-.12-3.68h0a2.58,2.58,0,0,1,3.69-.12h0a2.63,2.63,0,0,1,.12,3.69h0a2.69,2.69,0,0,1-1.9.8h0A2.66,2.66,0,0,1,189,202.91Zm399.81-.53a2.62,2.62,0,0,1,.12-3.69h0a2.63,2.63,0,0,1,3.69.12h0a2.56,2.56,0,0,1-.09,3.66h0a2.61,2.61,0,0,1-1.79.71h0A2.64,2.64,0,0,1,588.83,202.38ZM205.72,186.22a2.56,2.56,0,0,1,.17-3.66h0a2.62,2.62,0,0,1,3.7.18h0a2.63,2.63,0,0,1-.21,3.69h0a2.65,2.65,0,0,1-1.73.65h0A2.46,2.46,0,0,1,205.72,186.22ZM572.1,186a2.56,2.56,0,0,1-.18-3.66h0a2.59,2.59,0,0,1,3.66-.21h0a2.59,2.59,0,0,1,.21,3.66h0a2.5,2.5,0,0,1-1.94.89h0A2.64,2.64,0,0,1,572.1,186ZM223.75,171a2.61,2.61,0,0,1,.51-3.63h0a2.6,2.6,0,0,1,3.66.5h0a2.6,2.6,0,0,1-.51,3.63h0a2.62,2.62,0,0,1-1.57.54h0A2.59,2.59,0,0,1,223.75,171Zm330.31.18a2.58,2.58,0,0,1-.5-3.66h0a2.6,2.6,0,0,1,3.63-.51h0a2.6,2.6,0,0,1,.5,3.66h0a2.58,2.58,0,0,1-2.08,1h0A2.54,2.54,0,0,1,554.06,171.22ZM243,157.47a2.6,2.6,0,0,1,.8-3.6h0v0h0a2.6,2.6,0,0,1,3.6.8h0a2.62,2.62,0,0,1-.8,3.6h0a2.67,2.67,0,0,1-1.4.39h0A2.55,2.55,0,0,1,243,157.47Zm291.77.5h0a2.57,2.57,0,0,1-.84-3.57h0a2.62,2.62,0,0,1,3.61-.83h0a2.59,2.59,0,0,1,.8,3.6h0a2.62,2.62,0,0,1-2.2,1.22h0A2.51,2.51,0,0,1,534.81,158ZM263.4,145.59a2.6,2.6,0,0,1,1.13-3.51h0a2.6,2.6,0,0,1,3.51,1.13h0a2.6,2.6,0,0,1-1.13,3.51h0a2.76,2.76,0,0,1-1.19.27h0A2.61,2.61,0,0,1,263.4,145.59Zm251.08.86h0a2.6,2.6,0,0,1-1.13-3.51h0a2.6,2.6,0,0,1,3.51-1.13h0a2.61,2.61,0,0,1,1.13,3.51h0a2.64,2.64,0,0,1-2.32,1.4h0A2.76,2.76,0,0,1,514.48,146.45ZM284.74,135.53a2.57,2.57,0,0,1,1.4-3.39h0a2.58,2.58,0,0,1,3.39,1.4h0a2.58,2.58,0,0,1-1.4,3.39h0a2.35,2.35,0,0,1-1,.21h0A2.54,2.54,0,0,1,284.74,135.53Zm208.49,1.19a2.61,2.61,0,0,1-1.43-3.39h0a2.57,2.57,0,0,1,3.39-1.43h0a2.59,2.59,0,0,1,1.43,3.39h0a2.6,2.6,0,0,1-2.41,1.61h0A2.83,2.83,0,0,1,493.23,136.72Zm-186.38-9.4a2.58,2.58,0,0,1,1.7-3.25h0a2.61,2.61,0,0,1,3.27,1.7h0a2.63,2.63,0,0,1-1.73,3.27h0a2.25,2.25,0,0,1-.77.12h0A2.57,2.57,0,0,1,306.85,127.32Zm164.35,1.54h0a2.62,2.62,0,0,1-1.72-3.27h0a2.59,2.59,0,0,1,3.24-1.72h0a2.65,2.65,0,0,1,1.73,3.27h0A2.62,2.62,0,0,1,472,129h0A3.12,3.12,0,0,1,471.2,128.86Zm-141.64-7.79a2.62,2.62,0,0,1,2-3.1h0a2.65,2.65,0,0,1,3.12,2h0a2.61,2.61,0,0,1-2,3.1h0a1.85,1.85,0,0,1-.57.06h0A2.63,2.63,0,0,1,329.56,121.07Zm119.05,1.87v0a2.57,2.57,0,0,1-2-3.06h0a2.59,2.59,0,0,1,3.09-2h0a2.56,2.56,0,0,1,2,3.1h0a2.6,2.6,0,0,1-2.53,2h0A3.68,3.68,0,0,1,448.61,122.94Zm-95.83-6.13a2.59,2.59,0,0,1,2.23-2.92h0a2.65,2.65,0,0,1,2.91,2.27h0a2.62,2.62,0,0,1-2.26,2.91h0c-.12,0-.21,0-.32,0h0A2.62,2.62,0,0,1,352.78,116.81ZM425.61,119h0a2.6,2.6,0,0,1-2.26-2.91h0a2.6,2.6,0,0,1,2.91-2.26h0a2.61,2.61,0,0,1,2.26,2.91h0a2.65,2.65,0,0,1-2.59,2.29h0A1.19,1.19,0,0,1,425.61,119Zm-49.35-4.4a2.54,2.54,0,0,1,2.47-2.71h0a2.57,2.57,0,0,1,2.71,2.47h0a2.59,2.59,0,0,1-2.47,2.71h-.12A2.57,2.57,0,0,1,376.26,114.58Zm23.57-.27a2.62,2.62,0,0,1,2.71-2.5h0v0h0a2.6,2.6,0,0,1,2.5,2.71h0a2.59,2.59,0,0,1-2.71,2.47v0A2.65,2.65,0,0,1,399.83,114.31Z"/>
    <path class="cls-2" d="M388,635.52a3,3,0,0,1,3-3h0a.83.83,0,0,1,.27,0h0a.83.83,0,0,1,.27,0h0a3,3,0,0,1,3,3h0a3,3,0,0,1-3,3H391A3,3,0,0,1,388,635.52Zm3.54,3Zm-24-1.07a3,3,0,0,1-2.68-3.25h0a3,3,0,0,1,3.24-2.68h0a3,3,0,0,1,2.68,3.22h0a3,3,0,0,1-2.94,2.71h-.3Zm44.14-2.74a3,3,0,0,1,2.68-3.25h0a3,3,0,0,1,3.27,2.68h0a3,3,0,0,1-2.68,3.25h0c-.12,0-.21,0-.3,0h0A3,3,0,0,1,411.68,634.69Zm-67.36-.54v0h0a3,3,0,0,1-2.38-3.48h0a3,3,0,0,1,3.48-2.38h0a3,3,0,0,1,2.39,3.48h0a3,3,0,0,1-2.92,2.41h0A1.85,1.85,0,0,1,344.32,634.15Zm90.33-2.47A3,3,0,0,1,437,628.2h0a3,3,0,0,1,3.48,2.38h0a3,3,0,0,1-2.38,3.48h0a3.31,3.31,0,0,1-.54.06h0A3,3,0,0,1,434.65,631.68Zm-113.12-2.94h0a3,3,0,0,1-2-3.7h0a3,3,0,0,1,3.66-2h0a3,3,0,0,1,2,3.69h0a3,3,0,0,1-2.88,2.14h0A2.42,2.42,0,0,1,321.53,628.74Zm135.71-2.18a3,3,0,0,1,2-3.69h0a3,3,0,0,1,3.69,2h0a3,3,0,0,1-2,3.69h0a4.05,4.05,0,0,1-.84.12h0A3,3,0,0,1,457.24,626.56Zm-157.92-5.38a3,3,0,0,1-1.67-3.84h0a3,3,0,0,1,3.84-1.7h0a3,3,0,0,1,1.7,3.87h0a3,3,0,0,1-2.77,1.87h0A2.94,2.94,0,0,1,299.32,621.18Zm179.92-1.88a3,3,0,0,1,1.7-3.87h0a3,3,0,0,1,3.83,1.67h0a2.93,2.93,0,0,1-1.66,3.87h0a2.75,2.75,0,0,1-1.07.21h0A3,3,0,0,1,479.24,619.3Zm-201.32-7.74v0h0a3,3,0,0,1-1.31-4h0a3,3,0,0,1,4-1.31h0a3,3,0,0,1,1.31,4h0a3,3,0,0,1-2.65,1.61h0A2.8,2.8,0,0,1,277.92,611.56ZM500.49,610a2.93,2.93,0,0,1,1.28-4h0a3,3,0,0,1,4,1.28h0a3,3,0,0,1-1.31,4h0a3.18,3.18,0,0,1-1.34.32h0A2.92,2.92,0,0,1,500.49,610ZM257.54,600a3,3,0,0,1-.93-4.1h0a3,3,0,0,1,4.11-.92h0a3,3,0,0,1,.92,4.1h0a2.94,2.94,0,0,1-2.5,1.4h0A2.85,2.85,0,0,1,257.54,600Zm263.19-1.22a2.94,2.94,0,0,1,.92-4.07v0a3,3,0,0,1,4.11.92h0a3,3,0,0,1-.92,4.11h0a2.86,2.86,0,0,1-1.58.47h0A3,3,0,0,1,520.73,598.76Zm-282.39-12.2h0a3,3,0,0,1-.57-4.17h0a3,3,0,0,1,4.2-.53h0a3,3,0,0,1,.53,4.17h0a3,3,0,0,1-2.35,1.16h0A2.89,2.89,0,0,1,238.34,586.56Zm301.53-.86a3,3,0,0,1,.5-4.2h0a3,3,0,0,1,4.2.54h0a3,3,0,0,1-.54,4.19h0a3,3,0,0,1-1.81.63h0A3,3,0,0,1,539.87,585.7ZM220.45,571.38a3,3,0,0,1-.15-4.19h0a3,3,0,0,1,4.2-.15h0a2.92,2.92,0,0,1,.14,4.19h0a2.9,2.9,0,0,1-2.17,1h0A2.94,2.94,0,0,1,220.45,571.38Zm337.22-.51a3,3,0,0,1,.14-4.22h0a3,3,0,0,1,4.2.15h0a3,3,0,0,1-.15,4.23h0v0h0a2.88,2.88,0,0,1-2,.81h0A2.92,2.92,0,0,1,557.67,570.87ZM204.05,554.62a3,3,0,0,1,.24-4.19h0a3,3,0,0,1,4.22.24h0a3,3,0,0,1-.26,4.19h0a2.89,2.89,0,0,1-2,.75h0A3,3,0,0,1,204.05,554.62Zm370-.14a3,3,0,0,1-.24-4.23h0A3,3,0,0,1,578,550h0a3,3,0,0,1,.27,4.2h0a3.07,3.07,0,0,1-2.23,1h0A3.2,3.2,0,0,1,574,554.48ZM189.32,536.41h0a3,3,0,0,1,.62-4.17h0a3,3,0,0,1,4.17.63h0a3,3,0,0,1-.66,4.17h0a2.93,2.93,0,0,1-1.75.59h0A2.92,2.92,0,0,1,189.32,536.41Zm399.45.18a3,3,0,0,1-.63-4.17h0a3,3,0,0,1,4.17-.62h0a3,3,0,0,1,.62,4.16h0a3,3,0,0,1-2.41,1.23h0A3,3,0,0,1,588.77,536.59Zm-412.46-19.7a3,3,0,0,1,1-4.08h0a3,3,0,0,1,4.11,1h0a3,3,0,0,1-1,4.08h0a2.87,2.87,0,0,1-1.52.44h0A3,3,0,0,1,176.31,516.89Zm425.49.56a3,3,0,0,1-1-4.1h0a3,3,0,0,1,4.08-1h0a3,3,0,0,1,1,4.08h0a3,3,0,0,1-2.56,1.46h0A3.17,3.17,0,0,1,601.8,517.45ZM165.21,496.23h0a3,3,0,0,1,1.4-4h0a3,3,0,0,1,4,1.4h0a3,3,0,0,1-1.4,4h0a2.79,2.79,0,0,1-1.28.3h0A3,3,0,0,1,165.21,496.23Zm447.78.92a3,3,0,0,1-1.43-4h0a3,3,0,0,1,4-1.4h0a3,3,0,0,1,1.39,4h0a3,3,0,0,1-2.71,1.7h0A3.17,3.17,0,0,1,613,497.15ZM156.1,474.65h0a3,3,0,0,1,1.76-3.84h0a3,3,0,0,1,3.81,1.79h0a3,3,0,0,1-1.76,3.81h0a3,3,0,0,1-1,.18h0A3,3,0,0,1,156.1,474.65Zm466.09,1.22a3,3,0,0,1-1.75-3.81h0a3,3,0,0,1,3.81-1.78h0a3,3,0,0,1,1.78,3.84h0a3,3,0,0,1-2.8,1.93h0A3.21,3.21,0,0,1,622.19,475.87Zm-473.14-23.6a3,3,0,0,1,2.11-3.63h0a3,3,0,0,1,3.66,2.11h0a3,3,0,0,1-2.14,3.66h0a3.2,3.2,0,0,1-.75.09h0A3,3,0,0,1,149.05,452.27Zm480.34,1.58a3,3,0,0,1-2.14-3.63h0a3,3,0,0,1,3.63-2.12h0a3,3,0,0,1,2.11,3.64h0a2.91,2.91,0,0,1-2.85,2.2h0A3.2,3.2,0,0,1,629.39,453.85Zm-485.25-24.5h0a3,3,0,0,1,2.47-3.42h0a3,3,0,0,1,3.42,2.44h0a3,3,0,0,1-2.47,3.42h0a2.63,2.63,0,0,1-.48.06h0A3,3,0,0,1,144.14,429.35Zm490.31,1.91a3,3,0,0,1-2.47-3.42h0a3,3,0,0,1,3.43-2.48h0a3,3,0,0,1,2.44,3.43h0a3,3,0,0,1-2.92,2.5h0C634.75,431.29,634.6,431.26,634.45,431.26Zm-493-25.18a3,3,0,0,1,2.77-3.19h0a3,3,0,0,1,3.15,2.77h0a3,3,0,0,1-2.74,3.19h-.21A3,3,0,0,1,141.43,406.08Zm495.94,2.17a2.93,2.93,0,0,1-2.77-3.15h0a3,3,0,0,1,3.16-2.77h0a3,3,0,0,1,2.77,3.18h0a3,3,0,0,1-2.95,2.77h0A.44.44,0,0,1,637.37,408.25ZM143.78,385.69a3,3,0,0,1-2.92-3.07h0a3,3,0,0,1,3-2.88h0a3,3,0,0,1,2.92,3h0a3,3,0,0,1-3,2.92h-.06Zm491.3-3.48h0a3,3,0,0,1,2.88-3h0a3,3,0,0,1,3.07,2.89h0a3,3,0,0,1-2.88,3.07h-.09A3,3,0,0,1,635.08,382.21Zm-490-19.68a3,3,0,0,1-2.62-3.27h0a3,3,0,0,1,3.3-2.62h0a3,3,0,0,1,2.62,3.31h0a3,3,0,0,1-2.94,2.62h0A1.11,1.11,0,0,1,145.09,362.53Zm488.38-3.15h0a3,3,0,0,1,2.62-3.3h0a3,3,0,0,1,3.31,2.61h0v0h0a3,3,0,0,1-2.59,3.34h-.39A2.93,2.93,0,0,1,633.47,359.38Zm-484.9-19.73a3,3,0,0,1-2.29-3.55h0v0h0a3,3,0,0,1,3.51-2.33h0a3,3,0,0,1,2.29,3.54h0a2.94,2.94,0,0,1-2.88,2.36h0A2.25,2.25,0,0,1,148.57,339.65Zm481.12-2.83a3,3,0,0,1,2.29-3.54h0a3,3,0,0,1,3.55,2.29h0a3,3,0,0,1-2.3,3.54h0a4.34,4.34,0,0,1-.62.06h0A3,3,0,0,1,629.69,336.82ZM154.17,317.18a3,3,0,0,1-1.94-3.76h0a3,3,0,0,1,3.72-1.93h0a3,3,0,0,1,1.94,3.72h0a3,3,0,0,1-2.83,2.09h0A3.41,3.41,0,0,1,154.17,317.18Zm469.69-2.5a2.94,2.94,0,0,1,1.93-3.72h0a2.92,2.92,0,0,1,3.72,1.93h0a3,3,0,0,1-1.93,3.75h0a3.1,3.1,0,0,1-.9.12h0A3,3,0,0,1,623.86,314.68Zm-462-19.38a3,3,0,0,1-1.6-3.87h0a3,3,0,0,1,3.9-1.61h0a3,3,0,0,1,1.61,3.9h0a3,3,0,0,1-2.77,1.82h0A2.69,2.69,0,0,1,161.87,295.3Zm454.07-2.08a3,3,0,0,1,1.58-3.9h0a3,3,0,0,1,3.9,1.58h0a3,3,0,0,1-1.58,3.89h0a2.69,2.69,0,0,1-1.16.24h0A3,3,0,0,1,615.94,293.22ZM171.61,274.29a3,3,0,0,1-1.22-4.05h0a3,3,0,0,1,4-1.19h0a3,3,0,0,1,1.22,4h0a3,3,0,0,1-2.62,1.58h0A2.92,2.92,0,0,1,171.61,274.29ZM606,272.59a3,3,0,0,1,1.19-4h0a3,3,0,0,1,4,1.19h0a3,3,0,0,1-1.22,4.05h0a3,3,0,0,1-1.4.36h0A3,3,0,0,1,606,272.59ZM183.28,254.26a3,3,0,0,1-.87-4.11h0v0h0a3,3,0,0,1,4.14-.83h0a3,3,0,0,1,.83,4.13h0a2.93,2.93,0,0,1-2.47,1.34h0A3.05,3.05,0,0,1,183.28,254.26Zm411-1.28a2.94,2.94,0,0,1,.81-4.11h0a3,3,0,0,1,4.14.8h0a3,3,0,0,1-.84,4.14h0a3,3,0,0,1-1.64.51h0A2.94,2.94,0,0,1,594.24,253ZM196.73,235.42a3,3,0,0,1-.42-4.2h0a3,3,0,0,1,4.17-.45h0a3,3,0,0,1,.44,4.2h0a3,3,0,0,1-2.32,1.1h0A3,3,0,0,1,196.73,235.42Zm383.91-.87a3,3,0,0,1,.45-4.19h0a3,3,0,0,1,4.16.44h0a3,3,0,0,1-.41,4.2h0a3,3,0,0,1-1.88.65h0A3,3,0,0,1,580.64,234.55Zm-368.7-16.64a3,3,0,0,1-.06-4.22h0a3,3,0,0,1,4.19,0h0a3,3,0,0,1,.06,4.2h0a3,3,0,0,1-2.14.89h0A2.86,2.86,0,0,1,211.94,217.91Zm353.46-.44a2.94,2.94,0,0,1,.06-4.2h0a3,3,0,0,1,4.2,0h0a3,3,0,0,1,0,4.23h0a3,3,0,0,1-2.08.83h0A3.05,3.05,0,0,1,565.4,217.47Zm4.26-4.17Zm-341-11.4a3,3,0,0,1,.33-4.19h0a2.94,2.94,0,0,1,4.17.32h0a3,3,0,0,1-.33,4.2h0a3,3,0,0,1-1.93.72h0A3,3,0,0,1,228.66,201.9Zm320,0h0a2.93,2.93,0,0,1-.36-4.16h0a3,3,0,0,1,4.2-.36h0a3,3,0,0,1,.35,4.2h0a3,3,0,0,1-2.29,1h0A3,3,0,0,1,548.65,201.87ZM246.82,187.5a3,3,0,0,1,.74-4.14h0a3,3,0,0,1,4.14.75h0a2.94,2.94,0,0,1-.74,4.13h0a3.09,3.09,0,0,1-1.73.54h0A3,3,0,0,1,246.82,187.5Zm283.67.41a2.94,2.94,0,0,1-.71-4.13h0a3,3,0,0,1,4.13-.75h0a3,3,0,0,1,.75,4.14h0a3,3,0,0,1-2.47,1.28h0A2.85,2.85,0,0,1,530.49,187.91Zm-264.24-13a3,3,0,0,1,1.11-4h0a3,3,0,0,1,4.07,1.1h0A3,3,0,0,1,270.3,176h0a3.06,3.06,0,0,1-1.46.36h0A3,3,0,0,1,266.25,174.88Zm244.86.86h0a3,3,0,0,1-1.13-4.08h0a3,3,0,0,1,4-1.13h0a3,3,0,0,1,1.13,4.08h0a3,3,0,0,1-2.59,1.49h0A3.33,3.33,0,0,1,511.11,175.74Zm-224.35-11.6a3,3,0,0,1,1.49-4h0a3,3,0,0,1,4,1.51h0a3,3,0,0,1-1.49,3.93h0a3.13,3.13,0,0,1-1.25.27h0A3,3,0,0,1,286.76,164.14Zm203.94,1.25a3,3,0,0,1-1.49-3.93h0a3,3,0,0,1,3.93-1.49h0a3,3,0,0,1,1.52,3.93h0a3,3,0,0,1-2.74,1.75h0A3.23,3.23,0,0,1,490.7,165.39Zm-182.51-10a3,3,0,0,1,1.88-3.78h0a3,3,0,0,1,3.78,1.85h0A3,3,0,0,1,312,157.2h0a2.83,2.83,0,0,1-1,.18h0A3,3,0,0,1,308.19,155.35ZM469.42,157a3,3,0,0,1-1.88-3.78h0a3,3,0,0,1,3.78-1.84h0a3,3,0,0,1,1.85,3.77h0a3,3,0,0,1-2.8,2h0A2.53,2.53,0,0,1,469.42,157Zm-139.06-8.39a3,3,0,0,1,2.24-3.57h0a3,3,0,0,1,3.57,2.2h0a3,3,0,0,1-2.2,3.57h0a2.72,2.72,0,0,1-.69.09h0A3,3,0,0,1,330.36,148.63Zm117,2.08h0a3,3,0,0,1-2.23-3.57h0a3,3,0,0,1,3.57-2.23h0a3,3,0,0,1,2.21,3.6h0a3,3,0,0,1-2.89,2.29h0A3,3,0,0,1,447.39,150.71Zm-94.32-6.66a3,3,0,0,1,2.53-3.37h0a3,3,0,0,1,3.37,2.53h0a3,3,0,0,1-2.53,3.36h0a1.84,1.84,0,0,1-.42,0h0A3,3,0,0,1,353.07,144.05Zm71.85,2.43h0a2.92,2.92,0,0,1-2.53-3.33h0a3,3,0,0,1,3.34-2.56h0a3,3,0,0,1,2.54,3.36h0a3,3,0,0,1-3,2.57h0A1.4,1.4,0,0,1,424.92,146.48Zm-48.81-4.88a3,3,0,0,1,2.86-3.12h0a3,3,0,0,1,3.12,2.83h0a3,3,0,0,1-2.82,3.12h-.15A3,3,0,0,1,376.11,141.6Zm26,2.8a2.94,2.94,0,0,1-2.82-3.09h0a3,3,0,0,1,3.09-2.86h0a3,3,0,0,1,2.83,3.12h0a3,3,0,0,1-3,2.83h-.15Z"/>
    <path class="cls-2" d="M387.6,608.56a3.36,3.36,0,0,1,3.36-3.37h.48a3.38,3.38,0,0,1,3.36,3.34h0a3.35,3.35,0,0,1-3.33,3.36H391A3.35,3.35,0,0,1,387.6,608.56Zm-20,2.11a3.3,3.3,0,0,1-3-3.66h0a3.3,3.3,0,0,1,3.66-3h0a3.35,3.35,0,0,1,3,3.66h0a3.36,3.36,0,0,1-3.34,3h0A1.42,1.42,0,0,1,367.6,610.67Zm43.51-3a3.37,3.37,0,0,1,3-3.69h0a3.34,3.34,0,0,1,3.69,3h0a3.35,3.35,0,0,1-3,3.69h-.35A3.36,3.36,0,0,1,411.11,607.66Zm-66.61-.59a3.37,3.37,0,0,1-2.59-4h0a3.35,3.35,0,0,1,4-2.59h0a3.36,3.36,0,0,1,2.59,4h0a3.34,3.34,0,0,1-3.27,2.65h0A5.36,5.36,0,0,1,344.5,607.07Zm89.44-2.68a3.32,3.32,0,0,1,2.56-4h0a3.37,3.37,0,0,1,4,2.59h0a3.36,3.36,0,0,1-2.59,4h0a2.89,2.89,0,0,1-.68.09h0A3.34,3.34,0,0,1,433.94,604.39ZM321.88,601h0a3.37,3.37,0,0,1-2.14-4.23h0a3.32,3.32,0,0,1,4.22-2.14h0a3.32,3.32,0,0,1,2.15,4.19h0a3.35,3.35,0,0,1-3.19,2.33h0A4.75,4.75,0,0,1,321.88,601Zm134.38-2.3a3.35,3.35,0,0,1,2.14-4.22h0a3.33,3.33,0,0,1,4.23,2.14h0a3.37,3.37,0,0,1-2.14,4.23h0a4,4,0,0,1-1,.15h0A3.39,3.39,0,0,1,456.26,598.73ZM300,592.63a3.37,3.37,0,0,1-1.69-4.43h0a3.37,3.37,0,0,1,4.43-1.7h0a3.38,3.38,0,0,1,1.7,4.44h0a3.36,3.36,0,0,1-3.07,2h0A3.8,3.8,0,0,1,300,592.63Zm177.87-1.87a3.36,3.36,0,0,1,1.67-4.44h0A3.35,3.35,0,0,1,484,588h0a3.35,3.35,0,0,1-1.7,4.43h0a3.1,3.1,0,0,1-1.36.3h0A3.32,3.32,0,0,1,477.9,590.76ZM279.2,582v0h0a3.33,3.33,0,0,1-1.22-4.56h0a3.33,3.33,0,0,1,4.58-1.22h0a3.34,3.34,0,0,1,1.22,4.56h0a3.38,3.38,0,0,1-2.91,1.69h0A3.39,3.39,0,0,1,279.2,582Zm219.35-1.46a3.36,3.36,0,0,1,1.23-4.59h0a3.33,3.33,0,0,1,4.55,1.22h0a3.32,3.32,0,0,1-1.19,4.56h0a3.25,3.25,0,0,1-1.7.48h0A3.34,3.34,0,0,1,498.55,580.55Zm-239-11.31a3.37,3.37,0,0,1-.75-4.67h0a3.32,3.32,0,0,1,4.68-.75h0a3.33,3.33,0,0,1,.74,4.67h0a3.32,3.32,0,0,1-2.71,1.37h0A3.37,3.37,0,0,1,259.59,569.24Zm258.43-1a3.33,3.33,0,0,1,.74-4.68h0a3.34,3.34,0,0,1,4.68.72h0a3.4,3.4,0,0,1-.75,4.7h0a3.39,3.39,0,0,1-2,.63h0A3.35,3.35,0,0,1,518,568.23ZM241.4,554.51a3.35,3.35,0,0,1-.23-4.74h0a3.35,3.35,0,0,1,4.73-.24h0a3.32,3.32,0,0,1,.24,4.71h0a3.36,3.36,0,0,1-2.5,1.13h0A3.5,3.5,0,0,1,241.4,554.51ZM536.12,554a3.35,3.35,0,0,1,.23-4.73h0a3.35,3.35,0,0,1,4.74.24h0a3.37,3.37,0,0,1-.24,4.73h0a3.45,3.45,0,0,1-2.26.86h0A3.35,3.35,0,0,1,536.12,554ZM224.88,538a3.34,3.34,0,0,1,.24-4.73h0a3.32,3.32,0,0,1,4.7.26h0a3.36,3.36,0,0,1-.23,4.74h0a3.35,3.35,0,0,1-2.24.83h0A3.26,3.26,0,0,1,224.88,538Zm327.75-.09a3.38,3.38,0,0,1-.26-4.73h0a3.34,3.34,0,0,1,4.73-.24h0a3.37,3.37,0,0,1,.27,4.73h0a3.37,3.37,0,0,1-2.5,1.1h0A3.23,3.23,0,0,1,552.63,537.87ZM210.12,519.8a3.37,3.37,0,0,1,.74-4.67h0a3.34,3.34,0,0,1,4.68.72h0a3.34,3.34,0,0,1-.75,4.7h0a3.42,3.42,0,0,1-2,.62h0A3.38,3.38,0,0,1,210.12,519.8Zm357.25.36a3.36,3.36,0,0,1-.75-4.67h0a3.41,3.41,0,0,1,4.71-.75h0a3.38,3.38,0,0,1,.74,4.67h0a3.39,3.39,0,0,1-2.74,1.41h0A3.22,3.22,0,0,1,567.37,520.16Zm-370-20a3.29,3.29,0,0,1,1.22-4.55h0a3.32,3.32,0,0,1,4.56,1.22h0a3.33,3.33,0,0,1-1.22,4.55h0a3.07,3.07,0,0,1-1.67.45h0A3.3,3.3,0,0,1,197.38,500.19Zm382.81.83a3.37,3.37,0,0,1-1.21-4.58h0a3.35,3.35,0,0,1,4.58-1.22h0a3.37,3.37,0,0,1,1.22,4.58h0a3.38,3.38,0,0,1-2.89,1.67h0A3.46,3.46,0,0,1,580.19,501ZM186.73,479.35v0h0a3.36,3.36,0,0,1,1.69-4.44h0a3.38,3.38,0,0,1,4.44,1.7h0a3.39,3.39,0,0,1-1.7,4.43h0a3.67,3.67,0,0,1-1.37.27h0A3.35,3.35,0,0,1,186.73,479.35ZM591,480.64a3.32,3.32,0,0,1-1.7-4.41h0a3.35,3.35,0,0,1,4.41-1.73h0a3.37,3.37,0,0,1,1.7,4.44h0a3.35,3.35,0,0,1-3.07,2h0A3.8,3.8,0,0,1,591,480.64Zm-412.64-23.1h0a3.37,3.37,0,0,1,2.15-4.23h0a3.36,3.36,0,0,1,4.22,2.15h0a3.34,3.34,0,0,1-2.14,4.22h0a3.3,3.3,0,0,1-1,.18h0A3.38,3.38,0,0,1,178.33,457.54Zm421.18,1.69a3.35,3.35,0,0,1-2.14-4.22h0a3.32,3.32,0,0,1,4.2-2.14h0a3.32,3.32,0,0,1,2.17,4.19h0a3.37,3.37,0,0,1-3.19,2.32h0A3.16,3.16,0,0,1,599.51,459.23ZM172.29,435a3.38,3.38,0,0,1,2.56-4h0a3.36,3.36,0,0,1,4,2.59h0a3.33,3.33,0,0,1-2.59,4h0a2.89,2.89,0,0,1-.68.09h0A3.34,3.34,0,0,1,172.29,435Zm433.47,2.11a3.37,3.37,0,0,1-2.59-4h0a3.36,3.36,0,0,1,4-2.59h0a3.35,3.35,0,0,1,2.59,4h0a3.42,3.42,0,0,1-3.3,2.68h0A5.86,5.86,0,0,1,605.76,437.06ZM168.63,411.82h0a3.35,3.35,0,0,1,3-3.66h0a3.32,3.32,0,0,1,3.66,3h0a3.32,3.32,0,0,1-3,3.66h0a1.38,1.38,0,0,1-.35,0h0A3.36,3.36,0,0,1,168.63,411.82Zm441,2.5a3.33,3.33,0,0,1-3-3.66h0a3.39,3.39,0,0,1,3.69-3h0a3.37,3.37,0,0,1,3,3.7h0a3.36,3.36,0,0,1-3.33,3h0A1.35,1.35,0,0,1,609.66,414.32ZM167.41,388.49a3.35,3.35,0,0,1,3.36-3.36h0a3.32,3.32,0,0,1,3.34,3.33h0a3.34,3.34,0,0,1-3.34,3.36h0A3.35,3.35,0,0,1,167.41,388.49ZM607.79,388a3.33,3.33,0,0,1,3.36-3.33h0a3.31,3.31,0,0,1,3.33,3.33h0a3.34,3.34,0,0,1-3.33,3.37h0A3.38,3.38,0,0,1,607.79,388Zm-433.68.48h0v0Zm-2.5-19.67a3.35,3.35,0,0,1-3-3.67h0a3.35,3.35,0,0,1,3.69-3h0a3.3,3.3,0,0,1,3,3.66h0a3.34,3.34,0,0,1-3.3,3h0A2.17,2.17,0,0,1,171.61,368.79Zm435-3.46a3.36,3.36,0,0,1,3-3.69h0a3.38,3.38,0,0,1,3.69,3h0a3.37,3.37,0,0,1-3,3.69h0a1.46,1.46,0,0,1-.36,0h0A3.36,3.36,0,0,1,606.59,365.33ZM174.82,346a3.38,3.38,0,0,1-2.59-4h0a3.35,3.35,0,0,1,4-2.56h0a3.31,3.31,0,0,1,2.59,4h0a3.33,3.33,0,0,1-3.27,2.64h0A5.34,5.34,0,0,1,174.82,346ZM603,342.92h0a3.36,3.36,0,0,1,2.58-4h0a3.32,3.32,0,0,1,4,2.56h0a3.34,3.34,0,0,1-2.56,4h0a5.67,5.67,0,0,1-.71.06h0A3.35,3.35,0,0,1,603,342.92ZM180.42,323.64a3.4,3.4,0,0,1-2.18-4.23h0a3.4,3.4,0,0,1,4.23-2.18h0a3.36,3.36,0,0,1,2.15,4.23h0a3.32,3.32,0,0,1-3.19,2.32h0A4.31,4.31,0,0,1,180.42,323.64ZM597.13,321a3.36,3.36,0,0,1,2.14-4.23h0a3.36,3.36,0,0,1,4.23,2.14h0a3.35,3.35,0,0,1-2.14,4.23h0a3.21,3.21,0,0,1-1,.18h0A3.43,3.43,0,0,1,597.13,321ZM188.34,302a3.34,3.34,0,0,1-1.7-4.41h0v0h0a3.35,3.35,0,0,1,4.4-1.69h0a3.34,3.34,0,0,1,1.7,4.43h0a3.3,3.3,0,0,1-3,2h0A3.1,3.1,0,0,1,188.34,302ZM589,299.85a3.33,3.33,0,0,1,1.7-4.43h0a3.34,3.34,0,0,1,4.41,1.7h0a3.34,3.34,0,0,1-1.67,4.4h0a3.23,3.23,0,0,1-1.37.3h0A3.41,3.41,0,0,1,589,299.85ZM198.48,281.28a3.36,3.36,0,0,1-1.22-4.58h0a3.35,3.35,0,0,1,4.59-1.22h0a3.38,3.38,0,0,1,1.22,4.58h0a3.39,3.39,0,0,1-2.92,1.67h0A3.41,3.41,0,0,1,198.48,281.28Zm380.14-1.64a3.31,3.31,0,0,1,1.22-4.55h0a3.34,3.34,0,0,1,4.58,1.19h0a3.36,3.36,0,0,1-1.22,4.59h0a3.19,3.19,0,0,1-1.67.44h0A3.34,3.34,0,0,1,578.62,279.64ZM210.75,261.76a3.37,3.37,0,0,1-.75-4.68h0a3.38,3.38,0,0,1,4.68-.74h0a3.35,3.35,0,0,1,.74,4.67h0a3.3,3.3,0,0,1-2.71,1.4h0A3.27,3.27,0,0,1,210.75,261.76Zm355.49-1.1h0A3.34,3.34,0,0,1,567,256h0a3.33,3.33,0,0,1,4.67.72h0a3.37,3.37,0,0,1-.71,4.7h0a3.4,3.4,0,0,1-2,.62h0A3.33,3.33,0,0,1,566.24,260.66ZM225,243.63a3.34,3.34,0,0,1-.24-4.73h0a3.35,3.35,0,0,1,4.74-.24h0a3.33,3.33,0,0,1,.24,4.7v0a3.41,3.41,0,0,1-2.5,1.11h0A3.4,3.4,0,0,1,225,243.63ZM551.92,243a3.35,3.35,0,0,1,.24-4.74h0a3.37,3.37,0,0,1,4.73.24h0a3.37,3.37,0,0,1-.24,4.73h0a3.3,3.3,0,0,1-2.26.87h0A3.31,3.31,0,0,1,551.92,243ZM241,227.08a3.34,3.34,0,0,1,.24-4.73h0a3.36,3.36,0,0,1,4.74.24h0a3.34,3.34,0,0,1-.24,4.73h0a3.46,3.46,0,0,1-2.27.86h0A3.38,3.38,0,0,1,241,227.08ZM535.85,227a3.34,3.34,0,0,1-.27-4.73h0a3.37,3.37,0,0,1,4.73-.27h0a3.38,3.38,0,0,1,.27,4.74h0a3.39,3.39,0,0,1-2.5,1.13h0A3.31,3.31,0,0,1,535.85,227ZM258.67,212.29a3.35,3.35,0,0,1,.74-4.67h0a3.33,3.33,0,0,1,4.67.71h0a3.34,3.34,0,0,1-.71,4.68h0a3.3,3.3,0,0,1-2,.65h0A3.37,3.37,0,0,1,258.67,212.29Zm259.53.45a3.31,3.31,0,0,1-.74-4.68h0a3.37,3.37,0,0,1,4.67-.74h0a3.36,3.36,0,0,1,.74,4.67h0a3.26,3.26,0,0,1-2.71,1.4h0A3.27,3.27,0,0,1,518.2,212.74ZM277.8,199.4a3.35,3.35,0,0,1,1.19-4.58h0a3.36,3.36,0,0,1,4.59,1.22h0a3.36,3.36,0,0,1-1.22,4.58h0a3.41,3.41,0,0,1-1.67.45h0A3.28,3.28,0,0,1,277.8,199.4Zm221.35,1h0a3.33,3.33,0,0,1-1.22-4.56h0a3.36,3.36,0,0,1,4.58-1.25h0a3.38,3.38,0,0,1,1.22,4.59h0a3.35,3.35,0,0,1-2.91,1.66h0A3.5,3.5,0,0,1,499.15,200.39Zm-201-11.79a3.38,3.38,0,0,1,1.7-4.44h0a3.37,3.37,0,0,1,4.43,1.7h0a3.37,3.37,0,0,1-1.69,4.44h0a3.41,3.41,0,0,1-1.37.29h0A3.38,3.38,0,0,1,298.13,188.6Zm180.81,1.49a3.34,3.34,0,0,1-1.72-4.41h0a3.36,3.36,0,0,1,4.43-1.69h0a3.32,3.32,0,0,1,1.7,4.4h0a3.38,3.38,0,0,1-3.07,2h0A3,3,0,0,1,478.94,190.09ZM319.53,180a3.33,3.33,0,0,1,2.12-4.23h0a3.32,3.32,0,0,1,4.22,2.15h0a3.34,3.34,0,0,1-2.14,4.22h0a4,4,0,0,1-1,.15h0A3.32,3.32,0,0,1,319.53,180Zm138.19,2h0a3.34,3.34,0,0,1-2.17-4.22h0a3.34,3.34,0,0,1,4.22-2.15h0a3.33,3.33,0,0,1,2.15,4.2h0a3.32,3.32,0,0,1-3.19,2.32h0A3.27,3.27,0,0,1,457.72,182Zm-116-8.3a3.37,3.37,0,0,1,2.59-4h0a3.34,3.34,0,0,1,4,2.59h0a3.35,3.35,0,0,1-2.56,4h0a2.48,2.48,0,0,1-.68.09h0A3.37,3.37,0,0,1,341.67,173.69Zm94.14,2.47a3.36,3.36,0,0,1-2.59-4h0a3.32,3.32,0,0,1,4-2.59h0a3.31,3.31,0,0,1,2.59,4h0a3.32,3.32,0,0,1-3.27,2.65h0A4.92,4.92,0,0,1,435.81,176.16Zm-71.43-6.43a3.35,3.35,0,0,1,3-3.69h0a3.39,3.39,0,0,1,3.69,3h0a3.37,3.37,0,0,1-3,3.67h0l-.36,0h0A3.35,3.35,0,0,1,364.38,169.73Zm49,2.92h0a3.3,3.3,0,0,1-3-3.66h0a3.31,3.31,0,0,1,3.66-3h0a3.34,3.34,0,0,1,3,3.66h0a3.33,3.33,0,0,1-3.33,3h0A2.17,2.17,0,0,1,413.37,172.65Zm-26-4.47a3.34,3.34,0,0,1,3.33-3.36h0a3.33,3.33,0,0,1,3.33,3.33h0a3.34,3.34,0,0,1-3.33,3.37h0A3.36,3.36,0,0,1,387.36,168.18Z"/>
    <path class="cls-2" d="M391.26,585.25a1,1,0,0,1-.3,0h0a3.73,3.73,0,0,1-3.72-3.72h0a3.73,3.73,0,0,1,3.72-3.72h.57a3.7,3.7,0,0,1,3.72,3.69h0a3.72,3.72,0,0,1-3.69,3.75h0A.92.92,0,0,1,391.26,585.25Zm-23.57-1.34a3.72,3.72,0,0,1-3.28-4.14h0a3.74,3.74,0,0,1,4.14-3.24h0a3.72,3.72,0,0,1,3.27,4.14h0a3.75,3.75,0,0,1-3.72,3.27h0A1.89,1.89,0,0,1,367.69,583.91Zm43-3.3a3.77,3.77,0,0,1,3.28-4.17h0a3.76,3.76,0,0,1,4.14,3.28h0a3.76,3.76,0,0,1-3.25,4.13h0c-.15,0-.29,0-.45,0h0A3.76,3.76,0,0,1,410.66,580.61Zm-66-.81v0h0a3.76,3.76,0,0,1-2.74-4.5h0a3.74,3.74,0,0,1,4.5-2.77h0a3.76,3.76,0,0,1,2.74,4.5h0a3.75,3.75,0,0,1-3.61,2.85h0A3,3,0,0,1,344.71,579.8ZM433.29,577a3.69,3.69,0,0,1,2.7-4.5h0a3.76,3.76,0,0,1,4.5,2.74h0a3.75,3.75,0,0,1-2.74,4.49h0a3.9,3.9,0,0,1-.89.09h0A3.7,3.7,0,0,1,433.29,577ZM322.39,573a3.67,3.67,0,0,1-2.17-4.79h0A3.7,3.7,0,0,1,325,566h0a3.74,3.74,0,0,1,2.2,4.8h0a3.76,3.76,0,0,1-3.48,2.44h0A4,4,0,0,1,322.39,573Zm132.89-2.38a3.7,3.7,0,0,1,2.17-4.79h0a3.72,3.72,0,0,1,4.79,2.17h0a3.72,3.72,0,0,1-2.17,4.79h0a4.18,4.18,0,0,1-1.31.24h0A3.68,3.68,0,0,1,455.28,570.64Zm-154.23-7a3.68,3.68,0,0,1-1.61-5h0a3.73,3.73,0,0,1,5-1.6h0a3.69,3.69,0,0,1,1.61,5h0a3.68,3.68,0,0,1-3.31,2h0A3.54,3.54,0,0,1,301.05,563.59Zm175.3-1.85a3.77,3.77,0,0,1,1.61-5h0a3.73,3.73,0,0,1,5,1.61h0a3.73,3.73,0,0,1-1.58,5h0a3.93,3.93,0,0,1-1.69.41h0A3.78,3.78,0,0,1,476.35,561.74ZM281,551.71a3.68,3.68,0,0,1-1-5.15h0a3.66,3.66,0,0,1,5.14-1h0a3.76,3.76,0,0,1,1,5.18h0a3.84,3.84,0,0,1-3.1,1.63h0A3.7,3.7,0,0,1,281,551.71Zm215.27-1.28a3.73,3.73,0,0,1,1-5.18h0a3.73,3.73,0,0,1,5.17,1h0a3.73,3.73,0,0,1-1,5.18h0a3.6,3.6,0,0,1-2.08.63h0A3.78,3.78,0,0,1,496.23,550.43ZM262.44,537.54v0h0a3.74,3.74,0,0,1-.41-5.27h0a3.76,3.76,0,0,1,5.27-.38h0a3.73,3.73,0,0,1,.38,5.24h0a3.71,3.71,0,0,1-2.82,1.3h0A3.54,3.54,0,0,1,262.44,537.54Zm252.22-.71a3.7,3.7,0,0,1,.35-5.24h0a3.73,3.73,0,0,1,5.27.36h0a3.72,3.72,0,0,1-.39,5.24h0v0h0a3.75,3.75,0,0,1-2.43.9h0A3.69,3.69,0,0,1,514.66,536.83Zm-269-15.51h0a3.75,3.75,0,0,1,.24-5.27h0a3.67,3.67,0,0,1,5.23.24h0a3.69,3.69,0,0,1-.2,5.24h0a3.74,3.74,0,0,1-2.53,1h0A3.72,3.72,0,0,1,245.69,521.32Zm285.63-.18a3.69,3.69,0,0,1-.23-5.24h0a3.72,3.72,0,0,1,5.26-.23h0a3.7,3.7,0,0,1,.24,5.23h0a3.73,3.73,0,0,1-2.76,1.22h0A3.68,3.68,0,0,1,531.32,521.14ZM231,503.22h0a3.76,3.76,0,0,1,.83-5.2h0a3.74,3.74,0,0,1,5.21.86h0a3.71,3.71,0,0,1-.87,5.18h0a3.64,3.64,0,0,1-2.14.71h0A3.68,3.68,0,0,1,231,503.22Zm315.07.42a3.76,3.76,0,0,1-.87-5.21h0a3.72,3.72,0,0,1,5.18-.86h0a3.73,3.73,0,0,1,.9,5.21h0a3.74,3.74,0,0,1-3,1.55h0A3.76,3.76,0,0,1,546.06,503.64ZM218.51,483.52a3.69,3.69,0,0,1,1.46-5.06h0a3.73,3.73,0,0,1,5.06,1.46h0a3.75,3.75,0,0,1-1.46,5.06h0a3.82,3.82,0,0,1-1.78.45h0A3.77,3.77,0,0,1,218.51,483.52Zm340.11,1a3.7,3.7,0,0,1-1.46-5.06h0a3.67,3.67,0,0,1,5-1.46h0a3.72,3.72,0,0,1,1.49,5h0A3.73,3.73,0,0,1,560.4,485h0A3.82,3.82,0,0,1,558.62,484.5Zm-350.16-22h0a3.71,3.71,0,0,1,2-4.85h0a3.72,3.72,0,0,1,4.85,2.05h0a3.73,3.73,0,0,1-2.05,4.85h0a3.79,3.79,0,0,1-1.4.27h0A3.71,3.71,0,0,1,208.46,462.48ZM568.83,464a3.74,3.74,0,0,1-2.06-4.86h0a3.72,3.72,0,0,1,4.85-2.05h0a3.73,3.73,0,0,1,2.06,4.85h0a3.79,3.79,0,0,1-3.46,2.33h0A3.7,3.7,0,0,1,568.83,464ZM201,440.39h0a3.74,3.74,0,0,1,2.61-4.58h0a3.73,3.73,0,0,1,4.56,2.62h0a3.7,3.7,0,0,1-2.62,4.55h0a3.77,3.77,0,0,1-1,.15h0A3.7,3.7,0,0,1,201,440.39Zm375.54,2a3.67,3.67,0,0,1-2.61-4.55h0a3.69,3.69,0,0,1,4.55-2.62h0a3.74,3.74,0,0,1,2.62,4.55h0a3.75,3.75,0,0,1-3.6,2.77h0A3.75,3.75,0,0,1,576.53,442.42ZM196.19,417.57h0a3.73,3.73,0,0,1,3.13-4.23h0a3.72,3.72,0,0,1,4.22,3.12h0a3.71,3.71,0,0,1-3.12,4.23h0a3.32,3.32,0,0,1-.57.06h0A3.72,3.72,0,0,1,196.19,417.57Zm385.41,2.56a3.75,3.75,0,0,1-3.16-4.23h0a3.75,3.75,0,0,1,4.22-3.16h0a3.75,3.75,0,0,1,3.16,4.23h0a3.74,3.74,0,0,1-3.69,3.19h0A3.08,3.08,0,0,1,581.6,420.13ZM194.11,394.35a3.75,3.75,0,0,1,3.63-3.84h0a3.7,3.7,0,0,1,3.81,3.6h0A3.72,3.72,0,0,1,198,398h-.12A3.75,3.75,0,0,1,194.11,394.35Zm389.87,3a3.7,3.7,0,0,1-3.61-3.81h0a3.71,3.71,0,0,1,3.81-3.63h0a3.73,3.73,0,0,1,3.64,3.81h0a3.76,3.76,0,0,1-3.73,3.63H584Zm-385.82-22.3a3.69,3.69,0,0,1-3.37-4h0a3.71,3.71,0,0,1,4-3.4h0a3.71,3.71,0,0,1,3.39,4h0a3.71,3.71,0,0,1-3.72,3.39h-.32Zm381.5-3.95a3.73,3.73,0,0,1,3.36-4.05h0a3.73,3.73,0,0,1,4.05,3.36h0a3.71,3.71,0,0,1-3.36,4.05h0c-.12,0-.24,0-.33,0h0A3.73,3.73,0,0,1,579.66,371.11ZM201.07,352.35a3.7,3.7,0,0,1-2.88-4.4h0a3.74,3.74,0,0,1,4.4-2.89h0a3.77,3.77,0,0,1,2.89,4.41h0a3.77,3.77,0,0,1-3.63,3h0A2.83,2.83,0,0,1,201.07,352.35Zm375.26-3.45h0a3.72,3.72,0,0,1,2.85-4.4h0a3.76,3.76,0,0,1,4.44,2.88h0a3.76,3.76,0,0,1-2.89,4.41h0a3.21,3.21,0,0,1-.77.06h0A3.68,3.68,0,0,1,576.33,348.9ZM206.64,330.15a3.75,3.75,0,0,1-2.35-4.73h0A3.73,3.73,0,0,1,209,323.1h0a3.71,3.71,0,0,1,2.32,4.7h0a3.69,3.69,0,0,1-3.51,2.53h0A4.09,4.09,0,0,1,206.64,330.15Zm363.73-2.88h0a3.73,3.73,0,0,1,2.33-4.71h0a3.7,3.7,0,0,1,4.73,2.32h0a3.73,3.73,0,0,1-2.33,4.71h0a3.26,3.26,0,0,1-1.18.2h0A3.78,3.78,0,0,1,570.37,327.27ZM214.82,308.75a3.67,3.67,0,0,1-1.75-4.94h0a3.66,3.66,0,0,1,4.94-1.75h0a3.66,3.66,0,0,1,1.75,4.94h0a3.68,3.68,0,0,1-3.33,2.11h0A3.44,3.44,0,0,1,214.82,308.75Zm347.07-2.26a3.7,3.7,0,0,1,1.76-4.94h0a3.73,3.73,0,0,1,5,1.73h0a3.77,3.77,0,0,1-1.76,5h0a3.88,3.88,0,0,1-1.61.36h0A3.74,3.74,0,0,1,561.89,306.49Zm-336.41-18a3.76,3.76,0,0,1-1.16-5.16h0a3.74,3.74,0,0,1,5.15-1.15h0a3.73,3.73,0,0,1,1.13,5.14h0a3.82,3.82,0,0,1-3.16,1.73h0A3.8,3.8,0,0,1,225.48,288.52ZM551,286.88h0a3.7,3.7,0,0,1,1.13-5.12h0a3.71,3.71,0,0,1,5.12,1.13h0a3.75,3.75,0,0,1-1.16,5.15h0a3.83,3.83,0,0,1-2,.56h0A3.62,3.62,0,0,1,551,286.88ZM238.46,269.64a3.71,3.71,0,0,1-.54-5.23h0a3.73,3.73,0,0,1,5.24-.54h0a3.72,3.72,0,0,1,.53,5.24h0a3.76,3.76,0,0,1-2.88,1.37h0A3.63,3.63,0,0,1,238.46,269.64Zm299.41-.95a3.76,3.76,0,0,1,.54-5.24h0a3.7,3.7,0,0,1,5.24.54h0a3.7,3.7,0,0,1-.54,5.24h0a3.69,3.69,0,0,1-2.35.83h0A3.76,3.76,0,0,1,537.87,268.69ZM253.58,252.47a3.75,3.75,0,0,1,0-5.27h0a3.71,3.71,0,0,1,5.24.06h0a3.75,3.75,0,0,1-.06,5.27h0a3.64,3.64,0,0,1-2.59,1h0A3.64,3.64,0,0,1,253.58,252.47Zm269.11-.3h0a3.74,3.74,0,0,1-.09-5.27h0a3.74,3.74,0,0,1,5.27-.09h0a3.75,3.75,0,0,1,.09,5.27h0a3.73,3.73,0,0,1-2.68,1.14h0A3.78,3.78,0,0,1,522.69,252.17Zm-252.09-15a3.74,3.74,0,0,1,.69-5.24h0a3.74,3.74,0,0,1,5.23.72h0a3.74,3.74,0,0,1-.71,5.21h0a3.76,3.76,0,0,1-2.26.77h0A3.76,3.76,0,0,1,270.6,237.17Zm235.07.36a3.7,3.7,0,0,1-.69-5.21h0a3.71,3.71,0,0,1,5.21-.71h0a3.7,3.7,0,0,1,.69,5.21h0a3.62,3.62,0,0,1-2.95,1.48h0A3.74,3.74,0,0,1,505.67,237.53ZM289.29,224a3.72,3.72,0,0,1,1.31-5.09h0a3.69,3.69,0,0,1,5.09,1.28h0a3.69,3.69,0,0,1-1.28,5.09h0a3.76,3.76,0,0,1-1.9.53h0A3.77,3.77,0,0,1,289.29,224ZM487,225h0a3.72,3.72,0,0,1-1.31-5.09h0a3.73,3.73,0,0,1,5.09-1.31h0a3.68,3.68,0,0,1,1.31,5.09h0a3.7,3.7,0,0,1-3.19,1.85h0A3.65,3.65,0,0,1,487,225Zm-177.6-11.91a3.7,3.7,0,0,1,1.87-4.91h0a3.74,3.74,0,0,1,4.92,1.91h0a3.71,3.71,0,0,1-1.91,4.91h0a3.66,3.66,0,0,1-1.48.33h0A3.7,3.7,0,0,1,309.44,213.09Zm157.63,1.67h0a3.69,3.69,0,0,1-1.91-4.88h0A3.68,3.68,0,0,1,470,208h0a3.7,3.7,0,0,1,1.94,4.88h0a3.76,3.76,0,0,1-3.43,2.24h0A3.66,3.66,0,0,1,467.07,214.76ZM330.72,204.7a3.68,3.68,0,0,1,2.47-4.64h0a3.69,3.69,0,0,1,4.64,2.44h0a3.75,3.75,0,0,1-2.47,4.67h0a4.56,4.56,0,0,1-1.1.15h0A3.73,3.73,0,0,1,330.72,204.7ZM446,207a3.72,3.72,0,0,1-2.47-4.64h0a3.71,3.71,0,0,1,4.65-2.47h0a3.7,3.7,0,0,1,2.47,4.61h0a3.7,3.7,0,0,1-3.55,2.65h0A4.91,4.91,0,0,1,446,207Zm-93.15-8.12a3.72,3.72,0,0,1,3-4.32h0a3.72,3.72,0,0,1,4.32,3h0a3.7,3.7,0,0,1-3,4.31h0a5.2,5.2,0,0,1-.68.06h0A3.71,3.71,0,0,1,352.84,198.87Zm71.34,2.91a3.71,3.71,0,0,1-3-4.31h0a3.74,3.74,0,0,1,4.32-3h0a3.73,3.73,0,0,1,3,4.32h0a3.69,3.69,0,0,1-3.66,3.06h0A4.86,4.86,0,0,1,424.18,201.78Zm-48.66-6.07a3.69,3.69,0,0,1,3.48-3.92h0a3.77,3.77,0,0,1,4,3.48h0a3.8,3.8,0,0,1-3.52,4h-.2A3.71,3.71,0,0,1,375.52,195.71Zm26.37,3.46a3.7,3.7,0,0,1-3.49-3.9h0a3.73,3.73,0,0,1,3.93-3.52h0a3.72,3.72,0,0,1,3.51,3.93h0a3.73,3.73,0,0,1-3.72,3.51h0A.75.75,0,0,1,401.89,199.17Z"/>
    <path class="cls-2" d="M391.29,558.64a1.23,1.23,0,0,1-.33,0h0a4.11,4.11,0,0,1-4.11-4.1h0a4.09,4.09,0,0,1,4.11-4.08h.63a4.07,4.07,0,0,1,4.11,4h0a4.13,4.13,0,0,1-4.08,4.13h0A1.23,1.23,0,0,1,391.29,558.64Zm-23.51-1.54h0a4.14,4.14,0,0,1-3.52-4.62h0a4.09,4.09,0,0,1,4.62-3.48h0a4.06,4.06,0,0,1,3.51,4.58h0a4.1,4.1,0,0,1-4.05,3.55h0A3.63,3.63,0,0,1,367.78,557.1Zm42.38-3.57a4.1,4.1,0,0,1,3.48-4.62h0a4.11,4.11,0,0,1,4.64,3.48h0A4.11,4.11,0,0,1,414.8,557h0a3.32,3.32,0,0,1-.56,0h0A4.09,4.09,0,0,1,410.16,553.53ZM345,552.39a4.1,4.1,0,0,1-2.86-5h0a4.14,4.14,0,0,1,5.06-2.85h0a4.1,4.1,0,0,1,2.83,5.06h0a4.1,4.1,0,0,1-3.93,3h0A3.44,3.44,0,0,1,345,552.39Zm87.41-3a4.09,4.09,0,0,1,2.83-5h0a4.08,4.08,0,0,1,5.06,2.79h0a4.1,4.1,0,0,1-2.83,5.06h0a3.48,3.48,0,0,1-1.1.15h0A4.14,4.14,0,0,1,432.45,549.39Zm-109.32-4.76a4.12,4.12,0,0,1-2.14-5.39h0a4.11,4.11,0,0,1,5.39-2.15v0a4.11,4.11,0,0,1,2.14,5.39h0a4.15,4.15,0,0,1-3.78,2.44h0A4.48,4.48,0,0,1,323.13,544.63ZM454,542.25a4.09,4.09,0,0,1,2.08-5.39h0A4.11,4.11,0,0,1,461.5,539h0a4.11,4.11,0,0,1-2.11,5.39h0a4,4,0,0,1-1.64.32h0A4,4,0,0,1,454,542.25Zm-151.52-8.34a4.09,4.09,0,0,1-1.34-5.62h0a4,4,0,0,1,5.59-1.37h0a4.07,4.07,0,0,1,1.37,5.62h0a4,4,0,0,1-3.48,2h0A4,4,0,0,1,302.48,533.91Zm171.85-1.67a4.09,4.09,0,0,1,1.34-5.62h0a4.06,4.06,0,0,1,5.62,1.34h0a4.06,4.06,0,0,1-1.34,5.62h0a3.9,3.9,0,0,1-2.14.6h0A4.08,4.08,0,0,1,474.33,532.24ZM283.52,520.49h0a4.08,4.08,0,0,1-.6-5.75h0a4.08,4.08,0,0,1,5.75-.59h0a4.13,4.13,0,0,1,.56,5.77h0a4,4,0,0,1-3.15,1.49h0A4,4,0,0,1,283.52,520.49Zm209.59-1a4.09,4.09,0,0,1,.57-5.74h0a4.1,4.1,0,0,1,5.77.57h0a4.13,4.13,0,0,1-.57,5.77h0a4.13,4.13,0,0,1-2.59.92h0A4.1,4.1,0,0,1,493.11,519.53ZM266.52,504.65a4.1,4.1,0,0,1,.21-5.8h0a4.11,4.11,0,0,1,5.77.21h0a4.09,4.09,0,0,1-.17,5.77h0a4.11,4.11,0,0,1-2.8,1.1h0A4.07,4.07,0,0,1,266.52,504.65Zm243.5-.23a4.07,4.07,0,0,1-.21-5.78h0a4.07,4.07,0,0,1,5.77-.21h0a4.06,4.06,0,0,1,.21,5.78h0a4.12,4.12,0,0,1-3,1.31h0A4,4,0,0,1,510,504.42ZM251.85,486.65a4.11,4.11,0,0,1,1-5.72h0a4.11,4.11,0,0,1,5.72,1h0a4.13,4.13,0,0,1-1,5.72h0a4.11,4.11,0,0,1-2.38.74h0A4.05,4.05,0,0,1,251.85,486.65Zm272.87.47a4.09,4.09,0,0,1-1-5.68h0a4.09,4.09,0,0,1,5.71-1h0a4.05,4.05,0,0,1,1,5.68h0a4,4,0,0,1-3.33,1.73h0A4,4,0,0,1,524.72,487.12Zm-285-20.3h0a4.12,4.12,0,0,1,1.73-5.53h0A4.13,4.13,0,0,1,247,463h0a4.07,4.07,0,0,1-1.76,5.51h0a3.86,3.86,0,0,1-1.87.48h0A4.09,4.09,0,0,1,239.76,466.82ZM536.92,468a4.1,4.1,0,0,1-1.76-5.51h0a4.08,4.08,0,0,1,5.51-1.76h0a4.1,4.1,0,0,1,1.79,5.51h0a4.15,4.15,0,0,1-3.66,2.2h0A4.32,4.32,0,0,1,536.92,468Zm-306.44-22.5h0a4.06,4.06,0,0,1,2.47-5.21h0a4.07,4.07,0,0,1,5.24,2.46h0a4.07,4.07,0,0,1-2.47,5.21h0a3.86,3.86,0,0,1-1.4.24h0A4.08,4.08,0,0,1,230.48,445.52Zm316,1.9a4.1,4.1,0,0,1-2.5-5.24h0a4.11,4.11,0,0,1,5.21-2.5h0a4.1,4.1,0,0,1,2.5,5.24h0a4.13,4.13,0,0,1-3.87,2.74h0A4.26,4.26,0,0,1,546.44,447.42ZM224.2,423.13a4.07,4.07,0,0,1,3.19-4.82h0a4,4,0,0,1,4.81,3.19h0a4.05,4.05,0,0,1-3.15,4.82h0a4.24,4.24,0,0,1-.86.08h0A4.11,4.11,0,0,1,224.2,423.13ZM553,425.69a4.09,4.09,0,0,1-3.21-4.82h0a4.12,4.12,0,0,1,4.85-3.21h0a4.12,4.12,0,0,1,3.18,4.85h0a4.09,4.09,0,0,1-4,3.27h0A3.72,3.72,0,0,1,553,425.69ZM221,400.13a4.08,4.08,0,0,1,3.81-4.35h0a4.1,4.1,0,0,1,4.38,3.78h0a4.07,4.07,0,0,1-3.78,4.37h-.3A4.07,4.07,0,0,1,221,400.13Zm335.52,3.15a4.08,4.08,0,0,1-3.81-4.34h0a4.11,4.11,0,0,1,4.35-3.82h0a4.1,4.1,0,0,1,3.81,4.35h0a4.11,4.11,0,0,1-4.08,3.84h0Zm-331.71-22a4.1,4.1,0,0,1-3.84-4.34h0a4.11,4.11,0,0,1,4.38-3.81h0a4.09,4.09,0,0,1,3.81,4.35h0a4.13,4.13,0,0,1-4.08,3.84h0C225,381.29,224.94,381.25,224.85,381.25Zm327.81-4.43a4.12,4.12,0,0,1,3.81-4.38h0a4.13,4.13,0,0,1,4.38,3.82h0A4.09,4.09,0,0,1,557,380.6h0a.92.92,0,0,1-.3,0h0A4.15,4.15,0,0,1,552.66,376.82ZM227.32,358.73a4.1,4.1,0,0,1-3.18-4.83h0v0h0a4.1,4.1,0,0,1,4.82-3.18h0a4.09,4.09,0,0,1,3.19,4.85h0a4.1,4.1,0,0,1-4,3.27h0A4.45,4.45,0,0,1,227.32,358.73Zm322.31-3.81a4.1,4.1,0,0,1,3.15-4.86h0a4.12,4.12,0,0,1,4.86,3.16h0a4.08,4.08,0,0,1-3.16,4.85h0a4.12,4.12,0,0,1-.83.09h0A4.09,4.09,0,0,1,549.63,354.92ZM232.86,336.7a4.09,4.09,0,0,1-2.5-5.21h0a4.12,4.12,0,0,1,5.24-2.5h0a4.15,4.15,0,0,1,2.5,5.24h0a4.1,4.1,0,0,1-3.87,2.71h0A3.67,3.67,0,0,1,232.86,336.7Zm310.76-3.07h0a4.09,4.09,0,0,1,2.47-5.23h0a4.12,4.12,0,0,1,5.24,2.47h0a4.09,4.09,0,0,1-2.47,5.23h0a3.7,3.7,0,0,1-1.37.24h0A4.09,4.09,0,0,1,543.62,333.63Zm-302.25-18a4.08,4.08,0,0,1-1.75-5.51h0a4.08,4.08,0,0,1,5.5-1.75h0a4.06,4.06,0,0,1,1.76,5.5v0a4.07,4.07,0,0,1-3.63,2.2h0A3.88,3.88,0,0,1,241.37,315.66Zm293.38-2.26v0a4.09,4.09,0,0,1,1.72-5.51h0a4.13,4.13,0,0,1,5.54,1.72h0a4.13,4.13,0,0,1-1.73,5.54h0a4.41,4.41,0,0,1-1.9.45h0A4.13,4.13,0,0,1,534.75,313.4ZM252.68,296a4.07,4.07,0,0,1-1-5.69h0a4.05,4.05,0,0,1,5.68-1h0a4.05,4.05,0,0,1,1,5.68h0a4.08,4.08,0,0,1-3.34,1.76h0A4.17,4.17,0,0,1,252.68,296Zm270.52-1.46a4.11,4.11,0,0,1,.95-5.72h0a4.11,4.11,0,0,1,5.72,1h0a4.13,4.13,0,0,1-1,5.72h0a4.2,4.2,0,0,1-2.38.74h0A4.05,4.05,0,0,1,523.2,294.53ZM266.55,278a4.08,4.08,0,0,1-.21-5.78h0a4.1,4.1,0,0,1,5.78-.2h0a4.06,4.06,0,0,1,.21,5.77h0a4.14,4.14,0,0,1-3,1.31h0A4,4,0,0,1,266.55,278Zm242.63-.63a4.08,4.08,0,0,1,.18-5.77h0a4.09,4.09,0,0,1,5.8.18h0a4.09,4.09,0,0,1-.17,5.77h0a4.19,4.19,0,0,1-2.8,1.13h0A4.09,4.09,0,0,1,509.18,277.41ZM282.71,262.14a4.1,4.1,0,0,1,.6-5.77h0a4.07,4.07,0,0,1,5.74.59h0a4.11,4.11,0,0,1-.56,5.75h0a4.11,4.11,0,0,1-2.59.92h0A4.1,4.1,0,0,1,282.71,262.14Zm210.28.21h0a4.07,4.07,0,0,1-.6-5.74h0a4.1,4.1,0,0,1,5.75-.63h0a4.13,4.13,0,0,1,.6,5.78h0a4.16,4.16,0,0,1-3.19,1.51h0A4,4,0,0,1,493,262.35ZM300.87,248.57a4.11,4.11,0,0,1,1.37-5.62h0a4.07,4.07,0,0,1,5.62,1.37h0a4.08,4.08,0,0,1-1.37,5.62h0a4.14,4.14,0,0,1-2.11.6h0A4.12,4.12,0,0,1,300.87,248.57Zm174,1a4.08,4.08,0,0,1-1.37-5.62h0a4.13,4.13,0,0,1,5.63-1.37h0a4.11,4.11,0,0,1,1.37,5.62h0a4.07,4.07,0,0,1-3.51,2h0A3.93,3.93,0,0,1,474.89,249.61Zm-154.17-12a4.13,4.13,0,0,1,2.11-5.42h0a4.11,4.11,0,0,1,5.39,2.15h0a4.1,4.1,0,0,1-2.11,5.38h0a4.44,4.44,0,0,1-1.64.33h0A4.08,4.08,0,0,1,320.72,237.62Zm134.53,1.84h0a4.06,4.06,0,0,1-2.14-5.35h0a4.08,4.08,0,0,1,5.38-2.14h0a4.05,4.05,0,0,1,2.12,5.38h0a4.09,4.09,0,0,1-3.75,2.44h0A3.78,3.78,0,0,1,455.25,239.46Zm-113.37-10a4.05,4.05,0,0,1,2.83-5h0a4.1,4.1,0,0,1,5.06,2.82h0a4.13,4.13,0,0,1-2.86,5.06l0,0a3.7,3.7,0,0,1-1.13.18h0A4.1,4.1,0,0,1,341.88,229.43Zm92.51,2.68a4.06,4.06,0,0,1-2.86-5h0a4,4,0,0,1,5-2.85h0a4.1,4.1,0,0,1,2.86,5h0a4.11,4.11,0,0,1-4,3h0A4.32,4.32,0,0,1,434.39,232.11ZM364,224.25a4.09,4.09,0,0,1,3.48-4.61h0a4.08,4.08,0,0,1,4.61,3.52h0a4.09,4.09,0,0,1-3.48,4.61h0a3.57,3.57,0,0,1-.56,0h0A4.07,4.07,0,0,1,364,224.25Zm48.75,3.43a4.1,4.1,0,0,1-3.51-4.61h0a4.08,4.08,0,0,1,4.58-3.52h0a4.12,4.12,0,0,1,3.51,4.62h0a4.07,4.07,0,0,1-4.05,3.54h0A3.2,3.2,0,0,1,412.72,227.68Zm-22.09-1.46a4.1,4.1,0,0,1-4.1-4.08h0a4.11,4.11,0,0,1,4.1-4.11h0a4.11,4.11,0,0,1,4.08,4.11h0a4.08,4.08,0,0,1-4.08,4.08Zm0-8.19Z"/>
    <path class="cls-2" d="M386.5,527.6a4.46,4.46,0,0,1,4.46-4.47h.24l.33,0h0a4.5,4.5,0,0,1,4.49,4.46h0a4.45,4.45,0,0,1-4.46,4.46H391v0h0A4.47,4.47,0,0,1,386.5,527.6Zm-19.17,2.5h0a4.45,4.45,0,0,1-3.69-5.12h0a4.5,4.5,0,0,1,5.15-3.69h0a4.48,4.48,0,0,1,3.66,5.15h0a4.47,4.47,0,0,1-4.38,3.75h0A3.18,3.18,0,0,1,367.33,530.1ZM410,526.35a4.47,4.47,0,0,1,3.66-5.15h0a4.49,4.49,0,0,1,5.15,3.66h0a4.45,4.45,0,0,1-3.66,5.15h0a3.12,3.12,0,0,1-.74.06h0A4.47,4.47,0,0,1,410,526.35Zm-65.72-2a4.5,4.5,0,0,1-2.77-5.69h0a4.44,4.44,0,0,1,5.66-2.77h0a4.48,4.48,0,0,1,2.8,5.66h0a4.53,4.53,0,0,1-4.23,3h0A5.29,5.29,0,0,1,344.32,524.33Zm88.16-3a4.5,4.5,0,0,1,2.77-5.68h0a4.47,4.47,0,0,1,5.69,2.76h0a4.47,4.47,0,0,1-2.77,5.69h0a5,5,0,0,1-1.46.24h0A4.5,4.5,0,0,1,432.48,521.35ZM322.6,514.77h0a4.47,4.47,0,0,1-1.82-6h0a4.49,4.49,0,0,1,6.07-1.81h0a4.47,4.47,0,0,1,1.79,6.07h0a4.45,4.45,0,0,1-3.93,2.32h0A4.42,4.42,0,0,1,322.6,514.77Zm131.19-2a4.48,4.48,0,0,1,1.76-6.07h0a4.47,4.47,0,0,1,6.07,1.78h0a4.48,4.48,0,0,1-1.79,6.08h0a4.49,4.49,0,0,1-2.11.53h0A4.46,4.46,0,0,1,453.79,512.72Zm-151-10.92a4.44,4.44,0,0,1-.77-6.28h0a4.45,4.45,0,0,1,6.25-.78h0A4.49,4.49,0,0,1,309,501h0a4.53,4.53,0,0,1-3.52,1.7h0A4.46,4.46,0,0,1,302.74,501.8Zm170.64-1.14a4.44,4.44,0,0,1,.74-6.24h0a4.45,4.45,0,0,1,6.28.74h0a4.47,4.47,0,0,1-.77,6.28h0a4.49,4.49,0,0,1-2.74.95h0A4.41,4.41,0,0,1,473.38,500.66ZM285.27,485.72a4.48,4.48,0,0,1,.27-6.31h0a4.48,4.48,0,0,1,6.31.27h0a4.46,4.46,0,0,1-.27,6.31h0a4.44,4.44,0,0,1-3,1.16h0A4.49,4.49,0,0,1,285.27,485.72Zm205.46-.14a4.44,4.44,0,0,1-.3-6.31h0a4.46,4.46,0,0,1,6.31-.27h0a4.48,4.48,0,0,1,.3,6.31h0a4.47,4.47,0,0,1-3.28,1.46h0A4.33,4.33,0,0,1,490.73,485.58ZM270.69,467a4.49,4.49,0,0,1,1.28-6.19h0a4.49,4.49,0,0,1,6.19,1.28h0a4.46,4.46,0,0,1-1.28,6.19h0a4.39,4.39,0,0,1-2.44.75h0A4.48,4.48,0,0,1,270.69,467Zm234.68.81a4.41,4.41,0,0,1-1.31-6.16h0a4.43,4.43,0,0,1,6.16-1.31h0a4.46,4.46,0,0,1,1.31,6.19h0a4.44,4.44,0,0,1-3.75,2h0A4.32,4.32,0,0,1,505.37,467.84Zm-246-21.64a4.48,4.48,0,0,1,2.29-5.89h0a4.43,4.43,0,0,1,5.86,2.29h0a4.46,4.46,0,0,1-2.26,5.89h0a4.87,4.87,0,0,1-1.81.36h0A4.47,4.47,0,0,1,259.38,446.2ZM516.92,448a4.45,4.45,0,0,1-2.32-5.89h0a4.44,4.44,0,0,1,5.86-2.29h0a4.45,4.45,0,0,1,2.32,5.86h0a4.48,4.48,0,0,1-4.11,2.71h0A4.53,4.53,0,0,1,516.92,448ZM251.67,423.76a4.42,4.42,0,0,1,3.21-5.42h0a4.43,4.43,0,0,1,5.42,3.21h0a4.46,4.46,0,0,1-3.21,5.45h0a4.8,4.8,0,0,1-1.1.12h0A4.45,4.45,0,0,1,251.67,423.76ZM525,426.4a4.43,4.43,0,0,1-3.28-5.38v0a4.47,4.47,0,0,1,5.42-3.24h0a4.46,4.46,0,0,1,3.24,5.41h0a4.46,4.46,0,0,1-4.31,3.4h0A3.91,3.91,0,0,1,525,426.4Zm-277.25-26a4.45,4.45,0,0,1,4.08-4.82h0a4.46,4.46,0,0,1,4.79,4.08h0a4.45,4.45,0,0,1-4.08,4.82h0c-.11,0-.23,0-.35,0h0A4.47,4.47,0,0,1,247.77,400.36Zm281.65,3.49a4.45,4.45,0,0,1-4.11-4.8h0a4.46,4.46,0,0,1,4.8-4.1h0a4.48,4.48,0,0,1,4.1,4.79h0a4.48,4.48,0,0,1-4.46,4.14h0C529.66,403.88,529.54,403.85,529.42,403.85Zm-277.6-22.39a4.45,4.45,0,0,1-4.08-4.82h0a4.45,4.45,0,0,1,4.79-4.08h0a4.48,4.48,0,0,1,4.11,4.83v0a4.47,4.47,0,0,1-4.46,4.1h-.36Zm273.4-4.67A4.49,4.49,0,0,1,529.3,372h0a4.45,4.45,0,0,1,4.82,4.08h0a4.46,4.46,0,0,1-4,4.82h-.38A4.5,4.5,0,0,1,525.22,376.79ZM254.83,358.66a4.48,4.48,0,0,1-3.25-5.41h0A4.49,4.49,0,0,1,257,350h0a4.48,4.48,0,0,1,3.24,5.42h0a4.47,4.47,0,0,1-4.34,3.39h0A4.32,4.32,0,0,1,254.83,358.66Zm266.7-3.8h0a4.47,4.47,0,0,1,3.22-5.42h0a4.47,4.47,0,0,1,5.44,3.21h0a4.46,4.46,0,0,1-3.21,5.42h0a3.7,3.7,0,0,1-1.13.15h0A4.45,4.45,0,0,1,521.53,354.86Zm-260-18.19a4.47,4.47,0,0,1-2.29-5.89h0a4.43,4.43,0,0,1,5.86-2.29h0a4.48,4.48,0,0,1,2.33,5.89h0a4.49,4.49,0,0,1-4.11,2.65h0A4.77,4.77,0,0,1,261.55,336.67Zm252.69-2.83h0a4.49,4.49,0,0,1,2.29-5.89h0a4.51,4.51,0,0,1,5.9,2.29h0a4.51,4.51,0,0,1-2.3,5.9h0a4.9,4.9,0,0,1-1.78.35h0A4.48,4.48,0,0,1,514.24,333.84ZM271.85,316.08a4.45,4.45,0,0,1-1.31-6.17h0a4.46,4.46,0,0,1,6.16-1.3h0a4.45,4.45,0,0,1,1.31,6.18h0a4.47,4.47,0,0,1-3.72,2h0A4.32,4.32,0,0,1,271.85,316.08Zm231.74-1.76a4.45,4.45,0,0,1,1.28-6.16h0a4.46,4.46,0,0,1,6.19,1.25h0a4.47,4.47,0,0,1-1.28,6.19h0a4.41,4.41,0,0,1-2.44.74h0A4.47,4.47,0,0,1,503.59,314.32ZM285.36,297.5a4.47,4.47,0,0,1-.26-6.31h0a4.43,4.43,0,0,1,6.31-.27h0a4.45,4.45,0,0,1,.26,6.29h0a4.33,4.33,0,0,1-3.27,1.45h0A4.5,4.5,0,0,1,285.36,297.5Zm204.5-.68h0a4.51,4.51,0,0,1,.24-6.31h0a4.52,4.52,0,0,1,6.34.24h0a4.45,4.45,0,0,1-.27,6.3h0a4.36,4.36,0,0,1-3,1.2h0A4.51,4.51,0,0,1,489.86,296.82Zm-188.1-15.48a4.44,4.44,0,0,1,.75-6.25h0a4.45,4.45,0,0,1,6.28.78h0a4.46,4.46,0,0,1-.78,6.25h0a4.32,4.32,0,0,1-2.73.95h0A4.41,4.41,0,0,1,301.76,281.34Zm171.71.45a4.51,4.51,0,0,1-.81-6.28h0a4.49,4.49,0,0,1,6.28-.78h0a4.48,4.48,0,0,1,.8,6.25h0a4.4,4.4,0,0,1-3.54,1.73h0A4.47,4.47,0,0,1,473.47,281.79ZM320.54,268.13a4.49,4.49,0,0,1,1.82-6.08h0a4.48,4.48,0,0,1,6,1.82h0a4.47,4.47,0,0,1-1.78,6h0a4.66,4.66,0,0,1-2.15.54h0A4.48,4.48,0,0,1,320.54,268.13Zm134.29,1.51a4.44,4.44,0,0,1-1.81-6h0a4.43,4.43,0,0,1,6-1.81h0a4.45,4.45,0,0,1,1.81,6h0a4.48,4.48,0,0,1-3.95,2.35h0A4.34,4.34,0,0,1,454.83,269.64ZM341.26,258.19A4.47,4.47,0,0,1,344,252.5h0a4.45,4.45,0,0,1,5.68,2.77h0a4.45,4.45,0,0,1-2.77,5.65h0a4.14,4.14,0,0,1-1.46.27h0A4.49,4.49,0,0,1,341.26,258.19Zm93.16,2.56h0a4.45,4.45,0,0,1-2.77-5.66h0a4.42,4.42,0,0,1,5.65-2.8h0a4.5,4.5,0,0,1,2.8,5.69h0a4.49,4.49,0,0,1-4.22,3h0A4.33,4.33,0,0,1,434.42,260.75Zm-71.05-9a4.46,4.46,0,0,1,3.66-5.15h0a4.44,4.44,0,0,1,5.12,3.66h0a4.46,4.46,0,0,1-3.66,5.15h0a5.69,5.69,0,0,1-.74.06h0A4.44,4.44,0,0,1,363.37,251.79Zm49.47,3.57h0a4.46,4.46,0,0,1-3.69-5.12h0a4.43,4.43,0,0,1,5.12-3.69h0a4.45,4.45,0,0,1,3.69,5.12h0a4.5,4.5,0,0,1-4.41,3.75h0A6.68,6.68,0,0,1,412.84,255.36Zm-22.18-1.76a4.45,4.45,0,0,1-4.46-4.46h0a4.46,4.46,0,0,1,4.46-4.47h0a4.44,4.44,0,0,1,4.47,4.44h0a4.5,4.5,0,0,1-4.47,4.49Z"/>
    <path class="cls-2" d="M386.11,500.61a4.85,4.85,0,0,1,4.85-4.85v0h.15a1.67,1.67,0,0,1,.3,0h0a4.82,4.82,0,0,1,4.85,4.82h0a4.81,4.81,0,0,1-4.82,4.85H391A4.83,4.83,0,0,1,386.11,500.61Zm-18,2.61a4.86,4.86,0,0,1-3.81-5.68h0a4.83,4.83,0,0,1,5.69-3.81h0a4.85,4.85,0,0,1,3.81,5.68h0a4.83,4.83,0,0,1-4.73,3.9h0A5.2,5.2,0,0,1,368.13,503.22Zm40.45-3.9a4.82,4.82,0,0,1,3.78-5.68h0a4.82,4.82,0,0,1,5.69,3.78h0a4.81,4.81,0,0,1-3.78,5.69h0a3.63,3.63,0,0,1-1,.11h0A4.83,4.83,0,0,1,408.58,499.32Zm-62.41-2.76a4.83,4.83,0,0,1-2.62-6.31h0a4.86,4.86,0,0,1,6.34-2.62h0a4.82,4.82,0,0,1,2.59,6.31h0a4.8,4.8,0,0,1-4.47,3h0A4.56,4.56,0,0,1,346.17,496.56Zm83.69-2.77a4.86,4.86,0,0,1,2.59-6.34h0a4.84,4.84,0,0,1,6.34,2.59h0a4.84,4.84,0,0,1-2.59,6.34h0a5.22,5.22,0,0,1-1.87.39h0A4.87,4.87,0,0,1,429.86,493.79Zm-103.93-8h0a4.86,4.86,0,0,1-1.31-6.72h0a4.81,4.81,0,0,1,6.7-1.31h0a4.81,4.81,0,0,1,1.34,6.69h0a4.87,4.87,0,0,1-4,2.15h0A4.91,4.91,0,0,1,325.93,485.75Zm123.73-1.57a4.87,4.87,0,0,1,1.3-6.73h0a4.84,4.84,0,0,1,6.73,1.31h0a4.84,4.84,0,0,1-1.31,6.7h0a4.78,4.78,0,0,1-2.71.83h0A4.91,4.91,0,0,1,449.66,484.18Zm-141.44-13h0a4.86,4.86,0,0,1,0-6.85h0a4.83,4.83,0,0,1,6.85,0h0a4.83,4.83,0,0,1,0,6.85h0a4.87,4.87,0,0,1-3.4,1.4h0A4.84,4.84,0,0,1,308.22,471.2Zm159-.33a4.84,4.84,0,0,1,0-6.84h0a4.84,4.84,0,0,1,6.85,0h0a4.83,4.83,0,0,1,0,6.84h0a4.87,4.87,0,0,1-3.45,1.43h0A4.92,4.92,0,0,1,467.21,470.87ZM293.64,453.46h0a4.83,4.83,0,0,1,1.31-6.69h0a4.85,4.85,0,0,1,6.72,1.3h0a4.86,4.86,0,0,1-1.31,6.73h0a5,5,0,0,1-2.71.8h0A4.79,4.79,0,0,1,293.64,453.46Zm188.22,1a4.81,4.81,0,0,1-1.37-6.69h0a4.83,4.83,0,0,1,6.69-1.37h0a4.84,4.84,0,0,1,1.38,6.69h0a4.83,4.83,0,0,1-4.05,2.18h0A4.72,4.72,0,0,1,481.86,454.41ZM282.8,433.25a4.79,4.79,0,0,1,2.59-6.31h0a4.84,4.84,0,0,1,6.34,2.59v0a4.84,4.84,0,0,1-2.62,6.31h0a5,5,0,0,1-1.84.36h0A4.85,4.85,0,0,1,282.8,433.25ZM493,435.42a4.81,4.81,0,0,1-2.62-6.31h0a4.79,4.79,0,0,1,6.31-2.61h0a4.82,4.82,0,0,1,2.62,6.3h0a4.87,4.87,0,0,1-4.5,3h0A4.62,4.62,0,0,1,493,435.42Zm-216.88-24.1v0h0a4.86,4.86,0,0,1,3.81-5.69h0a4.85,4.85,0,0,1,5.68,3.81h0a4.81,4.81,0,0,1-3.78,5.69h0a5.34,5.34,0,0,1-.95.09h0A4.86,4.86,0,0,1,276.11,411.32Zm224.11,3.3a4.84,4.84,0,0,1-3.84-5.65h0a4.84,4.84,0,0,1,5.69-3.82h0a4.83,4.83,0,0,1,3.81,5.66h0a4.84,4.84,0,0,1-4.74,3.93h0A3.28,3.28,0,0,1,500.22,414.62ZM273.87,388.49a4.83,4.83,0,0,1,4.83-4.85h0a4.85,4.85,0,0,1,4.85,4.82h0a4.85,4.85,0,0,1-4.82,4.85h0A4.85,4.85,0,0,1,273.87,388.49ZM498.38,388a4.8,4.8,0,0,1,4.82-4.85h0a4.86,4.86,0,0,1,4.85,4.82h0a4.84,4.84,0,0,1-4.82,4.85h0A4.82,4.82,0,0,1,498.38,388Zm-218.49-16.7a4.8,4.8,0,0,1-3.81-5.65h0a4.82,4.82,0,0,1,5.68-3.81h0a4.81,4.81,0,0,1,3.81,5.66h0a4.84,4.84,0,0,1-4.73,3.92h0A3.39,3.39,0,0,1,279.89,371.31Zm216.37-4.25a4.84,4.84,0,0,1,3.78-5.69h0a4.81,4.81,0,0,1,5.69,3.79h0a4.9,4.9,0,0,1-3.81,5.71h0a5.17,5.17,0,0,1-.95.09h0A4.82,4.82,0,0,1,496.26,367.06ZM285.33,350a4.84,4.84,0,0,1-2.65-6.3h0a4.88,4.88,0,0,1,6.34-2.65h0a4.88,4.88,0,0,1,2.62,6.33h0a4.87,4.87,0,0,1-4.49,3h0A4.92,4.92,0,0,1,285.33,350Zm204.77-3a4.83,4.83,0,0,1,2.59-6.34h0a4.84,4.84,0,0,1,6.34,2.59h0a4.87,4.87,0,0,1-2.62,6.34h0a4.9,4.9,0,0,1-1.84.36h0A4.83,4.83,0,0,1,490.1,347ZM294.83,330.15a4.89,4.89,0,0,1-1.34-6.72h0a4.86,4.86,0,0,1,6.72-1.34h0a4.86,4.86,0,0,1,1.35,6.72h0a4.89,4.89,0,0,1-4.05,2.15h0A4.89,4.89,0,0,1,294.83,330.15Zm185.27-1.72h0a4.8,4.8,0,0,1,1.28-6.7h0a4.84,4.84,0,0,1,6.73,1.31h0a4.84,4.84,0,0,1-1.31,6.7h0a4.8,4.8,0,0,1-2.71.83h0A4.84,4.84,0,0,1,480.1,328.43ZM308,312.53a4.84,4.84,0,0,1,0-6.84h0a4.81,4.81,0,0,1,6.85,0h0a4.87,4.87,0,0,1,0,6.84h0a4.94,4.94,0,0,1-3.42,1.4h0A4.75,4.75,0,0,1,308,312.53Zm158.67-.32a4.84,4.84,0,0,1,0-6.85h0a4.83,4.83,0,0,1,6.84,0h0a4.83,4.83,0,0,1,0,6.84h0a4.85,4.85,0,0,1-3.43,1.43h0A4.89,4.89,0,0,1,466.71,312.21Zm-142.3-14.38a4.87,4.87,0,0,1,1.31-6.73h0a4.84,4.84,0,0,1,6.7,1.31h0a4.87,4.87,0,0,1-1.31,6.73h0a5,5,0,0,1-2.71.8h0A4.9,4.9,0,0,1,324.41,297.83Zm126,1a4.83,4.83,0,0,1-1.34-6.7h0a4.83,4.83,0,0,1,6.7-1.34h0a4.86,4.86,0,0,1,1.37,6.7h0a4.92,4.92,0,0,1-4.05,2.18h0A4.92,4.92,0,0,1,450.4,298.87ZM343.34,286.55a4.8,4.8,0,0,1,2.59-6.31h0a4.84,4.84,0,0,1,6.34,2.59h0a4.87,4.87,0,0,1-2.62,6.34h0a4.9,4.9,0,0,1-1.84.36h0A4.82,4.82,0,0,1,343.34,286.55ZM431.83,289a4.81,4.81,0,0,1-2.62-6.31h0a4.81,4.81,0,0,1,6.31-2.62h0a4.83,4.83,0,0,1,2.62,6.31h0a4.85,4.85,0,0,1-4.47,3h0A4.9,4.9,0,0,1,431.83,289Zm-67.74-9.76a4.86,4.86,0,0,1,3.81-5.69h0a4.82,4.82,0,0,1,5.68,3.78h0a4.85,4.85,0,0,1-3.81,5.72h0a4.86,4.86,0,0,1-.95.09h0A4.88,4.88,0,0,1,364.09,279.23ZM411.68,283a4.86,4.86,0,0,1-3.81-5.69h0a4.8,4.8,0,0,1,5.65-3.81h0a4.82,4.82,0,0,1,3.81,5.66h0a4.83,4.83,0,0,1-4.73,3.93h0A5,5,0,0,1,411.68,283Zm-20.95-2Zm-4.86-4.86a4.84,4.84,0,0,1,4.82-4.82h0a4.81,4.81,0,0,1,4.86,4.82h0a4.86,4.86,0,0,1-4.82,4.86h0A4.87,4.87,0,0,1,385.87,276.1Z"/>
    <path class="cls-2" d="M385.75,473.61A5.21,5.21,0,0,1,391,468.4h.33a5.21,5.21,0,0,1,5.21,5.18h0a5.18,5.18,0,0,1-5.18,5.24H391A5.19,5.19,0,0,1,385.75,473.61Zm-18.18,2.14a5.17,5.17,0,0,1-3.69-6.37h0a5.22,5.22,0,0,1,6.37-3.69h0a5.22,5.22,0,0,1,3.69,6.37h0a5.2,5.2,0,0,1-5,3.87h0A5.15,5.15,0,0,1,367.57,475.75ZM408.31,472a5.24,5.24,0,0,1,3.66-6.39h0a5.23,5.23,0,0,1,6.41,3.68h0a5.2,5.2,0,0,1-3.67,6.37h0a5.49,5.49,0,0,1-1.37.18h0A5.2,5.2,0,0,1,408.31,472Zm-62.56-5.26h0a5.2,5.2,0,0,1-1.9-7.12h0a5.17,5.17,0,0,1,7.11-1.9h0a5.22,5.22,0,0,1,1.9,7.11h0a5.23,5.23,0,0,1-4.52,2.59h0A5.1,5.1,0,0,1,345.75,466.74Zm83.61-2.06a5.26,5.26,0,0,1,1.87-7.14h0a5.25,5.25,0,0,1,7.14,1.87h0a5.27,5.27,0,0,1-1.87,7.15h0a5.28,5.28,0,0,1-2.62.68h0A5.23,5.23,0,0,1,429.36,464.68ZM327,452.36a5.2,5.2,0,0,1,0-7.38h0a5.2,5.2,0,0,1,7.35,0h0a5.23,5.23,0,0,1,0,7.38h0a5.21,5.21,0,0,1-3.69,1.52h0A5.14,5.14,0,0,1,327,452.36Zm120.75-.24a5.21,5.21,0,0,1,0-7.35h0a5.22,5.22,0,0,1,7.38,0h0a5.21,5.21,0,0,1,0,7.35h0a5.23,5.23,0,0,1-3.72,1.55h0A5.19,5.19,0,0,1,447.78,452.12ZM312.63,433.64h0a5.2,5.2,0,0,1,1.9-7.12h0a5.23,5.23,0,0,1,7.12,1.91h0a5.21,5.21,0,0,1-1.91,7.11h0a5.23,5.23,0,0,1-2.62.72h0A5.2,5.2,0,0,1,312.63,433.64Zm149.73,1.64a5.23,5.23,0,0,1-1.93-7.12h0a5.21,5.21,0,0,1,7.11-1.93h0a5.22,5.22,0,0,1,1.94,7.11h0A5.28,5.28,0,0,1,465,436h0A5.44,5.44,0,0,1,462.36,435.28ZM303.58,411.85a5.22,5.22,0,0,1,3.66-6.4h0a5.25,5.25,0,0,1,6.4,3.69h0a5.22,5.22,0,0,1-3.69,6.37h0a5.2,5.2,0,0,1-1.34.18h0A5.18,5.18,0,0,1,303.58,411.85Zm168.49,3.34a5.17,5.17,0,0,1-3.69-6.34h0a5.17,5.17,0,0,1,6.36-3.72h0a5.2,5.2,0,0,1,3.7,6.36h0a5.18,5.18,0,0,1-5,3.87h0A5.51,5.51,0,0,1,472.07,415.19ZM300.48,388.43a5.21,5.21,0,0,1,5.21-5.21h0a5.21,5.21,0,0,1,5.21,5.21h0a5.19,5.19,0,0,1-5.21,5.21h0A5.21,5.21,0,0,1,300.48,388.43ZM471,388.1h0a5.19,5.19,0,0,1,5.18-5.21h0a5.21,5.21,0,0,1,5.24,5.18h0a5.26,5.26,0,0,1-5.21,5.24h0A5.2,5.2,0,0,1,471,388.1Zm10.42,0ZM307.21,371.4a5.19,5.19,0,0,1-3.69-6.36h0a5.22,5.22,0,0,1,6.37-3.7h0a5.21,5.21,0,0,1,3.69,6.37h0a5.17,5.17,0,0,1-5,3.87h0A5.37,5.37,0,0,1,307.21,371.4Zm161.05-4h0a5.21,5.21,0,0,1,3.66-6.4h0a5.19,5.19,0,0,1,6.37,3.66h0a5.2,5.2,0,0,1-3.66,6.4h0a5.2,5.2,0,0,1-1.34.18h0A5.18,5.18,0,0,1,468.26,367.42ZM314.44,350.33a5.2,5.2,0,0,1-1.9-7.11h0a5.18,5.18,0,0,1,7.11-1.91h0a5.18,5.18,0,0,1,1.9,7.12h0A5.18,5.18,0,0,1,317,351h0A5.16,5.16,0,0,1,314.44,350.33Zm145.75-2.2h0a5.23,5.23,0,0,1,1.88-7.11h0a5.23,5.23,0,0,1,7.14,1.87h0A5.25,5.25,0,0,1,467.3,350h0a5.15,5.15,0,0,1-2.59.68h0A5.21,5.21,0,0,1,460.19,348.13ZM326.91,331.85a5.22,5.22,0,0,1,0-7.38h0a5.23,5.23,0,0,1,7.38,0h0a5.17,5.17,0,0,1,0,7.35h0a5.12,5.12,0,0,1-3.69,1.55h0A5.19,5.19,0,0,1,326.91,331.85Zm120.51-.24a5.22,5.22,0,0,1,0-7.38h0a5.25,5.25,0,0,1,7.38,0h0a5.2,5.2,0,0,1,0,7.35h0a5.17,5.17,0,0,1-3.69,1.55h0A5.21,5.21,0,0,1,447.42,331.61ZM343.7,317.18a5.21,5.21,0,0,1,1.87-7.12h0a5.24,5.24,0,0,1,7.15,1.91h0a5.21,5.21,0,0,1-1.91,7.11h0a5.12,5.12,0,0,1-2.62.72h0A5.25,5.25,0,0,1,343.7,317.18Zm87.12,1.75a5.26,5.26,0,0,1-1.91-7.14h0a5.23,5.23,0,0,1,7.11-1.91h0a5.21,5.21,0,0,1,1.91,7.12h0a5.23,5.23,0,0,1-4.53,2.62h0A5.45,5.45,0,0,1,430.82,318.93ZM363.7,307.38a5.22,5.22,0,0,1,3.69-6.4h0a5.2,5.2,0,0,1,6.37,3.7h0A5.19,5.19,0,0,1,370.1,311h0a5.55,5.55,0,0,1-1.37.18h0A5.21,5.21,0,0,1,363.7,307.38ZM411.53,311h0a5.2,5.2,0,0,1-3.72-6.37h0a5.22,5.22,0,0,1,6.37-3.7h0a5.24,5.24,0,0,1,3.72,6.38h0a5.25,5.25,0,0,1-5.06,3.86h0A5.17,5.17,0,0,1,411.53,311Zm-26-7.86a5.22,5.22,0,0,1,5.21-5.21h0A5.21,5.21,0,0,1,396,303.1h0a5.21,5.21,0,0,1-5.18,5.21h0A5.23,5.23,0,0,1,385.57,303.1Z"/>
    <path class="cls-2" d="M391.08,452.21H391a5.58,5.58,0,0,1-5.59-5.56h0a5.59,5.59,0,0,1,5.59-5.6h.21a5.54,5.54,0,0,1,5.59,5.56h0a5.57,5.57,0,0,1-5.53,5.6h-.15Zm-24.55-4.85a5.54,5.54,0,0,1-3-7.29h0a5.57,5.57,0,0,1,7.29-3h0a5.57,5.57,0,0,1,3,7.29h0a5.62,5.62,0,0,1-5.15,3.46h0A5.34,5.34,0,0,1,366.53,447.36Zm41.78-3.07a5.59,5.59,0,0,1,3-7.32h0a5.56,5.56,0,0,1,7.29,3h0a5.58,5.58,0,0,1-3,7.29h0a5.67,5.67,0,0,1-2.18.45h0A5.63,5.63,0,0,1,408.31,444.29Zm-62.5-10.77a5.6,5.6,0,0,1,0-7.89h0a5.63,5.63,0,0,1,7.92,0h0a5.6,5.6,0,0,1,0,7.89h0a5.57,5.57,0,0,1-4,1.64h0A5.57,5.57,0,0,1,345.81,433.52Zm82.56-.15a5.6,5.6,0,0,1,0-7.89h0a5.57,5.57,0,0,1,7.89,0h0a5.57,5.57,0,0,1,0,7.89h0a5.52,5.52,0,0,1-4,1.64h0A5.62,5.62,0,0,1,428.37,433.37ZM332,412.83a5.57,5.57,0,0,1,3-7.29h0a5.58,5.58,0,0,1,7.29,3h0a5.54,5.54,0,0,1-3,7.29h0a5.48,5.48,0,0,1-2.14.45h0A5.6,5.6,0,0,1,332,412.83Zm110.81,2.8a5.57,5.57,0,0,1-3.07-7.26h0A5.61,5.61,0,0,1,447,405.3h0a5.58,5.58,0,0,1,3,7.3h0a5.6,5.6,0,0,1-5.15,3.45h0A5.2,5.2,0,0,1,442.78,415.63Zm-115.69-27.2a5.59,5.59,0,0,1,5.6-5.6h0a5.58,5.58,0,0,1,5.56,5.57h0a5.56,5.56,0,0,1-5.56,5.59h0A5.58,5.58,0,0,1,327.09,388.43Zm116.55-.24a5.58,5.58,0,0,1,5.57-5.6h0a5.57,5.57,0,0,1,5.59,5.57h0a5.58,5.58,0,0,1-5.53,5.6h0A5.62,5.62,0,0,1,443.64,388.19ZM335,371.29a5.61,5.61,0,0,1-3-7.3h0a5.6,5.6,0,0,1,7.29-3h0a5.59,5.59,0,0,1,3,7.29h0a5.61,5.61,0,0,1-5.15,3.45h0A6.11,6.11,0,0,1,335,371.29ZM439.6,368h0a5.55,5.55,0,0,1,3-7.29h0a5.56,5.56,0,0,1,7.29,3h0a5.58,5.58,0,0,1-3,7.3h0a5.73,5.73,0,0,1-2.18.44h0A5.6,5.6,0,0,1,439.6,368Zm-93.85-16.87a5.57,5.57,0,0,1,0-7.89h0a5.55,5.55,0,0,1,7.89,0h0a5.6,5.6,0,0,1,0,7.89h0a5.59,5.59,0,0,1-4,1.66h0A5.62,5.62,0,0,1,345.75,351.17Zm82.39-.18a5.55,5.55,0,0,1,0-7.89h0a5.61,5.61,0,0,1,7.88,0h0a5.62,5.62,0,0,1,0,7.92h0a5.7,5.7,0,0,1-4,1.64h0A5.43,5.43,0,0,1,428.14,351ZM363.4,336.7a5.59,5.59,0,0,1,3-7.32h0a5.58,5.58,0,0,1,7.29,3h0a5.6,5.6,0,0,1-3,7.33h0a5.85,5.85,0,0,1-2.14.41h0A5.59,5.59,0,0,1,363.4,336.7ZM411,339.62a5.57,5.57,0,0,1-3-7.29h0a5.56,5.56,0,0,1,7.26-3h0a5.56,5.56,0,0,1,3,7.29h0a5.54,5.54,0,0,1-5.15,3.45h0A5.78,5.78,0,0,1,411,339.62Zm-25.77-9.53a5.58,5.58,0,0,1,5.56-5.59h0a5.58,5.58,0,0,1,5.6,5.56h0a5.57,5.57,0,0,1-5.57,5.6h0A5.6,5.6,0,0,1,385.25,330.09Z"/>
    <path class="cls-2" d="M391,425.6H391a6,6,0,0,1-5.95-6h0a6,6,0,0,1,5.72-5.95h.32a5.91,5.91,0,0,1,6,5.92h0a6,6,0,0,1-5.92,6H391Zm-24-8.72h0a5.92,5.92,0,0,1-.74-8.36h0a6,6,0,0,1,8.39-.75h0a6,6,0,0,1,.74,8.4h0a6,6,0,0,1-4.58,2.11h0A5.82,5.82,0,0,1,367,416.88Zm39.59-.77a6,6,0,0,1,.68-8.39h0a6,6,0,0,1,8.4.68h0a6,6,0,0,1-.69,8.39h0a5.9,5.9,0,0,1-3.84,1.4h0A6,6,0,0,1,406.62,416.11Zm-52.33-21.25a5.94,5.94,0,0,1,4.83-6.91h0a6,6,0,0,1,6.87,4.82h0a5.93,5.93,0,0,1-4.82,6.91h0a6.09,6.09,0,0,1-1,.09h0A5.94,5.94,0,0,1,354.29,394.86Zm66.49,4.7a6,6,0,0,1-4.85-6.87h0a5.94,5.94,0,0,1,6.88-4.86h0a5.93,5.93,0,0,1,4.85,6.88h0v0h0a6,6,0,0,1-5.86,5h0A6.12,6.12,0,0,1,420.78,399.56Zm-59.91-21.67a5.93,5.93,0,0,1-2.2-8.12h0a6,6,0,0,1,8.13-2.18h0a6,6,0,0,1,2.2,8.13h0a6,6,0,0,1-5.18,3h0A5.83,5.83,0,0,1,360.87,377.89Zm52-2.26h0a6,6,0,0,1,2.14-8.16h0a6,6,0,0,1,8.16,2.15h0v0h0a6,6,0,0,1-2.15,8.12h0a5.79,5.79,0,0,1-3,.81h0A5.92,5.92,0,0,1,412.87,375.63ZM374.62,361a6,6,0,0,1,3.54-7.65h0a5.93,5.93,0,0,1,7.62,3.54h0a6,6,0,0,1-3.54,7.65h0a6,6,0,0,1-2,.36h0A5.94,5.94,0,0,1,374.62,361Zm24.94,3.48a6,6,0,0,1-3.57-7.62h0a6,6,0,0,1,7.62-3.54h0a5.92,5.92,0,0,1,3.57,7.62h0a5.93,5.93,0,0,1-5.59,3.92h0A5.52,5.52,0,0,1,399.56,364.5Z"/>
  </g>
</svg>
